%FSLAX45Y45*%
G04 Gerber Fmt 4.5, Leading zero omitted, Abs format (unit mm)*
G04 Created by KiCad (PCBNEW 5.1.8) date 2020-12-08 14:39:59*
%MOMM*%
%LPD*%
G01*
G04 APERTURE LIST*
%TA.AperFunction,Profile*%
%ADD10C,0.150000*%
%TD*%
%ADD11C,0.200000*%
%ADD12C,0.300000*%
G04 APERTURE END LIST*
D10*
X17373600Y-10208260D02*
X16624300Y-10208260D01*
X10922000Y-9258300D02*
X10668000Y-9258300D01*
X10922000Y-9004300D02*
X10922000Y-9258300D01*
X17297400Y-9004300D02*
X17373600Y-9042400D01*
X17297400Y-9984740D02*
X17373600Y-9946640D01*
X10668000Y-14008100D02*
X17373600Y-14008100D01*
X10668000Y-9258300D02*
X10668000Y-14008100D01*
X17297400Y-9004300D02*
X10922000Y-9004300D01*
X17373600Y-9946640D02*
X17373600Y-9042400D01*
X16624300Y-9984740D02*
X17297400Y-9984740D01*
X16624300Y-10208260D02*
X16624300Y-9984740D01*
X17373600Y-14008100D02*
X17373600Y-10208260D01*
D11*
X10843260Y-12557760D02*
X10873740Y-12588240D01*
X10873740Y-12557760D02*
X10843260Y-12588240D01*
X10970260Y-12557760D02*
X11000740Y-12588240D01*
X11000740Y-12557760D02*
X10970260Y-12588240D01*
X10975340Y-11861800D02*
X11005820Y-11892280D01*
X11005820Y-11861800D02*
X10975340Y-11892280D01*
X10980420Y-11965940D02*
X11010900Y-11996420D01*
X11010900Y-11965940D02*
X10980420Y-11996420D01*
X11033760Y-12684760D02*
X11064240Y-12715240D01*
X11064240Y-12684760D02*
X11033760Y-12715240D01*
X11033760Y-12811760D02*
X11064240Y-12842240D01*
X11064240Y-12811760D02*
X11033760Y-12842240D01*
X11033760Y-12938760D02*
X11064240Y-12969240D01*
X11064240Y-12938760D02*
X11033760Y-12969240D01*
X11069320Y-9646920D02*
X11099800Y-9677400D01*
X11099800Y-9646920D02*
X11069320Y-9677400D01*
X11082020Y-11869419D02*
X11112500Y-11899899D01*
X11112500Y-11869419D02*
X11082020Y-11899899D01*
X11158220Y-12606020D02*
X11188700Y-12636500D01*
X11188700Y-12606020D02*
X11158220Y-12636500D01*
X11308080Y-12070080D02*
X11338560Y-12100560D01*
X11338560Y-12070080D02*
X11308080Y-12100560D01*
X11308080Y-12608560D02*
X11338560Y-12639040D01*
X11338560Y-12608560D02*
X11308080Y-12639040D01*
X11516360Y-9141460D02*
X11546840Y-9171940D01*
X11546840Y-9141460D02*
X11516360Y-9171940D01*
X11516360Y-9319260D02*
X11546840Y-9349740D01*
X11546840Y-9319260D02*
X11516360Y-9349740D01*
X11607800Y-12070080D02*
X11638280Y-12100560D01*
X11638280Y-12070080D02*
X11607800Y-12100560D01*
X11607800Y-12608560D02*
X11638280Y-12639040D01*
X11638280Y-12608560D02*
X11607800Y-12639040D01*
X11617960Y-9141460D02*
X11648440Y-9171940D01*
X11648440Y-9141460D02*
X11617960Y-9171940D01*
X11617960Y-9319260D02*
X11648440Y-9349740D01*
X11648440Y-9319260D02*
X11617960Y-9349740D01*
X11771659Y-11785153D02*
X11802139Y-11815633D01*
X11802139Y-11785153D02*
X11771659Y-11815633D01*
X11856720Y-12608560D02*
X11887200Y-12639040D01*
X11887200Y-12608560D02*
X11856720Y-12639040D01*
X11859260Y-12070080D02*
X11889740Y-12100560D01*
X11889740Y-12070080D02*
X11859260Y-12100560D01*
X12016740Y-9255760D02*
X12047220Y-9286240D01*
X12047220Y-9255760D02*
X12016740Y-9286240D01*
X12016740Y-9395461D02*
X12047220Y-9425941D01*
X12047220Y-9395461D02*
X12016740Y-9425941D01*
X12070080Y-11783060D02*
X12100560Y-11813540D01*
X12100560Y-11783060D02*
X12070080Y-11813540D01*
X12092940Y-12128500D02*
X12123420Y-12158980D01*
X12123420Y-12128500D02*
X12092940Y-12158980D01*
X12156440Y-12608560D02*
X12186920Y-12639040D01*
X12186920Y-12608560D02*
X12156440Y-12639040D01*
X12190227Y-12107541D02*
X12220707Y-12138021D01*
X12220707Y-12107541D02*
X12190227Y-12138021D01*
X12273280Y-12158980D02*
X12303760Y-12189460D01*
X12303760Y-12158980D02*
X12273280Y-12189460D01*
X12308840Y-12606020D02*
X12339320Y-12636500D01*
X12339320Y-12606020D02*
X12308840Y-12636500D01*
X12327389Y-12075165D02*
X12357869Y-12105645D01*
X12357869Y-12075165D02*
X12327389Y-12105645D01*
X12575540Y-12418060D02*
X12606020Y-12448540D01*
X12606020Y-12418060D02*
X12575540Y-12448540D01*
X12766040Y-12418060D02*
X12796520Y-12448540D01*
X12796520Y-12418060D02*
X12766040Y-12448540D01*
X12819380Y-9761220D02*
X12849860Y-9791700D01*
X12849860Y-9761220D02*
X12819380Y-9791700D01*
X12951460Y-9954260D02*
X12981940Y-9984740D01*
X12981940Y-9954260D02*
X12951460Y-9984740D01*
X12964160Y-12054840D02*
X12994640Y-12085320D01*
X12994640Y-12054840D02*
X12964160Y-12085320D01*
X12976860Y-10452100D02*
X13007340Y-10482580D01*
X13007340Y-10452100D02*
X12976860Y-10482580D01*
X13027422Y-12623219D02*
X13057902Y-12653699D01*
X13057902Y-12623219D02*
X13027422Y-12653699D01*
X13047980Y-12125960D02*
X13078460Y-12156440D01*
X13078460Y-12125960D02*
X13047980Y-12156440D01*
X13050520Y-10530840D02*
X13081000Y-10561320D01*
X13081000Y-10530840D02*
X13050520Y-10561320D01*
X13124180Y-10596880D02*
X13154660Y-10627360D01*
X13154660Y-10596880D02*
X13124180Y-10627360D01*
X13126720Y-12285980D02*
X13157200Y-12316460D01*
X13157200Y-12285980D02*
X13126720Y-12316460D01*
X13182600Y-12608558D02*
X13213080Y-12639038D01*
X13213080Y-12608558D02*
X13182600Y-12639038D01*
X13195300Y-10662920D02*
X13225780Y-10693400D01*
X13225780Y-10662920D02*
X13195300Y-10693400D01*
X13195301Y-12131694D02*
X13225781Y-12162174D01*
X13225781Y-12131694D02*
X13195301Y-12162174D01*
X13228320Y-10154920D02*
X13258800Y-10185400D01*
X13258800Y-10154920D02*
X13228320Y-10185400D01*
X13243560Y-9433560D02*
X13274040Y-9464040D01*
X13274040Y-9433560D02*
X13243560Y-9464040D01*
X13268959Y-10919460D02*
X13299439Y-10949940D01*
X13299439Y-10919460D02*
X13268959Y-10949940D01*
X13291820Y-12131040D02*
X13322300Y-12161520D01*
X13322300Y-12131040D02*
X13291820Y-12161520D01*
X13307060Y-9370060D02*
X13337540Y-9400540D01*
X13337540Y-9370060D02*
X13307060Y-9400540D01*
X13307060Y-9497060D02*
X13337540Y-9527540D01*
X13337540Y-9497060D02*
X13307060Y-9527540D01*
X13370560Y-9306560D02*
X13401040Y-9337040D01*
X13401040Y-9306560D02*
X13370560Y-9337040D01*
X13370560Y-9433560D02*
X13401040Y-9464040D01*
X13401040Y-9433560D02*
X13370560Y-9464040D01*
X13375640Y-10513060D02*
X13406120Y-10543540D01*
X13406120Y-10513060D02*
X13375640Y-10543540D01*
X13413740Y-9184640D02*
X13444220Y-9215120D01*
X13444220Y-9184640D02*
X13413740Y-9215120D01*
X13431520Y-11861800D02*
X13462000Y-11892280D01*
X13462000Y-11861800D02*
X13431520Y-11892280D01*
X13434060Y-9370060D02*
X13464540Y-9400540D01*
X13464540Y-9370060D02*
X13434060Y-9400540D01*
X13434060Y-12087860D02*
X13464540Y-12118340D01*
X13464540Y-12087860D02*
X13434060Y-12118340D01*
X13446760Y-10441940D02*
X13477240Y-10472420D01*
X13477240Y-10441940D02*
X13446760Y-10472420D01*
X13479780Y-12603480D02*
X13510260Y-12633960D01*
X13510260Y-12603480D02*
X13479780Y-12633960D01*
X13512800Y-12283440D02*
X13543280Y-12313920D01*
X13543280Y-12283440D02*
X13512800Y-12313920D01*
X13517583Y-10376363D02*
X13548063Y-10406843D01*
X13548063Y-10376363D02*
X13517583Y-10406843D01*
X13531695Y-11838664D02*
X13562175Y-11869144D01*
X13562175Y-11838664D02*
X13531695Y-11869144D01*
X13589000Y-10307320D02*
X13619480Y-10337800D01*
X13619480Y-10307320D02*
X13589000Y-10337800D01*
X13621216Y-11802576D02*
X13651696Y-11833056D01*
X13651696Y-11802576D02*
X13621216Y-11833056D01*
X13637260Y-9827260D02*
X13667740Y-9857740D01*
X13667740Y-9827260D02*
X13637260Y-9857740D01*
X13700760Y-9763760D02*
X13731240Y-9794240D01*
X13731240Y-9763760D02*
X13700760Y-9794240D01*
X13700760Y-9890760D02*
X13731240Y-9921240D01*
X13731240Y-9890760D02*
X13700760Y-9921240D01*
X13700760Y-10589260D02*
X13731240Y-10619740D01*
X13731240Y-10589260D02*
X13700760Y-10619740D01*
X13700760Y-10716260D02*
X13731240Y-10746740D01*
X13731240Y-10716260D02*
X13700760Y-10746740D01*
X13700760Y-10843260D02*
X13731240Y-10873740D01*
X13731240Y-10843260D02*
X13700760Y-10873740D01*
X13700760Y-10970260D02*
X13731240Y-11000740D01*
X13731240Y-10970260D02*
X13700760Y-11000740D01*
X13731240Y-12085320D02*
X13761720Y-12115800D01*
X13761720Y-12085320D02*
X13731240Y-12115800D01*
X13731240Y-12603480D02*
X13761720Y-12633960D01*
X13761720Y-12603480D02*
X13731240Y-12633960D01*
X13751560Y-11404600D02*
X13782040Y-11435080D01*
X13782040Y-11404600D02*
X13751560Y-11435080D01*
X13764260Y-9700260D02*
X13794740Y-9730740D01*
X13794740Y-9700260D02*
X13764260Y-9730740D01*
X13764260Y-9827260D02*
X13794740Y-9857740D01*
X13794740Y-9827260D02*
X13764260Y-9857740D01*
X13827760Y-9763760D02*
X13858240Y-9794240D01*
X13858240Y-9763760D02*
X13827760Y-9794240D01*
X13827760Y-10589260D02*
X13858240Y-10619740D01*
X13858240Y-10589260D02*
X13827760Y-10619740D01*
X13827760Y-10716260D02*
X13858240Y-10746740D01*
X13858240Y-10716260D02*
X13827760Y-10746740D01*
X13827760Y-10843260D02*
X13858240Y-10873740D01*
X13858240Y-10843260D02*
X13827760Y-10873740D01*
X13827760Y-10970260D02*
X13858240Y-11000740D01*
X13858240Y-10970260D02*
X13827760Y-11000740D01*
X13858240Y-11297920D02*
X13888720Y-11328400D01*
X13888720Y-11297920D02*
X13858240Y-11328400D01*
X13954760Y-10589260D02*
X13985240Y-10619740D01*
X13985240Y-10589260D02*
X13954760Y-10619740D01*
X13954760Y-10716260D02*
X13985240Y-10746740D01*
X13985240Y-10716260D02*
X13954760Y-10746740D01*
X13954760Y-10843260D02*
X13985240Y-10873740D01*
X13985240Y-10843260D02*
X13954760Y-10873740D01*
X13954760Y-10970260D02*
X13985240Y-11000740D01*
X13985240Y-10970260D02*
X13954760Y-11000740D01*
X13982700Y-9420860D02*
X14013180Y-9451340D01*
X14013180Y-9420860D02*
X13982700Y-9451340D01*
X14028420Y-12600940D02*
X14058900Y-12631420D01*
X14058900Y-12600940D02*
X14028420Y-12631420D01*
X14030960Y-12072620D02*
X14061440Y-12103100D01*
X14061440Y-12072620D02*
X14030960Y-12103100D01*
X14081760Y-10589260D02*
X14112240Y-10619740D01*
X14112240Y-10589260D02*
X14081760Y-10619740D01*
X14081760Y-10716260D02*
X14112240Y-10746740D01*
X14112240Y-10716260D02*
X14081760Y-10746740D01*
X14081760Y-10843260D02*
X14112240Y-10873740D01*
X14112240Y-10843260D02*
X14081760Y-10873740D01*
X14081760Y-10970260D02*
X14112240Y-11000740D01*
X14112240Y-10970260D02*
X14081760Y-11000740D01*
X14091920Y-11531600D02*
X14122400Y-11562080D01*
X14122400Y-11531600D02*
X14091920Y-11562080D01*
X14131463Y-12075281D02*
X14161943Y-12105761D01*
X14161943Y-12075281D02*
X14131463Y-12105761D01*
X14135100Y-11861800D02*
X14165580Y-11892280D01*
X14165580Y-11861800D02*
X14135100Y-11892280D01*
X14160500Y-12258040D02*
X14190980Y-12288520D01*
X14190980Y-12258040D02*
X14160500Y-12288520D01*
X14180820Y-12608560D02*
X14211300Y-12639040D01*
X14211300Y-12608560D02*
X14180820Y-12639040D01*
X14208760Y-11795760D02*
X14239240Y-11826240D01*
X14239240Y-11795760D02*
X14208760Y-11826240D01*
X14218920Y-10317480D02*
X14249400Y-10347960D01*
X14249400Y-10317480D02*
X14218920Y-10347960D01*
X14243077Y-12207450D02*
X14273557Y-12237930D01*
X14273557Y-12207450D02*
X14243077Y-12237930D01*
X14246861Y-10081260D02*
X14277341Y-10111740D01*
X14277341Y-10081260D02*
X14246861Y-10111740D01*
X14363700Y-11877040D02*
X14394180Y-11907520D01*
X14394180Y-11877040D02*
X14363700Y-11907520D01*
X14405025Y-10773995D02*
X14435505Y-10804475D01*
X14435505Y-10773995D02*
X14405025Y-10804475D01*
X14439900Y-9842500D02*
X14470380Y-9872980D01*
X14470380Y-9842500D02*
X14439900Y-9872980D01*
X14457680Y-12415520D02*
X14488160Y-12446000D01*
X14488160Y-12415520D02*
X14457680Y-12446000D01*
X14462759Y-12570460D02*
X14493239Y-12600940D01*
X14493239Y-12570460D02*
X14462759Y-12600940D01*
X14462760Y-11541760D02*
X14493240Y-11572240D01*
X14493240Y-11541760D02*
X14462760Y-11572240D01*
X14462760Y-11668760D02*
X14493240Y-11699240D01*
X14493240Y-11668760D02*
X14462760Y-11699240D01*
X14462760Y-11795760D02*
X14493240Y-11826240D01*
X14493240Y-11795760D02*
X14462760Y-11826240D01*
X14462760Y-12110720D02*
X14493240Y-12141200D01*
X14493240Y-12110720D02*
X14462760Y-12141200D01*
X14559280Y-12415520D02*
X14589760Y-12446000D01*
X14589760Y-12415520D02*
X14559280Y-12446000D01*
X14589760Y-11668760D02*
X14620240Y-11699240D01*
X14620240Y-11668760D02*
X14589760Y-11699240D01*
X14589760Y-11795760D02*
X14620240Y-11826240D01*
X14620240Y-11795760D02*
X14589760Y-11826240D01*
X14632940Y-11046460D02*
X14663420Y-11076940D01*
X14663420Y-11046460D02*
X14632940Y-11076940D01*
X14716760Y-11795760D02*
X14747240Y-11826240D01*
X14747240Y-11795760D02*
X14716760Y-11826240D01*
X14785704Y-12823444D02*
X14816184Y-12853924D01*
X14816184Y-12823444D02*
X14785704Y-12853924D01*
X14823440Y-12966700D02*
X14853920Y-12997180D01*
X14853920Y-12966700D02*
X14823440Y-12997180D01*
X14825980Y-12611100D02*
X14856460Y-12641580D01*
X14856460Y-12611100D02*
X14825980Y-12641580D01*
X14828520Y-12070080D02*
X14859000Y-12100560D01*
X14859000Y-12070080D02*
X14828520Y-12100560D01*
X14877574Y-12874088D02*
X14908054Y-12904568D01*
X14908054Y-12874088D02*
X14877574Y-12904568D01*
X14978380Y-12070080D02*
X15008860Y-12100560D01*
X15008860Y-12070080D02*
X14978380Y-12100560D01*
X14978380Y-12613640D02*
X15008860Y-12644120D01*
X15008860Y-12613640D02*
X14978380Y-12644120D01*
X15278100Y-12070080D02*
X15308580Y-12100560D01*
X15308580Y-12070080D02*
X15278100Y-12100560D01*
X15278100Y-12613640D02*
X15308580Y-12644120D01*
X15308580Y-12613640D02*
X15278100Y-12644120D01*
X15290800Y-11851640D02*
X15321280Y-11882120D01*
X15321280Y-11851640D02*
X15290800Y-11882120D01*
X15427960Y-12075160D02*
X15458440Y-12105640D01*
X15458440Y-12075160D02*
X15427960Y-12105640D01*
X15478760Y-12882880D02*
X15509240Y-12913360D01*
X15509240Y-12882880D02*
X15478760Y-12913360D01*
X15527020Y-12613640D02*
X15557500Y-12644120D01*
X15557500Y-12613640D02*
X15527020Y-12644120D01*
X15529560Y-12077700D02*
X15560040Y-12108180D01*
X15560040Y-12077700D02*
X15529560Y-12108180D01*
X15537980Y-10728960D02*
X15568460Y-10759440D01*
X15568460Y-10728960D02*
X15537980Y-10759440D01*
X15537980Y-10906760D02*
X15568460Y-10937240D01*
X15568460Y-10906760D02*
X15537980Y-10937240D01*
X15577820Y-12880340D02*
X15608300Y-12910820D01*
X15608300Y-12880340D02*
X15577820Y-12910820D01*
X15826740Y-11826240D02*
X15857220Y-11856720D01*
X15857220Y-11826240D02*
X15826740Y-11856720D01*
X15826740Y-12613640D02*
X15857220Y-12644120D01*
X15857220Y-12613640D02*
X15826740Y-12644120D01*
X15834360Y-10483380D02*
X15864840Y-10513860D01*
X15864840Y-10483380D02*
X15834360Y-10513860D01*
X16070580Y-12733020D02*
X16101060Y-12763500D01*
X16101060Y-12733020D02*
X16070580Y-12763500D01*
X16151860Y-12524740D02*
X16182340Y-12555220D01*
X16182340Y-12524740D02*
X16151860Y-12555220D01*
X16215360Y-10685780D02*
X16245840Y-10716260D01*
X16245840Y-10685780D02*
X16215360Y-10716260D01*
X16316960Y-9654540D02*
X16347440Y-9685020D01*
X16347440Y-9654540D02*
X16316960Y-9685020D01*
X16322220Y-9555795D02*
X16352700Y-9586275D01*
X16352700Y-9555795D02*
X16322220Y-9586275D01*
X16405860Y-9415780D02*
X16436340Y-9446260D01*
X16436340Y-9415780D02*
X16405860Y-9446260D01*
X16417580Y-9527107D02*
X16448060Y-9557587D01*
X16448060Y-9527107D02*
X16417580Y-9557587D01*
X16540480Y-11059160D02*
X16570960Y-11089640D01*
X16570960Y-11059160D02*
X16540480Y-11089640D01*
X16568420Y-9225280D02*
X16598900Y-9255760D01*
X16598900Y-9225280D02*
X16568420Y-9255760D01*
X16624300Y-9733280D02*
X16654780Y-9763760D01*
X16654780Y-9733280D02*
X16624300Y-9763760D01*
X16715740Y-9088120D02*
X16746220Y-9118600D01*
X16746220Y-9088120D02*
X16715740Y-9118600D01*
X16771620Y-9408160D02*
X16802100Y-9438640D01*
X16802100Y-9408160D02*
X16771620Y-9438640D01*
X16812260Y-12049760D02*
X16842740Y-12080240D01*
X16842740Y-12049760D02*
X16812260Y-12080240D01*
X16812260Y-12176760D02*
X16842740Y-12207240D01*
X16842740Y-12176760D02*
X16812260Y-12207240D01*
X16939260Y-12049760D02*
X16969740Y-12080240D01*
X16969740Y-12049760D02*
X16939260Y-12080240D01*
X16939260Y-12176760D02*
X16969740Y-12207240D01*
X16969740Y-12176760D02*
X16939260Y-12207240D01*
X16951960Y-10977880D02*
X16982440Y-11008360D01*
X16982440Y-10977880D02*
X16951960Y-11008360D01*
X17066260Y-12049760D02*
X17096740Y-12080240D01*
X17096740Y-12049760D02*
X17066260Y-12080240D01*
X17066260Y-12176760D02*
X17096740Y-12207240D01*
X17096740Y-12176760D02*
X17066260Y-12207240D01*
X17152620Y-10751820D02*
X17183100Y-10782300D01*
X17183100Y-10751820D02*
X17152620Y-10782300D01*
X17152620Y-10993120D02*
X17183100Y-11023600D01*
X17183100Y-10993120D02*
X17152620Y-11023600D01*
X11036300Y-13208000D02*
G75*
G03*
X11036300Y-13208000I-50800J0D01*
G01*
X11290300Y-13208000D02*
G75*
G03*
X11290300Y-13208000I-50800J0D01*
G01*
X11544300Y-13208000D02*
G75*
G03*
X11544300Y-13208000I-50800J0D01*
G01*
X11798300Y-13208000D02*
G75*
G03*
X11798300Y-13208000I-50800J0D01*
G01*
X12052300Y-13208000D02*
G75*
G03*
X12052300Y-13208000I-50800J0D01*
G01*
X12306300Y-13208000D02*
G75*
G03*
X12306300Y-13208000I-50800J0D01*
G01*
X12560300Y-13208000D02*
G75*
G03*
X12560300Y-13208000I-50800J0D01*
G01*
X12814300Y-13208000D02*
G75*
G03*
X12814300Y-13208000I-50800J0D01*
G01*
X13068300Y-13208000D02*
G75*
G03*
X13068300Y-13208000I-50800J0D01*
G01*
X13322300Y-13208000D02*
G75*
G03*
X13322300Y-13208000I-50800J0D01*
G01*
X13576300Y-13208000D02*
G75*
G03*
X13576300Y-13208000I-50800J0D01*
G01*
X13830300Y-13208000D02*
G75*
G03*
X13830300Y-13208000I-50800J0D01*
G01*
X14084300Y-13208000D02*
G75*
G03*
X14084300Y-13208000I-50800J0D01*
G01*
X14338300Y-13208000D02*
G75*
G03*
X14338300Y-13208000I-50800J0D01*
G01*
X14592300Y-13208000D02*
G75*
G03*
X14592300Y-13208000I-50800J0D01*
G01*
X14846300Y-13208000D02*
G75*
G03*
X14846300Y-13208000I-50800J0D01*
G01*
X15100300Y-13208000D02*
G75*
G03*
X15100300Y-13208000I-50800J0D01*
G01*
X15354300Y-13208000D02*
G75*
G03*
X15354300Y-13208000I-50800J0D01*
G01*
X15608300Y-13208000D02*
G75*
G03*
X15608300Y-13208000I-50800J0D01*
G01*
X15862300Y-13208000D02*
G75*
G03*
X15862300Y-13208000I-50800J0D01*
G01*
X16116300Y-13208000D02*
G75*
G03*
X16116300Y-13208000I-50800J0D01*
G01*
X16370300Y-13208000D02*
G75*
G03*
X16370300Y-13208000I-50800J0D01*
G01*
X16624300Y-13208000D02*
G75*
G03*
X16624300Y-13208000I-50800J0D01*
G01*
X16878300Y-13208000D02*
G75*
G03*
X16878300Y-13208000I-50800J0D01*
G01*
X17132300Y-13208000D02*
G75*
G03*
X17132300Y-13208000I-50800J0D01*
G01*
X11036300Y-13462000D02*
G75*
G03*
X11036300Y-13462000I-50800J0D01*
G01*
X11036300Y-13716000D02*
G75*
G03*
X11036300Y-13716000I-50800J0D01*
G01*
X11290300Y-13462000D02*
G75*
G03*
X11290300Y-13462000I-50800J0D01*
G01*
X11290300Y-13716000D02*
G75*
G03*
X11290300Y-13716000I-50800J0D01*
G01*
X11544300Y-13462000D02*
G75*
G03*
X11544300Y-13462000I-50800J0D01*
G01*
X11544300Y-13716000D02*
G75*
G03*
X11544300Y-13716000I-50800J0D01*
G01*
X11798300Y-13462000D02*
G75*
G03*
X11798300Y-13462000I-50800J0D01*
G01*
X11798300Y-13716000D02*
G75*
G03*
X11798300Y-13716000I-50800J0D01*
G01*
X12052300Y-13462000D02*
G75*
G03*
X12052300Y-13462000I-50800J0D01*
G01*
X12052300Y-13716000D02*
G75*
G03*
X12052300Y-13716000I-50800J0D01*
G01*
X12306300Y-13462000D02*
G75*
G03*
X12306300Y-13462000I-50800J0D01*
G01*
X12306300Y-13716000D02*
G75*
G03*
X12306300Y-13716000I-50800J0D01*
G01*
X12560300Y-13462000D02*
G75*
G03*
X12560300Y-13462000I-50800J0D01*
G01*
X12560300Y-13716000D02*
G75*
G03*
X12560300Y-13716000I-50800J0D01*
G01*
X12814300Y-13462000D02*
G75*
G03*
X12814300Y-13462000I-50800J0D01*
G01*
X12814300Y-13716000D02*
G75*
G03*
X12814300Y-13716000I-50800J0D01*
G01*
X13068300Y-13462000D02*
G75*
G03*
X13068300Y-13462000I-50800J0D01*
G01*
X13068300Y-13716000D02*
G75*
G03*
X13068300Y-13716000I-50800J0D01*
G01*
X13322300Y-13462000D02*
G75*
G03*
X13322300Y-13462000I-50800J0D01*
G01*
X13322300Y-13716000D02*
G75*
G03*
X13322300Y-13716000I-50800J0D01*
G01*
X13576300Y-13462000D02*
G75*
G03*
X13576300Y-13462000I-50800J0D01*
G01*
X13576300Y-13716000D02*
G75*
G03*
X13576300Y-13716000I-50800J0D01*
G01*
X13830300Y-13462000D02*
G75*
G03*
X13830300Y-13462000I-50800J0D01*
G01*
X13830300Y-13716000D02*
G75*
G03*
X13830300Y-13716000I-50800J0D01*
G01*
X14084300Y-13462000D02*
G75*
G03*
X14084300Y-13462000I-50800J0D01*
G01*
X14084300Y-13716000D02*
G75*
G03*
X14084300Y-13716000I-50800J0D01*
G01*
X14338300Y-13462000D02*
G75*
G03*
X14338300Y-13462000I-50800J0D01*
G01*
X14338300Y-13716000D02*
G75*
G03*
X14338300Y-13716000I-50800J0D01*
G01*
X14592300Y-13462000D02*
G75*
G03*
X14592300Y-13462000I-50800J0D01*
G01*
X14592300Y-13716000D02*
G75*
G03*
X14592300Y-13716000I-50800J0D01*
G01*
X14846300Y-13462000D02*
G75*
G03*
X14846300Y-13462000I-50800J0D01*
G01*
X14846300Y-13716000D02*
G75*
G03*
X14846300Y-13716000I-50800J0D01*
G01*
X15100300Y-13462000D02*
G75*
G03*
X15100300Y-13462000I-50800J0D01*
G01*
X15100300Y-13716000D02*
G75*
G03*
X15100300Y-13716000I-50800J0D01*
G01*
X15354300Y-13462000D02*
G75*
G03*
X15354300Y-13462000I-50800J0D01*
G01*
X15354300Y-13716000D02*
G75*
G03*
X15354300Y-13716000I-50800J0D01*
G01*
X15608300Y-13462000D02*
G75*
G03*
X15608300Y-13462000I-50800J0D01*
G01*
X15608300Y-13716000D02*
G75*
G03*
X15608300Y-13716000I-50800J0D01*
G01*
X15862300Y-13462000D02*
G75*
G03*
X15862300Y-13462000I-50800J0D01*
G01*
X15862300Y-13716000D02*
G75*
G03*
X15862300Y-13716000I-50800J0D01*
G01*
X16116300Y-13462000D02*
G75*
G03*
X16116300Y-13462000I-50800J0D01*
G01*
X16116300Y-13716000D02*
G75*
G03*
X16116300Y-13716000I-50800J0D01*
G01*
X16370300Y-13462000D02*
G75*
G03*
X16370300Y-13462000I-50800J0D01*
G01*
X16370300Y-13716000D02*
G75*
G03*
X16370300Y-13716000I-50800J0D01*
G01*
X16624300Y-13462000D02*
G75*
G03*
X16624300Y-13462000I-50800J0D01*
G01*
X16624300Y-13716000D02*
G75*
G03*
X16624300Y-13716000I-50800J0D01*
G01*
X16878300Y-13462000D02*
G75*
G03*
X16878300Y-13462000I-50800J0D01*
G01*
X16878300Y-13716000D02*
G75*
G03*
X16878300Y-13716000I-50800J0D01*
G01*
X17132300Y-13462000D02*
G75*
G03*
X17132300Y-13462000I-50800J0D01*
G01*
X17132300Y-13716000D02*
G75*
G03*
X17132300Y-13716000I-50800J0D01*
G01*
D12*
X10946928Y-14481314D02*
X10946928Y-14181314D01*
X11018357Y-14181314D01*
X11061214Y-14195600D01*
X11089786Y-14224171D01*
X11104071Y-14252743D01*
X11118357Y-14309886D01*
X11118357Y-14352743D01*
X11104071Y-14409886D01*
X11089786Y-14438457D01*
X11061214Y-14467029D01*
X11018357Y-14481314D01*
X10946928Y-14481314D01*
X11246928Y-14481314D02*
X11246928Y-14281314D01*
X11246928Y-14338457D02*
X11261214Y-14309886D01*
X11275500Y-14295600D01*
X11304071Y-14281314D01*
X11332643Y-14281314D01*
X11432643Y-14481314D02*
X11432643Y-14281314D01*
X11432643Y-14181314D02*
X11418357Y-14195600D01*
X11432643Y-14209886D01*
X11446928Y-14195600D01*
X11432643Y-14181314D01*
X11432643Y-14209886D01*
X11618357Y-14481314D02*
X11589786Y-14467029D01*
X11575500Y-14438457D01*
X11575500Y-14181314D01*
X11775500Y-14481314D02*
X11746928Y-14467029D01*
X11732643Y-14438457D01*
X11732643Y-14181314D01*
X12118357Y-14481314D02*
X12118357Y-14181314D01*
X12218357Y-14395600D01*
X12318357Y-14181314D01*
X12318357Y-14481314D01*
X12589786Y-14481314D02*
X12589786Y-14324171D01*
X12575500Y-14295600D01*
X12546928Y-14281314D01*
X12489786Y-14281314D01*
X12461214Y-14295600D01*
X12589786Y-14467029D02*
X12561214Y-14481314D01*
X12489786Y-14481314D01*
X12461214Y-14467029D01*
X12446928Y-14438457D01*
X12446928Y-14409886D01*
X12461214Y-14381314D01*
X12489786Y-14367029D01*
X12561214Y-14367029D01*
X12589786Y-14352743D01*
X12732643Y-14281314D02*
X12732643Y-14581314D01*
X12732643Y-14295600D02*
X12761214Y-14281314D01*
X12818357Y-14281314D01*
X12846928Y-14295600D01*
X12861214Y-14309886D01*
X12875500Y-14338457D01*
X12875500Y-14424171D01*
X12861214Y-14452743D01*
X12846928Y-14467029D01*
X12818357Y-14481314D01*
X12761214Y-14481314D01*
X12732643Y-14467029D01*
X13004071Y-14452743D02*
X13018357Y-14467029D01*
X13004071Y-14481314D01*
X12989786Y-14467029D01*
X13004071Y-14452743D01*
X13004071Y-14481314D01*
X13004071Y-14295600D02*
X13018357Y-14309886D01*
X13004071Y-14324171D01*
X12989786Y-14309886D01*
X13004071Y-14295600D01*
X13004071Y-14324171D01*
X10630020Y-14960360D02*
X10660500Y-14990840D01*
X10660500Y-14960360D02*
X10630020Y-14990840D01*
X11004071Y-14811314D02*
X11032643Y-14811314D01*
X11061214Y-14825600D01*
X11075500Y-14839886D01*
X11089786Y-14868457D01*
X11104071Y-14925600D01*
X11104071Y-14997029D01*
X11089786Y-15054171D01*
X11075500Y-15082743D01*
X11061214Y-15097029D01*
X11032643Y-15111314D01*
X11004071Y-15111314D01*
X10975500Y-15097029D01*
X10961214Y-15082743D01*
X10946928Y-15054171D01*
X10932643Y-14997029D01*
X10932643Y-14925600D01*
X10946928Y-14868457D01*
X10961214Y-14839886D01*
X10975500Y-14825600D01*
X11004071Y-14811314D01*
X11232643Y-15082743D02*
X11246928Y-15097029D01*
X11232643Y-15111314D01*
X11218357Y-15097029D01*
X11232643Y-15082743D01*
X11232643Y-15111314D01*
X11346928Y-14811314D02*
X11532643Y-14811314D01*
X11432643Y-14925600D01*
X11475500Y-14925600D01*
X11504071Y-14939886D01*
X11518357Y-14954171D01*
X11532643Y-14982743D01*
X11532643Y-15054171D01*
X11518357Y-15082743D01*
X11504071Y-15097029D01*
X11475500Y-15111314D01*
X11389786Y-15111314D01*
X11361214Y-15097029D01*
X11346928Y-15082743D01*
X11718357Y-14811314D02*
X11746928Y-14811314D01*
X11775500Y-14825600D01*
X11789786Y-14839886D01*
X11804071Y-14868457D01*
X11818357Y-14925600D01*
X11818357Y-14997029D01*
X11804071Y-15054171D01*
X11789786Y-15082743D01*
X11775500Y-15097029D01*
X11746928Y-15111314D01*
X11718357Y-15111314D01*
X11689786Y-15097029D01*
X11675500Y-15082743D01*
X11661214Y-15054171D01*
X11646928Y-14997029D01*
X11646928Y-14925600D01*
X11661214Y-14868457D01*
X11675500Y-14839886D01*
X11689786Y-14825600D01*
X11718357Y-14811314D01*
X11946928Y-15111314D02*
X11946928Y-14911314D01*
X11946928Y-14939886D02*
X11961214Y-14925600D01*
X11989786Y-14911314D01*
X12032643Y-14911314D01*
X12061214Y-14925600D01*
X12075500Y-14954171D01*
X12075500Y-15111314D01*
X12075500Y-14954171D02*
X12089786Y-14925600D01*
X12118357Y-14911314D01*
X12161214Y-14911314D01*
X12189786Y-14925600D01*
X12204071Y-14954171D01*
X12204071Y-15111314D01*
X12346928Y-15111314D02*
X12346928Y-14911314D01*
X12346928Y-14939886D02*
X12361214Y-14925600D01*
X12389786Y-14911314D01*
X12432643Y-14911314D01*
X12461214Y-14925600D01*
X12475500Y-14954171D01*
X12475500Y-15111314D01*
X12475500Y-14954171D02*
X12489786Y-14925600D01*
X12518357Y-14911314D01*
X12561214Y-14911314D01*
X12589786Y-14925600D01*
X12604071Y-14954171D01*
X12604071Y-15111314D01*
X13189786Y-14797029D02*
X12932643Y-15182743D01*
X13575500Y-14811314D02*
X13604071Y-14811314D01*
X13632643Y-14825600D01*
X13646928Y-14839886D01*
X13661214Y-14868457D01*
X13675500Y-14925600D01*
X13675500Y-14997029D01*
X13661214Y-15054171D01*
X13646928Y-15082743D01*
X13632643Y-15097029D01*
X13604071Y-15111314D01*
X13575500Y-15111314D01*
X13546928Y-15097029D01*
X13532643Y-15082743D01*
X13518357Y-15054171D01*
X13504071Y-14997029D01*
X13504071Y-14925600D01*
X13518357Y-14868457D01*
X13532643Y-14839886D01*
X13546928Y-14825600D01*
X13575500Y-14811314D01*
X13804071Y-15082743D02*
X13818357Y-15097029D01*
X13804071Y-15111314D01*
X13789786Y-15097029D01*
X13804071Y-15082743D01*
X13804071Y-15111314D01*
X14004071Y-14811314D02*
X14032643Y-14811314D01*
X14061214Y-14825600D01*
X14075500Y-14839886D01*
X14089786Y-14868457D01*
X14104071Y-14925600D01*
X14104071Y-14997029D01*
X14089786Y-15054171D01*
X14075500Y-15082743D01*
X14061214Y-15097029D01*
X14032643Y-15111314D01*
X14004071Y-15111314D01*
X13975500Y-15097029D01*
X13961214Y-15082743D01*
X13946928Y-15054171D01*
X13932643Y-14997029D01*
X13932643Y-14925600D01*
X13946928Y-14868457D01*
X13961214Y-14839886D01*
X13975500Y-14825600D01*
X14004071Y-14811314D01*
X14389786Y-15111314D02*
X14218357Y-15111314D01*
X14304071Y-15111314D02*
X14304071Y-14811314D01*
X14275500Y-14854171D01*
X14246928Y-14882743D01*
X14218357Y-14897029D01*
X14504071Y-14839886D02*
X14518357Y-14825600D01*
X14546928Y-14811314D01*
X14618357Y-14811314D01*
X14646928Y-14825600D01*
X14661214Y-14839886D01*
X14675500Y-14868457D01*
X14675500Y-14897029D01*
X14661214Y-14939886D01*
X14489786Y-15111314D01*
X14675500Y-15111314D01*
X14789786Y-14811314D02*
X14789786Y-14868457D01*
X14904071Y-14811314D02*
X14904071Y-14868457D01*
X15346928Y-15225600D02*
X15332643Y-15211314D01*
X15304071Y-15168457D01*
X15289786Y-15139886D01*
X15275500Y-15097029D01*
X15261214Y-15025600D01*
X15261214Y-14968457D01*
X15275500Y-14897029D01*
X15289786Y-14854171D01*
X15304071Y-14825600D01*
X15332643Y-14782743D01*
X15346928Y-14768457D01*
X15618357Y-15111314D02*
X15446928Y-15111314D01*
X15532643Y-15111314D02*
X15532643Y-14811314D01*
X15504071Y-14854171D01*
X15475500Y-14882743D01*
X15446928Y-14897029D01*
X15889786Y-14811314D02*
X15746928Y-14811314D01*
X15732643Y-14954171D01*
X15746928Y-14939886D01*
X15775500Y-14925600D01*
X15846928Y-14925600D01*
X15875500Y-14939886D01*
X15889786Y-14954171D01*
X15904071Y-14982743D01*
X15904071Y-15054171D01*
X15889786Y-15082743D01*
X15875500Y-15097029D01*
X15846928Y-15111314D01*
X15775500Y-15111314D01*
X15746928Y-15097029D01*
X15732643Y-15082743D01*
X16004071Y-14811314D02*
X16204071Y-14811314D01*
X16075500Y-15111314D01*
X16546928Y-15111314D02*
X16546928Y-14811314D01*
X16675500Y-15111314D02*
X16675500Y-14954171D01*
X16661214Y-14925600D01*
X16632643Y-14911314D01*
X16589786Y-14911314D01*
X16561214Y-14925600D01*
X16546928Y-14939886D01*
X16861214Y-15111314D02*
X16832643Y-15097029D01*
X16818357Y-15082743D01*
X16804071Y-15054171D01*
X16804071Y-14968457D01*
X16818357Y-14939886D01*
X16832643Y-14925600D01*
X16861214Y-14911314D01*
X16904071Y-14911314D01*
X16932643Y-14925600D01*
X16946928Y-14939886D01*
X16961214Y-14968457D01*
X16961214Y-15054171D01*
X16946928Y-15082743D01*
X16932643Y-15097029D01*
X16904071Y-15111314D01*
X16861214Y-15111314D01*
X17132643Y-15111314D02*
X17104071Y-15097029D01*
X17089786Y-15068457D01*
X17089786Y-14811314D01*
X17361214Y-15097029D02*
X17332643Y-15111314D01*
X17275500Y-15111314D01*
X17246928Y-15097029D01*
X17232643Y-15068457D01*
X17232643Y-14954171D01*
X17246928Y-14925600D01*
X17275500Y-14911314D01*
X17332643Y-14911314D01*
X17361214Y-14925600D01*
X17375500Y-14954171D01*
X17375500Y-14982743D01*
X17232643Y-15011314D01*
X17489786Y-15097029D02*
X17518357Y-15111314D01*
X17575500Y-15111314D01*
X17604071Y-15097029D01*
X17618357Y-15068457D01*
X17618357Y-15054171D01*
X17604071Y-15025600D01*
X17575500Y-15011314D01*
X17532643Y-15011314D01*
X17504071Y-14997029D01*
X17489786Y-14968457D01*
X17489786Y-14954171D01*
X17504071Y-14925600D01*
X17532643Y-14911314D01*
X17575500Y-14911314D01*
X17604071Y-14925600D01*
X17718357Y-15225600D02*
X17732643Y-15211314D01*
X17761214Y-15168457D01*
X17775500Y-15139886D01*
X17789786Y-15097029D01*
X17804071Y-15025600D01*
X17804071Y-14968457D01*
X17789786Y-14897029D01*
X17775500Y-14854171D01*
X17761214Y-14825600D01*
X17732643Y-14782743D01*
X17718357Y-14768457D01*
X10660500Y-15371600D02*
G75*
G03*
X10660500Y-15371600I-50800J0D01*
G01*
X11104071Y-15507314D02*
X10932643Y-15507314D01*
X11018357Y-15507314D02*
X11018357Y-15207314D01*
X10989786Y-15250171D01*
X10961214Y-15278743D01*
X10932643Y-15293029D01*
X11232643Y-15478743D02*
X11246928Y-15493029D01*
X11232643Y-15507314D01*
X11218357Y-15493029D01*
X11232643Y-15478743D01*
X11232643Y-15507314D01*
X11432643Y-15207314D02*
X11461214Y-15207314D01*
X11489786Y-15221600D01*
X11504071Y-15235886D01*
X11518357Y-15264457D01*
X11532643Y-15321600D01*
X11532643Y-15393029D01*
X11518357Y-15450171D01*
X11504071Y-15478743D01*
X11489786Y-15493029D01*
X11461214Y-15507314D01*
X11432643Y-15507314D01*
X11404071Y-15493029D01*
X11389786Y-15478743D01*
X11375500Y-15450171D01*
X11361214Y-15393029D01*
X11361214Y-15321600D01*
X11375500Y-15264457D01*
X11389786Y-15235886D01*
X11404071Y-15221600D01*
X11432643Y-15207314D01*
X11646928Y-15235886D02*
X11661214Y-15221600D01*
X11689786Y-15207314D01*
X11761214Y-15207314D01*
X11789786Y-15221600D01*
X11804071Y-15235886D01*
X11818357Y-15264457D01*
X11818357Y-15293029D01*
X11804071Y-15335886D01*
X11632643Y-15507314D01*
X11818357Y-15507314D01*
X11946928Y-15507314D02*
X11946928Y-15307314D01*
X11946928Y-15335886D02*
X11961214Y-15321600D01*
X11989786Y-15307314D01*
X12032643Y-15307314D01*
X12061214Y-15321600D01*
X12075500Y-15350171D01*
X12075500Y-15507314D01*
X12075500Y-15350171D02*
X12089786Y-15321600D01*
X12118357Y-15307314D01*
X12161214Y-15307314D01*
X12189786Y-15321600D01*
X12204071Y-15350171D01*
X12204071Y-15507314D01*
X12346928Y-15507314D02*
X12346928Y-15307314D01*
X12346928Y-15335886D02*
X12361214Y-15321600D01*
X12389786Y-15307314D01*
X12432643Y-15307314D01*
X12461214Y-15321600D01*
X12475500Y-15350171D01*
X12475500Y-15507314D01*
X12475500Y-15350171D02*
X12489786Y-15321600D01*
X12518357Y-15307314D01*
X12561214Y-15307314D01*
X12589786Y-15321600D01*
X12604071Y-15350171D01*
X12604071Y-15507314D01*
X13189786Y-15193029D02*
X12932643Y-15578743D01*
X13575500Y-15207314D02*
X13604071Y-15207314D01*
X13632643Y-15221600D01*
X13646928Y-15235886D01*
X13661214Y-15264457D01*
X13675500Y-15321600D01*
X13675500Y-15393029D01*
X13661214Y-15450171D01*
X13646928Y-15478743D01*
X13632643Y-15493029D01*
X13604071Y-15507314D01*
X13575500Y-15507314D01*
X13546928Y-15493029D01*
X13532643Y-15478743D01*
X13518357Y-15450171D01*
X13504071Y-15393029D01*
X13504071Y-15321600D01*
X13518357Y-15264457D01*
X13532643Y-15235886D01*
X13546928Y-15221600D01*
X13575500Y-15207314D01*
X13804071Y-15478743D02*
X13818357Y-15493029D01*
X13804071Y-15507314D01*
X13789786Y-15493029D01*
X13804071Y-15478743D01*
X13804071Y-15507314D01*
X14004071Y-15207314D02*
X14032643Y-15207314D01*
X14061214Y-15221600D01*
X14075500Y-15235886D01*
X14089786Y-15264457D01*
X14104071Y-15321600D01*
X14104071Y-15393029D01*
X14089786Y-15450171D01*
X14075500Y-15478743D01*
X14061214Y-15493029D01*
X14032643Y-15507314D01*
X14004071Y-15507314D01*
X13975500Y-15493029D01*
X13961214Y-15478743D01*
X13946928Y-15450171D01*
X13932643Y-15393029D01*
X13932643Y-15321600D01*
X13946928Y-15264457D01*
X13961214Y-15235886D01*
X13975500Y-15221600D01*
X14004071Y-15207314D01*
X14361214Y-15307314D02*
X14361214Y-15507314D01*
X14289786Y-15193029D02*
X14218357Y-15407314D01*
X14404071Y-15407314D01*
X14575500Y-15207314D02*
X14604071Y-15207314D01*
X14632643Y-15221600D01*
X14646928Y-15235886D01*
X14661214Y-15264457D01*
X14675500Y-15321600D01*
X14675500Y-15393029D01*
X14661214Y-15450171D01*
X14646928Y-15478743D01*
X14632643Y-15493029D01*
X14604071Y-15507314D01*
X14575500Y-15507314D01*
X14546928Y-15493029D01*
X14532643Y-15478743D01*
X14518357Y-15450171D01*
X14504071Y-15393029D01*
X14504071Y-15321600D01*
X14518357Y-15264457D01*
X14532643Y-15235886D01*
X14546928Y-15221600D01*
X14575500Y-15207314D01*
X14789786Y-15207314D02*
X14789786Y-15264457D01*
X14904071Y-15207314D02*
X14904071Y-15264457D01*
X15346928Y-15621600D02*
X15332643Y-15607314D01*
X15304071Y-15564457D01*
X15289786Y-15535886D01*
X15275500Y-15493029D01*
X15261214Y-15421600D01*
X15261214Y-15364457D01*
X15275500Y-15293029D01*
X15289786Y-15250171D01*
X15304071Y-15221600D01*
X15332643Y-15178743D01*
X15346928Y-15164457D01*
X15432643Y-15207314D02*
X15632643Y-15207314D01*
X15504071Y-15507314D01*
X15889786Y-15207314D02*
X15746928Y-15207314D01*
X15732643Y-15350171D01*
X15746928Y-15335886D01*
X15775500Y-15321600D01*
X15846928Y-15321600D01*
X15875500Y-15335886D01*
X15889786Y-15350171D01*
X15904071Y-15378743D01*
X15904071Y-15450171D01*
X15889786Y-15478743D01*
X15875500Y-15493029D01*
X15846928Y-15507314D01*
X15775500Y-15507314D01*
X15746928Y-15493029D01*
X15732643Y-15478743D01*
X16261214Y-15507314D02*
X16261214Y-15207314D01*
X16389786Y-15507314D02*
X16389786Y-15350171D01*
X16375500Y-15321600D01*
X16346928Y-15307314D01*
X16304071Y-15307314D01*
X16275500Y-15321600D01*
X16261214Y-15335886D01*
X16575500Y-15507314D02*
X16546928Y-15493029D01*
X16532643Y-15478743D01*
X16518357Y-15450171D01*
X16518357Y-15364457D01*
X16532643Y-15335886D01*
X16546928Y-15321600D01*
X16575500Y-15307314D01*
X16618357Y-15307314D01*
X16646928Y-15321600D01*
X16661214Y-15335886D01*
X16675500Y-15364457D01*
X16675500Y-15450171D01*
X16661214Y-15478743D01*
X16646928Y-15493029D01*
X16618357Y-15507314D01*
X16575500Y-15507314D01*
X16846928Y-15507314D02*
X16818357Y-15493029D01*
X16804071Y-15464457D01*
X16804071Y-15207314D01*
X17075500Y-15493029D02*
X17046928Y-15507314D01*
X16989786Y-15507314D01*
X16961214Y-15493029D01*
X16946928Y-15464457D01*
X16946928Y-15350171D01*
X16961214Y-15321600D01*
X16989786Y-15307314D01*
X17046928Y-15307314D01*
X17075500Y-15321600D01*
X17089786Y-15350171D01*
X17089786Y-15378743D01*
X16946928Y-15407314D01*
X17204071Y-15493029D02*
X17232643Y-15507314D01*
X17289786Y-15507314D01*
X17318357Y-15493029D01*
X17332643Y-15464457D01*
X17332643Y-15450171D01*
X17318357Y-15421600D01*
X17289786Y-15407314D01*
X17246928Y-15407314D01*
X17218357Y-15393029D01*
X17204071Y-15364457D01*
X17204071Y-15350171D01*
X17218357Y-15321600D01*
X17246928Y-15307314D01*
X17289786Y-15307314D01*
X17318357Y-15321600D01*
X17432643Y-15621600D02*
X17446928Y-15607314D01*
X17475500Y-15564457D01*
X17489786Y-15535886D01*
X17504071Y-15493029D01*
X17518357Y-15421600D01*
X17518357Y-15364457D01*
X17504071Y-15293029D01*
X17489786Y-15250171D01*
X17475500Y-15221600D01*
X17446928Y-15178743D01*
X17432643Y-15164457D01*
M02*
