%FSLAX45Y45*%
G04 Gerber Fmt 4.5, Leading zero omitted, Abs format (unit mm)*
G04 Created by KiCad (PCBNEW 5.1.8) date 2020-12-08 14:39:59*
%MOMM*%
%LPD*%
G01*
G04 APERTURE LIST*
%TA.AperFunction,Profile*%
%ADD10C,0.150000*%
%TD*%
%ADD11C,0.200000*%
%ADD12C,0.300000*%
G04 APERTURE END LIST*
D10*
X17373600Y-10208260D02*
X16624300Y-10208260D01*
X10922000Y-9258300D02*
X10668000Y-9258300D01*
X10922000Y-9004300D02*
X10922000Y-9258300D01*
X17297400Y-9004300D02*
X17373600Y-9042400D01*
X17297400Y-9984740D02*
X17373600Y-9946640D01*
X10668000Y-14008100D02*
X17373600Y-14008100D01*
X10668000Y-9258300D02*
X10668000Y-14008100D01*
X17297400Y-9004300D02*
X10922000Y-9004300D01*
X17373600Y-9946640D02*
X17373600Y-9042400D01*
X16624300Y-9984740D02*
X17297400Y-9984740D01*
X16624300Y-10208260D02*
X16624300Y-9984740D01*
X17373600Y-14008100D02*
X17373600Y-10208260D01*
D11*
D12*
X10946928Y-14481314D02*
X10946928Y-14181314D01*
X11018357Y-14181314D01*
X11061214Y-14195600D01*
X11089786Y-14224171D01*
X11104071Y-14252743D01*
X11118357Y-14309886D01*
X11118357Y-14352743D01*
X11104071Y-14409886D01*
X11089786Y-14438457D01*
X11061214Y-14467029D01*
X11018357Y-14481314D01*
X10946928Y-14481314D01*
X11246928Y-14481314D02*
X11246928Y-14281314D01*
X11246928Y-14338457D02*
X11261214Y-14309886D01*
X11275500Y-14295600D01*
X11304071Y-14281314D01*
X11332643Y-14281314D01*
X11432643Y-14481314D02*
X11432643Y-14281314D01*
X11432643Y-14181314D02*
X11418357Y-14195600D01*
X11432643Y-14209886D01*
X11446928Y-14195600D01*
X11432643Y-14181314D01*
X11432643Y-14209886D01*
X11618357Y-14481314D02*
X11589786Y-14467029D01*
X11575500Y-14438457D01*
X11575500Y-14181314D01*
X11775500Y-14481314D02*
X11746928Y-14467029D01*
X11732643Y-14438457D01*
X11732643Y-14181314D01*
X12118357Y-14481314D02*
X12118357Y-14181314D01*
X12218357Y-14395600D01*
X12318357Y-14181314D01*
X12318357Y-14481314D01*
X12589786Y-14481314D02*
X12589786Y-14324171D01*
X12575500Y-14295600D01*
X12546928Y-14281314D01*
X12489786Y-14281314D01*
X12461214Y-14295600D01*
X12589786Y-14467029D02*
X12561214Y-14481314D01*
X12489786Y-14481314D01*
X12461214Y-14467029D01*
X12446928Y-14438457D01*
X12446928Y-14409886D01*
X12461214Y-14381314D01*
X12489786Y-14367029D01*
X12561214Y-14367029D01*
X12589786Y-14352743D01*
X12732643Y-14281314D02*
X12732643Y-14581314D01*
X12732643Y-14295600D02*
X12761214Y-14281314D01*
X12818357Y-14281314D01*
X12846928Y-14295600D01*
X12861214Y-14309886D01*
X12875500Y-14338457D01*
X12875500Y-14424171D01*
X12861214Y-14452743D01*
X12846928Y-14467029D01*
X12818357Y-14481314D01*
X12761214Y-14481314D01*
X12732643Y-14467029D01*
X13004071Y-14452743D02*
X13018357Y-14467029D01*
X13004071Y-14481314D01*
X12989786Y-14467029D01*
X13004071Y-14452743D01*
X13004071Y-14481314D01*
X13004071Y-14295600D02*
X13018357Y-14309886D01*
X13004071Y-14324171D01*
X12989786Y-14309886D01*
X13004071Y-14295600D01*
X13004071Y-14324171D01*
M02*
