EESchema Schematic File Version 4
EELAYER 30 0
EELAYER END
$Descr A4 11693 8268
encoding utf-8
Sheet 1 1
Title "ROMBO: Romba Operator & Memory Burner Option"
Date "2017-01-27"
Rev "A"
Comp "doragasu"
Comment1 "License: CERN-OHL-S 2"
Comment2 ""
Comment3 ""
Comment4 ""
$EndDescr
$Comp
L doragasu:AT90USB646 U1
U 1 1 588A2148
P 4450 3850
F 0 "U1" H 3350 1100 60  0000 L CNN
F 1 "AT90USB646" H 3900 1000 60  0000 R CNN
F 2 "Housings_QFP:LQFP-64_14x14mm_Pitch0.8mm" H 3800 2900 60  0001 C CNN
F 3 "" H 3800 2900 60  0000 C CNN
F 4 "AT90USB646-AU" H 4450 3850 60  0001 C CNN "manf#"
	1    4450 3850
	1    0    0    -1  
$EndComp
Wire Wire Line
	5750 1250 6050 1250
Wire Wire Line
	5750 1350 6050 1350
Wire Wire Line
	5750 1450 6050 1450
Wire Wire Line
	5750 1550 6050 1550
Wire Wire Line
	5750 1650 6050 1650
Wire Wire Line
	5750 1750 6050 1750
Wire Wire Line
	5750 1850 6050 1850
Wire Wire Line
	5750 1950 6050 1950
Wire Wire Line
	5750 5750 6050 5750
Wire Wire Line
	5750 5850 6050 5850
Wire Wire Line
	5750 5950 6050 5950
Wire Wire Line
	5750 6050 6050 6050
Wire Wire Line
	5750 6150 6050 6150
Wire Wire Line
	5750 6250 6050 6250
Wire Wire Line
	5750 6350 6050 6350
Wire Wire Line
	5750 6450 6050 6450
Wire Wire Line
	5750 3050 6050 3050
Wire Wire Line
	5750 3150 6050 3150
Wire Wire Line
	5750 3250 6050 3250
Wire Wire Line
	5750 3350 6050 3350
Wire Wire Line
	5750 3450 6050 3450
Wire Wire Line
	5750 3550 6050 3550
Wire Wire Line
	5750 3650 6050 3650
Wire Wire Line
	5750 3750 6050 3750
Wire Wire Line
	5750 4850 6050 4850
Wire Wire Line
	5750 4950 6050 4950
Wire Wire Line
	5750 5150 6050 5150
Wire Wire Line
	5750 5250 6050 5250
Wire Wire Line
	5750 3950 6050 3950
Wire Wire Line
	5750 4050 6050 4050
Wire Wire Line
	5750 4150 6050 4150
Wire Wire Line
	5750 4250 6050 4250
Wire Wire Line
	5750 4350 6050 4350
Wire Wire Line
	5750 4450 6050 4450
Wire Wire Line
	5750 4550 6050 4550
Wire Wire Line
	5750 4650 6050 4650
Wire Wire Line
	5750 2150 6050 2150
Wire Wire Line
	5750 2250 6050 2250
Wire Wire Line
	5750 2350 6050 2350
Wire Wire Line
	5750 2450 6050 2450
Wire Wire Line
	5750 2850 6050 2850
Wire Wire Line
	4300 950  4400 950 
Connection ~ 4400 950 
Connection ~ 4500 950 
Wire Wire Line
	4450 950  4450 900 
Connection ~ 4450 950 
$Comp
L power:GND #PWR01
U 1 1 588A2405
P 4450 6800
F 0 "#PWR01" H 4450 6550 50  0001 C CNN
F 1 "GND" H 4455 6627 50  0001 C CNN
F 2 "" H 4450 6800 50  0000 C CNN
F 3 "" H 4450 6800 50  0000 C CNN
	1    4450 6800
	1    0    0    -1  
$EndComp
Wire Wire Line
	4350 6750 4450 6750
Connection ~ 4450 6750
Wire Wire Line
	4450 6750 4450 6800
Text Label 6050 1250 2    60   ~ 0
A0
Text Label 6050 1350 2    60   ~ 0
A1
Text Label 6050 1450 2    60   ~ 0
A2
Text Label 6050 1550 2    60   ~ 0
A3
Text Label 6050 1650 2    60   ~ 0
A4
Text Label 6050 1750 2    60   ~ 0
A5
Text Label 6050 1850 2    60   ~ 0
A6
Text Label 6050 1950 2    60   ~ 0
A7
Text Label 6050 5750 2    60   ~ 0
A8
Text Label 6050 5850 2    60   ~ 0
A9
Text Label 6050 5950 2    60   ~ 0
A10
Text Label 6050 6050 2    60   ~ 0
A11
Text Label 6050 6150 2    60   ~ 0
A12
Text Label 6050 6250 2    60   ~ 0
A13
Text Label 6050 6350 2    60   ~ 0
A14
Text Label 6050 6450 2    60   ~ 0
A15
Text Label 6050 3050 2    60   ~ 0
D0
Text Label 6050 3150 2    60   ~ 0
D1
Text Label 6050 3250 2    60   ~ 0
D2
Text Label 6050 3350 2    60   ~ 0
D3
Text Label 6050 3450 2    60   ~ 0
D4
Text Label 6050 3550 2    60   ~ 0
D5
Text Label 6050 3650 2    60   ~ 0
D6
Text Label 6050 3750 2    60   ~ 0
D7
Entry Wire Line
	6050 1250 6150 1350
Entry Wire Line
	6050 1350 6150 1450
Entry Wire Line
	6050 1450 6150 1550
Entry Wire Line
	6050 1550 6150 1650
Entry Wire Line
	6050 1650 6150 1750
Entry Wire Line
	6050 1750 6150 1850
Entry Wire Line
	6050 1850 6150 1950
Entry Wire Line
	6050 1950 6150 2050
Entry Wire Line
	6050 5750 6150 5850
Entry Wire Line
	6050 5850 6150 5950
Entry Wire Line
	6050 5950 6150 6050
Entry Wire Line
	6050 6050 6150 6150
Entry Wire Line
	6050 6150 6150 6250
Entry Wire Line
	6050 6250 6150 6350
Entry Wire Line
	6050 6350 6150 6450
Entry Wire Line
	6050 6450 6150 6550
Entry Wire Line
	6050 3050 6150 3150
Entry Wire Line
	6050 3150 6150 3250
Entry Wire Line
	6050 3250 6150 3350
Entry Wire Line
	6050 3350 6150 3450
Entry Wire Line
	6050 3450 6150 3550
Entry Wire Line
	6050 3550 6150 3650
Entry Wire Line
	6050 3650 6150 3750
Entry Wire Line
	6050 3750 6150 3850
Entry Wire Line
	6050 4850 6150 4950
Entry Wire Line
	6050 4950 6150 5050
Entry Wire Line
	6050 5150 6150 5250
Entry Wire Line
	6050 5250 6150 5350
Entry Wire Line
	6050 5350 6150 5450
Entry Wire Line
	6050 3950 6150 4050
Entry Wire Line
	6050 4050 6150 4150
Entry Wire Line
	6050 4150 6150 4250
Entry Wire Line
	6050 4250 6150 4350
Entry Wire Line
	6050 4350 6150 4450
Entry Wire Line
	6050 4450 6150 4550
Entry Wire Line
	6050 4550 6150 4650
Entry Wire Line
	6050 4650 6150 4750
Entry Wire Line
	6050 2150 6150 2250
Entry Wire Line
	6050 2250 6150 2350
Entry Wire Line
	6050 2350 6150 2450
Entry Wire Line
	6050 2450 6150 2550
Entry Wire Line
	6050 2850 6150 2950
$Comp
L Device:R R2
U 1 1 588ADE93
P 2700 2150
F 0 "R2" V 2600 2150 50  0000 C CNN
F 1 "22" V 2700 2150 50  0000 C CNN
F 2 "Resistors_SMD:R_0805" V 2630 2150 50  0001 C CNN
F 3 "" H 2700 2150 50  0000 C CNN
	1    2700 2150
	0    1    1    0   
$EndComp
Wire Wire Line
	2850 2150 3150 2150
$Comp
L Device:R R3
U 1 1 588ADFE4
P 2700 2350
F 0 "R3" V 2600 2350 50  0000 C CNN
F 1 "22" V 2700 2350 50  0000 C CNN
F 2 "Resistors_SMD:R_0805" V 2630 2350 50  0001 C CNN
F 3 "" H 2700 2350 50  0000 C CNN
F 4 "RMCF0805JT22R0" V 2700 2350 60  0001 C CNN "manf#"
	1    2700 2350
	0    1    1    0   
$EndComp
Wire Wire Line
	2850 2350 3150 2350
Text Label 2900 2150 0    60   ~ 0
Dm-
Text Label 2900 2350 0    60   ~ 0
Dm+
Wire Wire Line
	2450 2200 2450 2150
Wire Wire Line
	2450 2150 2550 2150
Wire Wire Line
	2550 2350 2450 2350
Wire Wire Line
	2450 2350 2450 2300
Wire Wire Line
	2450 2300 2050 2300
Text Label 2250 2200 0    60   ~ 0
D-
Text Label 2250 2300 0    60   ~ 0
D+
Wire Wire Line
	2150 1900 2150 1950
Wire Wire Line
	2150 1950 2700 1950
Wire Wire Line
	3150 2550 2250 2550
$Comp
L power:GND #PWR02
U 1 1 588AE38B
P 1750 2700
F 0 "#PWR02" H 1750 2450 50  0001 C CNN
F 1 "GND" H 1755 2527 50  0001 C CNN
F 2 "" H 1750 2700 50  0000 C CNN
F 3 "" H 1750 2700 50  0000 C CNN
	1    1750 2700
	1    0    0    -1  
$EndComp
$Comp
L Device:CP C1
U 1 1 588AE52B
P 1200 2350
F 0 "C1" H 1318 2396 50  0000 L CNN
F 1 "6.8u" H 1318 2305 50  0000 L CNN
F 2 "Capacitors_SMD:c_elec_4x4.5" H 1238 2200 50  0001 C CNN
F 3 "" H 1200 2350 50  0000 C CNN
F 4 "865080440001" H 1200 2350 60  0001 C CNN "manf#"
	1    1200 2350
	1    0    0    -1  
$EndComp
$Comp
L power:VCC #PWR03
U 1 1 588AE561
P 2150 1900
F 0 "#PWR03" H 2150 1750 50  0001 C CNN
F 1 "VCC" H 2150 2050 50  0000 C CNN
F 2 "" H 2150 1900 50  0000 C CNN
F 3 "" H 2150 1900 50  0000 C CNN
	1    2150 1900
	1    0    0    -1  
$EndComp
$Comp
L power:VCC #PWR04
U 1 1 588AE5FF
P 1200 2200
F 0 "#PWR04" H 1200 2050 50  0001 C CNN
F 1 "VCC" H 1200 2350 50  0000 C CNN
F 2 "" H 1200 2200 50  0000 C CNN
F 3 "" H 1200 2200 50  0000 C CNN
	1    1200 2200
	1    0    0    -1  
$EndComp
$Comp
L power:GND #PWR05
U 1 1 588AE628
P 1200 2500
F 0 "#PWR05" H 1200 2250 50  0001 C CNN
F 1 "GND" H 1205 2327 50  0001 C CNN
F 2 "" H 1200 2500 50  0000 C CNN
F 3 "" H 1200 2500 50  0000 C CNN
	1    1200 2500
	1    0    0    -1  
$EndComp
$Comp
L Device:R R1
U 1 1 588AE700
P 2900 1550
F 0 "R1" H 2970 1596 50  0000 L CNN
F 1 "47k" V 2900 1550 50  0000 C CNN
F 2 "Resistors_SMD:R_0805" V 2830 1550 50  0001 C CNN
F 3 "" H 2900 1550 50  0000 C CNN
F 4 "RMCF0805JT47K0" H 2900 1550 60  0001 C CNN "manf#"
	1    2900 1550
	0    1    1    0   
$EndComp
Wire Wire Line
	3050 1550 3100 1550
$Comp
L Device:Crystal Y1
U 1 1 588AE9D7
P 2900 3300
F 0 "Y1" V 2854 3431 50  0000 L CNN
F 1 "8MHz" V 2945 3431 50  0000 L CNN
F 2 "Crystals:Crystal_HC49-U_Vertical" H 2900 3300 50  0001 C CNN
F 3 "" H 2900 3300 50  0000 C CNN
F 4 "FOXSLF/080-20" V 2900 3300 60  0001 C CNN "manf#"
	1    2900 3300
	0    1    1    0   
$EndComp
Wire Wire Line
	2700 3150 2900 3150
Wire Wire Line
	2700 3450 2900 3450
$Comp
L Device:C C3
U 1 1 588AEB1F
P 2550 3150
F 0 "C3" V 2300 3150 50  0000 C CNN
F 1 "22p" V 2400 3150 50  0000 C CNN
F 2 "Capacitors_SMD:C_0805" H 2588 3000 50  0001 C CNN
F 3 "" H 2550 3150 50  0000 C CNN
	1    2550 3150
	0    1    1    0   
$EndComp
$Comp
L Device:C C4
U 1 1 588AEBFE
P 2550 3450
F 0 "C4" V 2700 3450 50  0000 C CNN
F 1 "22p" V 2800 3450 50  0000 C CNN
F 2 "Capacitors_SMD:C_0805" H 2588 3300 50  0001 C CNN
F 3 "" H 2550 3450 50  0000 C CNN
	1    2550 3450
	0    1    1    0   
$EndComp
Connection ~ 2900 3450
Connection ~ 2900 3150
$Comp
L Device:C C2
U 1 1 588AED78
P 2300 2950
F 0 "C2" H 2150 3000 50  0000 R CNN
F 1 "1u" H 2150 2900 50  0000 R CNN
F 2 "Capacitors_SMD:C_0805" H 2338 2800 50  0001 C CNN
F 3 "" H 2300 2950 50  0000 C CNN
F 4 "CL21B105KOFNNNG" H 2300 2950 60  0001 C CNN "manf#"
	1    2300 2950
	1    0    0    -1  
$EndComp
Wire Wire Line
	2300 2800 2300 2750
Wire Wire Line
	2300 2750 3150 2750
Wire Wire Line
	2300 3100 2300 3150
Wire Wire Line
	2300 3150 2400 3150
Wire Wire Line
	2300 3450 2400 3450
Connection ~ 2300 3150
$Comp
L power:GND #PWR06
U 1 1 588AEF49
P 2300 3500
F 0 "#PWR06" H 2300 3250 50  0001 C CNN
F 1 "GND" H 2305 3327 50  0001 C CNN
F 2 "" H 2300 3500 50  0000 C CNN
F 3 "" H 2300 3500 50  0000 C CNN
	1    2300 3500
	1    0    0    -1  
$EndComp
Connection ~ 2300 3450
$Comp
L Device:C C5
U 1 1 588AF2ED
P 3100 4050
F 0 "C5" H 3000 4100 50  0000 R CNN
F 1 "NP" H 3000 4000 50  0000 R CNN
F 2 "Capacitors_SMD:C_0805" H 3138 3900 50  0001 C CNN
F 3 "" H 3100 4050 50  0000 C CNN
	1    3100 4050
	1    0    0    -1  
$EndComp
Wire Wire Line
	3100 3900 3100 3850
Wire Wire Line
	3100 3850 3150 3850
$Comp
L power:GND #PWR07
U 1 1 588AF39D
P 3100 4200
F 0 "#PWR07" H 3100 3950 50  0001 C CNN
F 1 "GND" H 3105 4027 50  0001 C CNN
F 2 "" H 3100 4200 50  0000 C CNN
F 3 "" H 3100 4200 50  0000 C CNN
	1    3100 4200
	1    0    0    -1  
$EndComp
$Comp
L Device:C C8
U 1 1 588AF6C5
P 3500 7200
F 0 "C8" H 3600 7250 50  0000 L CNN
F 1 "100n" H 3600 7150 50  0000 L CNN
F 2 "Capacitors_SMD:C_0805" H 3538 7050 50  0001 C CNN
F 3 "" H 3500 7200 50  0000 C CNN
F 4 "CL10B104KO8NNNC" H 3500 7200 60  0001 C CNN "manf#"
	1    3500 7200
	1    0    0    -1  
$EndComp
$Comp
L Device:C C9
U 1 1 588AF7C7
P 3900 7200
F 0 "C9" H 4000 7250 50  0000 L CNN
F 1 "100n" H 4000 7150 50  0000 L CNN
F 2 "Capacitors_SMD:C_0805" H 3938 7050 50  0001 C CNN
F 3 "" H 3900 7200 50  0000 C CNN
	1    3900 7200
	1    0    0    -1  
$EndComp
$Comp
L Device:C C10
U 1 1 588AF80A
P 4300 7200
F 0 "C10" H 4400 7250 50  0000 L CNN
F 1 "100n" H 4400 7150 50  0000 L CNN
F 2 "Capacitors_SMD:C_0805" H 4338 7050 50  0001 C CNN
F 3 "" H 4300 7200 50  0000 C CNN
	1    4300 7200
	1    0    0    -1  
$EndComp
Wire Wire Line
	3500 7050 3900 7050
Connection ~ 3900 7050
Wire Wire Line
	3500 7350 3900 7350
Connection ~ 3900 7350
$Comp
L power:GND #PWR08
U 1 1 588AFA02
P 3900 7400
F 0 "#PWR08" H 3900 7150 50  0001 C CNN
F 1 "GND" H 3905 7227 50  0001 C CNN
F 2 "" H 3900 7400 50  0000 C CNN
F 3 "" H 3900 7400 50  0000 C CNN
	1    3900 7400
	1    0    0    -1  
$EndComp
$Comp
L power:VCC #PWR09
U 1 1 588AFA99
P 3900 7000
F 0 "#PWR09" H 3900 6850 50  0001 C CNN
F 1 "VCC" H 3900 7150 50  0000 C CNN
F 2 "" H 3900 7000 50  0000 C CNN
F 3 "" H 3900 7000 50  0000 C CNN
	1    3900 7000
	1    0    0    -1  
$EndComp
Wire Wire Line
	3900 7000 3900 7050
$Comp
L Device:LED D1
U 1 1 588AFCAF
P 5150 7150
F 0 "D1" H 5150 7050 50  0000 C CNN
F 1 "LED" H 5150 7250 50  0000 C CNN
F 2 "LEDs:LED-5MM" H 5150 7150 50  0001 C CNN
F 3 "" H 5150 7150 50  0000 C CNN
F 4 "C503B-RCN-CW0Z0AA1" H 5150 7150 60  0001 C CNN "manf#"
	1    5150 7150
	-1   0    0    1   
$EndComp
$Comp
L Device:LED D2
U 1 1 588AFDD4
P 5150 7450
F 0 "D2" H 5150 7350 50  0000 C CNN
F 1 "LED" H 5150 7550 50  0000 C CNN
F 2 "LEDs:LED-5MM" H 5150 7450 50  0001 C CNN
F 3 "" H 5150 7450 50  0000 C CNN
F 4 "C503B-GCS-CY0C0791-ND" H 5150 7450 60  0001 C CNN "manf#"
	1    5150 7450
	-1   0    0    1   
$EndComp
$Comp
L Device:R R4
U 1 1 588AFE62
P 5500 7150
F 0 "R4" V 5400 7150 50  0000 C CNN
F 1 "220" V 5500 7150 50  0000 C CNN
F 2 "Resistors_SMD:R_0805" V 5430 7150 50  0001 C CNN
F 3 "" H 5500 7150 50  0000 C CNN
F 4 "RMCF0805JT220R" V 5500 7150 60  0001 C CNN "manf#"
	1    5500 7150
	0    1    1    0   
$EndComp
$Comp
L Device:R R5
U 1 1 588AFFC9
P 5500 7450
F 0 "R5" V 5400 7450 50  0000 C CNN
F 1 "220" V 5500 7450 50  0000 C CNN
F 2 "Resistors_SMD:R_0805" V 5430 7450 50  0001 C CNN
F 3 "" H 5500 7450 50  0000 C CNN
	1    5500 7450
	0    1    1    0   
$EndComp
$Comp
L power:VCC #PWR010
U 1 1 588B004D
P 4900 7100
F 0 "#PWR010" H 4900 6950 50  0001 C CNN
F 1 "VCC" H 4900 7250 50  0000 C CNN
F 2 "" H 4900 7100 50  0000 C CNN
F 3 "" H 4900 7100 50  0000 C CNN
	1    4900 7100
	1    0    0    -1  
$EndComp
Wire Wire Line
	4900 7100 4900 7150
Wire Wire Line
	4900 7450 5000 7450
Wire Wire Line
	5000 7150 4900 7150
Connection ~ 4900 7150
$Comp
L power:GND #PWR011
U 1 1 588B0618
P 5100 6900
F 0 "#PWR011" H 5100 6650 50  0001 C CNN
F 1 "GND" H 5105 6727 50  0001 C CNN
F 2 "" H 5100 6900 50  0000 C CNN
F 3 "" H 5100 6900 50  0000 C CNN
	1    5100 6900
	1    0    0    -1  
$EndComp
Wire Wire Line
	5100 6900 5100 6850
Wire Wire Line
	5100 6850 5250 6850
Wire Wire Line
	5650 6850 6050 6850
Wire Wire Line
	5650 7150 6050 7150
Wire Wire Line
	5650 7450 6050 7450
Entry Wire Line
	6050 6850 6150 6950
Entry Wire Line
	6050 7150 6150 7250
Entry Wire Line
	6050 7450 6150 7550
Wire Wire Line
	3900 7400 3900 7350
$Comp
L power:GND #PWR012
U 1 1 588B4466
P 7100 6000
F 0 "#PWR012" H 7100 5750 50  0001 C CNN
F 1 "GND" H 7105 5827 50  0001 C CNN
F 2 "" H 7100 6000 50  0000 C CNN
F 3 "" H 7100 6000 50  0000 C CNN
	1    7100 6000
	1    0    0    -1  
$EndComp
$Comp
L power:VCC #PWR013
U 1 1 588B4606
P 7100 5700
F 0 "#PWR013" H 7100 5550 50  0001 C CNN
F 1 "VCC" H 7100 5850 50  0000 C CNN
F 2 "" H 7100 5700 50  0000 C CNN
F 3 "" H 7100 5700 50  0000 C CNN
	1    7100 5700
	1    0    0    -1  
$EndComp
Wire Wire Line
	7100 5700 7100 5750
Wire Wire Line
	7100 5750 7050 5750
Wire Wire Line
	7050 5950 7100 5950
Wire Wire Line
	7100 5950 7100 6000
Text Notes 6600 5550 0    60   ~ 0
ICD\n=====\n1. MISO\n2. VCC\n3. SCLK\n4. MOSI\n5. RESET\n6. GND
Text Label 6050 4850 2    60   ~ 0
~MREQ
Text Label 6050 4950 2    60   ~ 0
~M1
Text Label 6050 4650 2    60   ~ 0
~RFSH
Text Label 6050 4550 2    60   ~ 0
~IORQ
Text Label 6050 4450 2    60   ~ 0
~RD
Text Label 6050 4350 2    60   ~ 0
~WR
Text Label 6050 4250 2    60   ~ 0
~INT
Text Label 6050 4150 2    60   ~ 0
~BUSRQ
Text Label 6050 4050 2    60   ~ 0
~BUSAK
Text Label 6050 3950 2    60   ~ 0
READY
Text Label 6050 5350 2    60   ~ 0
~RSET
Text Label 6050 5250 2    60   ~ 0
~ROMEN
Text Label 6050 2850 2    60   ~ 0
ROMDIS
Text Label 6050 2750 2    60   ~ 0
~RAMRD
Text Label 6050 2650 2    60   ~ 0
RAMDIS
Text Label 6050 2550 2    60   ~ 0
~EXP
Text Label 6050 5150 2    60   ~ 0
CLK4
Wire Wire Line
	6550 5750 6250 5750
Wire Wire Line
	6250 5850 6550 5850
Wire Wire Line
	6550 5950 6250 5950
Wire Wire Line
	7050 5850 7350 5850
Text Label 6050 2350 2    60   ~ 0
MOSI
Text Label 6050 2450 2    60   ~ 0
MISO
Text Label 6050 2250 2    60   ~ 0
SCLK
Entry Wire Line
	6050 2650 6150 2750
Entry Wire Line
	6050 2550 6150 2650
Entry Wire Line
	6050 2750 6150 2850
Wire Wire Line
	5750 2750 6050 2750
Wire Wire Line
	5750 2650 6050 2650
Wire Wire Line
	5750 2550 6050 2550
Text Label 6050 6850 2    60   ~ 0
SW
Text Label 6050 7150 2    60   ~ 0
LED1
Text Label 6050 7450 2    60   ~ 0
LED2
Text Label 6050 2150 2    60   ~ 0
SW
Text Label 6050 5450 2    60   ~ 0
LED1
Text Label 6050 5550 2    60   ~ 0
LED2
Entry Wire Line
	6150 6050 6250 5950
Entry Wire Line
	6150 5950 6250 5850
Entry Wire Line
	6150 5850 6250 5750
Wire Wire Line
	7350 5850 7350 6150
Wire Wire Line
	7350 6150 6250 6150
Entry Wire Line
	6150 6250 6250 6150
Text Label 6250 5750 0    60   ~ 0
MISO
Text Label 6250 5850 0    60   ~ 0
SCLK
Text Label 6250 5950 0    60   ~ 0
~RESET
Text Label 6250 6150 0    60   ~ 0
MOSI
Wire Wire Line
	2700 1550 2750 1550
Wire Wire Line
	3100 1550 3100 650 
Wire Wire Line
	3100 650  6050 650 
Connection ~ 3100 1550
Entry Wire Line
	6050 650  6150 750 
Text Label 6050 650  2    60   ~ 0
~RESET
Wire Wire Line
	2700 1550 2700 1950
Connection ~ 2700 1950
Wire Wire Line
	7750 1250 8050 1250
Wire Wire Line
	7750 1350 8050 1350
Wire Wire Line
	7750 1450 8050 1450
Wire Wire Line
	7750 1550 8050 1550
Wire Wire Line
	7750 1650 8050 1650
Wire Wire Line
	7750 1750 8050 1750
Wire Wire Line
	7750 1850 8050 1850
Wire Wire Line
	7750 1950 8050 1950
Wire Wire Line
	7750 2050 8050 2050
Wire Wire Line
	7750 2150 8050 2150
Wire Wire Line
	7750 2250 8050 2250
Wire Wire Line
	7750 2350 8050 2350
Wire Wire Line
	7750 2450 8050 2450
Wire Wire Line
	7750 2550 8050 2550
Wire Wire Line
	7750 2650 8050 2650
Wire Wire Line
	7750 2950 8050 2950
Wire Wire Line
	7750 3150 8050 3150
Wire Wire Line
	7750 3250 8050 3250
Wire Wire Line
	7750 3450 8050 3450
Wire Wire Line
	7750 3550 8050 3550
Wire Wire Line
	6550 1250 6250 1250
Wire Wire Line
	6550 1350 6250 1350
Wire Wire Line
	6550 1450 6250 1450
Wire Wire Line
	6550 1550 6250 1550
Wire Wire Line
	6550 1650 6250 1650
Wire Wire Line
	6550 1750 6250 1750
Wire Wire Line
	6550 1850 6250 1850
Wire Wire Line
	6550 1950 6250 1950
Wire Wire Line
	6550 2050 6250 2050
Wire Wire Line
	6550 2150 6250 2150
Wire Wire Line
	6550 2250 6250 2250
Wire Wire Line
	6550 2350 6250 2350
Wire Wire Line
	6550 2450 6250 2450
Wire Wire Line
	6550 2550 6250 2550
Wire Wire Line
	6550 2650 6250 2650
Wire Wire Line
	6550 2750 6250 2750
Wire Wire Line
	6550 2850 6250 2850
Wire Wire Line
	6550 2950 6250 2950
Wire Wire Line
	6550 3050 6250 3050
Wire Wire Line
	6550 3150 6250 3150
Wire Wire Line
	6550 3250 6250 3250
Wire Wire Line
	6550 3350 6250 3350
NoConn ~ 7750 2750
NoConn ~ 7750 3050
NoConn ~ 7750 3350
NoConn ~ 6550 3450
Entry Wire Line
	8050 1250 8150 1350
Entry Wire Line
	8050 1350 8150 1450
Entry Wire Line
	8050 1450 8150 1550
Entry Wire Line
	8050 1550 8150 1650
Entry Wire Line
	8050 1650 8150 1750
Entry Wire Line
	8050 1750 8150 1850
Entry Wire Line
	8050 1850 8150 1950
Entry Wire Line
	8050 1950 8150 2050
Entry Wire Line
	8050 2050 8150 2150
Entry Wire Line
	8050 2150 8150 2250
Entry Wire Line
	8050 2250 8150 2350
Entry Wire Line
	8050 2350 8150 2450
Entry Wire Line
	8050 2450 8150 2550
Entry Wire Line
	8050 2550 8150 2650
Entry Wire Line
	8050 2650 8150 2750
Entry Wire Line
	8050 2950 8150 3050
Entry Wire Line
	8050 3150 8150 3250
Entry Wire Line
	8050 3250 8150 3350
Entry Wire Line
	8050 3450 8150 3550
Entry Wire Line
	8050 3550 8150 3650
Entry Wire Line
	6150 1350 6250 1250
Entry Wire Line
	6150 1450 6250 1350
Entry Wire Line
	6150 1550 6250 1450
Entry Wire Line
	6150 1650 6250 1550
Entry Wire Line
	6150 1750 6250 1650
Entry Wire Line
	6150 1850 6250 1750
Entry Wire Line
	6150 1950 6250 1850
Entry Wire Line
	6150 2050 6250 1950
Entry Wire Line
	6150 2150 6250 2050
Entry Wire Line
	6150 2250 6250 2150
Entry Wire Line
	6150 2350 6250 2250
Entry Wire Line
	6150 2450 6250 2350
Entry Wire Line
	6150 2550 6250 2450
Entry Wire Line
	6150 2650 6250 2550
Entry Wire Line
	6150 2750 6250 2650
Entry Wire Line
	6150 2850 6250 2750
Entry Wire Line
	6150 2950 6250 2850
Entry Wire Line
	6150 3050 6250 2950
Entry Wire Line
	6150 3150 6250 3050
Entry Wire Line
	6150 3250 6250 3150
Entry Wire Line
	6150 3350 6250 3250
Entry Wire Line
	6150 3450 6250 3350
Wire Bus Line
	6150 750  8150 750 
Text Label 6250 1250 0    60   ~ 0
A15
Text Label 6250 1350 0    60   ~ 0
A13
Text Label 6250 1450 0    60   ~ 0
A11
Text Label 6250 1550 0    60   ~ 0
A9
Text Label 6250 1650 0    60   ~ 0
A7
Text Label 6250 1750 0    60   ~ 0
A5
Text Label 6250 1850 0    60   ~ 0
A3
Text Label 6250 1950 0    60   ~ 0
A1
Text Label 6250 2050 0    60   ~ 0
D7
Text Label 6250 2150 0    60   ~ 0
D5
Text Label 6250 2250 0    60   ~ 0
D3
Text Label 6250 2350 0    60   ~ 0
D1
Text Label 6250 2450 0    60   ~ 0
VCC
Text Label 6250 2550 0    60   ~ 0
~M1
Text Label 6250 2650 0    60   ~ 0
~IORQ
Text Label 6250 2750 0    60   ~ 0
~WR
Text Label 6250 2850 0    60   ~ 0
~INT
Text Label 6250 2950 0    60   ~ 0
~BUSRQ
Text Label 6250 3050 0    60   ~ 0
READY
Text Label 6250 3150 0    60   ~ 0
~RSET
Text Label 6250 3250 0    60   ~ 0
ROMDIS
Text Label 6250 3350 0    60   ~ 0
RAMDIS
Text Label 8050 1250 2    60   ~ 0
A14
Text Label 8050 1350 2    60   ~ 0
A12
Text Label 8050 1450 2    60   ~ 0
A10
Text Label 8050 1550 2    60   ~ 0
A8
Text Label 8050 1650 2    60   ~ 0
A6
Text Label 8050 1750 2    60   ~ 0
A4
Text Label 8050 1850 2    60   ~ 0
A2
Text Label 8050 1950 2    60   ~ 0
A0
Text Label 8050 2050 2    60   ~ 0
D6
Text Label 8050 2150 2    60   ~ 0
D4
Text Label 8050 2250 2    60   ~ 0
D2
Text Label 8050 2350 2    60   ~ 0
D0
Text Label 8050 2450 2    60   ~ 0
~MREQ
Text Label 8050 2550 2    60   ~ 0
~RFSH
Text Label 8050 2650 2    60   ~ 0
~RD
NoConn ~ 7750 2850
Wire Wire Line
	5750 5350 6050 5350
Text Label 8050 2950 2    60   ~ 0
~BUSAK
Text Label 8050 3150 2    60   ~ 0
~ROMEN
Text Label 8050 3250 2    60   ~ 0
~RAMRD
Text Label 8050 3450 2    60   ~ 0
~EXP
Text Label 8050 3550 2    60   ~ 0
CLK4
$Comp
L power:GND #PWR014
U 1 1 588BBC7E
P 8500 3600
F 0 "#PWR014" H 8500 3350 50  0001 C CNN
F 1 "GND" H 8505 3427 50  0001 C CNN
F 2 "" H 8500 3600 50  0000 C CNN
F 3 "" H 8500 3600 50  0000 C CNN
	1    8500 3600
	1    0    0    -1  
$EndComp
Wire Wire Line
	6500 3600 6500 3550
Wire Wire Line
	6500 3550 6550 3550
$Comp
L power:GND #PWR015
U 1 1 588BBDE9
P 7900 1000
F 0 "#PWR015" H 7900 750 50  0001 C CNN
F 1 "GND" H 7905 827 50  0001 C CNN
F 2 "" H 7900 1000 50  0000 C CNN
F 3 "" H 7900 1000 50  0000 C CNN
	1    7900 1000
	1    0    0    -1  
$EndComp
Wire Wire Line
	7750 1150 7750 1000
Wire Wire Line
	7750 1000 7900 1000
NoConn ~ 6550 1150
$Comp
L Device:C C6
U 1 1 588BCD21
P 6950 4350
F 0 "C6" H 7050 4400 50  0000 L CNN
F 1 "100n" H 7050 4300 50  0000 L CNN
F 2 "Capacitors_SMD:C_0805" H 6988 4200 50  0001 C CNN
F 3 "" H 6950 4350 50  0000 C CNN
	1    6950 4350
	1    0    0    -1  
$EndComp
$Comp
L Device:CP C7
U 1 1 588BCE1B
P 7350 4350
F 0 "C7" H 7450 4400 50  0000 L CNN
F 1 "NP" H 7450 4300 50  0000 L CNN
F 2 "Capacitors_SMD:c_elec_4x4.5" H 7388 4200 50  0001 C CNN
F 3 "" H 7350 4350 50  0000 C CNN
	1    7350 4350
	1    0    0    -1  
$EndComp
Wire Wire Line
	6950 4200 7150 4200
$Comp
L power:GND #PWR016
U 1 1 588BD322
P 7150 4550
F 0 "#PWR016" H 7150 4300 50  0001 C CNN
F 1 "GND" H 7155 4377 50  0001 C CNN
F 2 "" H 7150 4550 50  0000 C CNN
F 3 "" H 7150 4550 50  0000 C CNN
	1    7150 4550
	1    0    0    -1  
$EndComp
$Comp
L power:VCC #PWR017
U 1 1 588BD3B9
P 7150 4150
F 0 "#PWR017" H 7150 4000 50  0001 C CNN
F 1 "VCC" H 7150 4300 50  0000 C CNN
F 2 "" H 7150 4150 50  0000 C CNN
F 3 "" H 7150 4150 50  0000 C CNN
	1    7150 4150
	1    0    0    -1  
$EndComp
Wire Wire Line
	7150 4150 7150 4200
Connection ~ 7150 4200
Wire Wire Line
	6950 4500 7150 4500
Wire Wire Line
	7150 4550 7150 4500
Connection ~ 7150 4500
$Comp
L doragasu:CPC-EXP-FINGERS P1
U 1 1 588E2878
P 6550 1150
F 0 "P1" H 7150 1440 60  0000 C CNN
F 1 "CPC-EXP-FINGERS" H 7150 1334 60  0000 C CNN
F 2 "doragasu:CPC-EXP-FINGERS" H 6550 1150 60  0001 C CNN
F 3 "" H 6550 1150 60  0001 C CNN
	1    6550 1150
	1    0    0    -1  
$EndComp
Wire Wire Line
	5750 5450 6050 5450
Wire Wire Line
	5750 5550 6050 5550
Entry Wire Line
	6050 5450 6150 5550
Entry Wire Line
	6050 5550 6150 5650
NoConn ~ 5750 5050
$Comp
L power:VCC #PWR018
U 1 1 588ECEBC
P 4450 900
F 0 "#PWR018" H 4450 750 50  0001 C CNN
F 1 "VCC" H 4450 1050 50  0000 C CNN
F 2 "" H 4450 900 50  0000 C CNN
F 3 "" H 4450 900 50  0000 C CNN
	1    4450 900 
	1    0    0    -1  
$EndComp
Wire Wire Line
	8550 1250 8250 1250
Wire Wire Line
	8550 1350 8250 1350
Wire Wire Line
	8550 1450 8250 1450
Wire Wire Line
	8550 1550 8250 1550
Wire Wire Line
	8550 1650 8250 1650
Wire Wire Line
	8550 1750 8250 1750
Wire Wire Line
	8550 1850 8250 1850
Wire Wire Line
	8550 1950 8250 1950
Wire Wire Line
	8550 2050 8250 2050
Wire Wire Line
	8550 2150 8250 2150
Wire Wire Line
	8550 2250 8250 2250
Wire Wire Line
	8550 2350 8250 2350
Wire Wire Line
	8550 2450 8250 2450
Wire Wire Line
	8550 2550 8250 2550
Wire Wire Line
	8550 2650 8250 2650
Wire Wire Line
	8550 2750 8250 2750
Wire Wire Line
	8550 2850 8250 2850
Wire Wire Line
	8550 2950 8250 2950
Wire Wire Line
	8550 3050 8250 3050
Wire Wire Line
	8550 3150 8250 3150
Wire Wire Line
	8550 3250 8250 3250
Wire Wire Line
	8550 3350 8250 3350
Entry Wire Line
	8150 1350 8250 1250
Entry Wire Line
	8150 1450 8250 1350
Entry Wire Line
	8150 1550 8250 1450
Entry Wire Line
	8150 1650 8250 1550
Entry Wire Line
	8150 1750 8250 1650
Entry Wire Line
	8150 1850 8250 1750
Entry Wire Line
	8150 1950 8250 1850
Entry Wire Line
	8150 2050 8250 1950
Entry Wire Line
	8150 2150 8250 2050
Entry Wire Line
	8150 2250 8250 2150
Entry Wire Line
	8150 2350 8250 2250
Entry Wire Line
	8150 2450 8250 2350
Entry Wire Line
	8150 2550 8250 2450
Entry Wire Line
	8150 2650 8250 2550
Entry Wire Line
	8150 2750 8250 2650
Entry Wire Line
	8150 2850 8250 2750
Entry Wire Line
	8150 2950 8250 2850
Entry Wire Line
	8150 3050 8250 2950
Entry Wire Line
	8150 3150 8250 3050
Entry Wire Line
	8150 3250 8250 3150
Entry Wire Line
	8150 3350 8250 3250
Entry Wire Line
	8150 3450 8250 3350
Text Label 8250 1250 0    60   ~ 0
A15
Text Label 8250 1350 0    60   ~ 0
A13
Text Label 8250 1450 0    60   ~ 0
A11
Text Label 8250 1550 0    60   ~ 0
A9
Text Label 8250 1650 0    60   ~ 0
A7
Text Label 8250 1750 0    60   ~ 0
A5
Text Label 8250 1850 0    60   ~ 0
A3
Text Label 8250 1950 0    60   ~ 0
A1
Text Label 8250 2050 0    60   ~ 0
D7
Text Label 8250 2150 0    60   ~ 0
D5
Text Label 8250 2250 0    60   ~ 0
D3
Text Label 8250 2350 0    60   ~ 0
D1
Text Label 8250 2450 0    60   ~ 0
VCC
Text Label 8250 2550 0    60   ~ 0
~M1
Text Label 8250 2650 0    60   ~ 0
~IORQ
Text Label 8250 2750 0    60   ~ 0
~WR
Text Label 8250 2850 0    60   ~ 0
~INT
Text Label 8250 2950 0    60   ~ 0
~BUSRQ
Text Label 8250 3050 0    60   ~ 0
READY
Text Label 8250 3150 0    60   ~ 0
~RSET
Text Label 8250 3250 0    60   ~ 0
ROMDIS
Text Label 8250 3350 0    60   ~ 0
RAMDIS
Wire Wire Line
	9050 1250 9350 1250
Wire Wire Line
	9050 1350 9350 1350
Wire Wire Line
	9050 1450 9350 1450
Wire Wire Line
	9050 1550 9350 1550
Wire Wire Line
	9050 1650 9350 1650
Wire Wire Line
	9050 1750 9350 1750
Wire Wire Line
	9050 1850 9350 1850
Wire Wire Line
	9050 1950 9350 1950
Wire Wire Line
	9050 2050 9350 2050
Wire Wire Line
	9050 2150 9350 2150
Wire Wire Line
	9050 2250 9350 2250
Wire Wire Line
	9050 2350 9350 2350
Wire Wire Line
	9050 2450 9350 2450
Wire Wire Line
	9050 2550 9350 2550
Wire Wire Line
	9050 2650 9350 2650
Wire Wire Line
	9050 2950 9350 2950
Wire Wire Line
	9050 3150 9350 3150
Wire Wire Line
	9050 3250 9350 3250
Wire Wire Line
	9050 3450 9350 3450
Wire Wire Line
	9050 3550 9350 3550
Entry Wire Line
	9350 1250 9450 1350
Entry Wire Line
	9350 1350 9450 1450
Entry Wire Line
	9350 1450 9450 1550
Entry Wire Line
	9350 1550 9450 1650
Entry Wire Line
	9350 1650 9450 1750
Entry Wire Line
	9350 1750 9450 1850
Entry Wire Line
	9350 1850 9450 1950
Entry Wire Line
	9350 1950 9450 2050
Entry Wire Line
	9350 2050 9450 2150
Entry Wire Line
	9350 2150 9450 2250
Entry Wire Line
	9350 2250 9450 2350
Entry Wire Line
	9350 2350 9450 2450
Entry Wire Line
	9350 2450 9450 2550
Entry Wire Line
	9350 2550 9450 2650
Entry Wire Line
	9350 2650 9450 2750
Entry Wire Line
	9350 2950 9450 3050
Entry Wire Line
	9350 3150 9450 3250
Entry Wire Line
	9350 3250 9450 3350
Entry Wire Line
	9350 3450 9450 3550
Entry Wire Line
	9350 3550 9450 3650
Text Label 9350 1250 2    60   ~ 0
A14
Text Label 9350 1350 2    60   ~ 0
A12
Text Label 9350 1450 2    60   ~ 0
A10
Text Label 9350 1550 2    60   ~ 0
A8
Text Label 9350 1650 2    60   ~ 0
A6
Text Label 9350 1750 2    60   ~ 0
A4
Text Label 9350 1850 2    60   ~ 0
A2
Text Label 9350 1950 2    60   ~ 0
A0
Text Label 9350 2050 2    60   ~ 0
D6
Text Label 9350 2150 2    60   ~ 0
D4
Text Label 9350 2250 2    60   ~ 0
D2
Text Label 9350 2350 2    60   ~ 0
D0
Text Label 9350 2450 2    60   ~ 0
~MREQ
Text Label 9350 2550 2    60   ~ 0
~RFSH
Text Label 9350 2650 2    60   ~ 0
~RD
Text Label 9350 2950 2    60   ~ 0
~BUSAK
Text Label 9350 3150 2    60   ~ 0
~ROMEN
Text Label 9350 3250 2    60   ~ 0
~RAMRD
Text Label 9350 3450 2    60   ~ 0
~EXP
Text Label 9350 3550 2    60   ~ 0
CLK4
$Comp
L power:GND #PWR019
U 1 1 58941C12
P 9200 1000
F 0 "#PWR019" H 9200 750 50  0001 C CNN
F 1 "GND" H 9205 827 50  0001 C CNN
F 2 "" H 9200 1000 50  0000 C CNN
F 3 "" H 9200 1000 50  0000 C CNN
	1    9200 1000
	1    0    0    -1  
$EndComp
Wire Wire Line
	8500 3600 8500 3550
Wire Wire Line
	8500 3550 8550 3550
NoConn ~ 9050 3350
NoConn ~ 9050 3050
NoConn ~ 9050 2850
NoConn ~ 9050 2750
NoConn ~ 8550 3450
NoConn ~ 8550 1150
Wire Wire Line
	9050 1150 9050 1000
Wire Wire Line
	9050 1000 9200 1000
$Comp
L power:GND #PWR020
U 1 1 58942746
P 6500 3600
F 0 "#PWR020" H 6500 3350 50  0001 C CNN
F 1 "GND" H 6505 3427 50  0001 C CNN
F 2 "" H 6500 3600 50  0000 C CNN
F 3 "" H 6500 3600 50  0000 C CNN
	1    6500 3600
	1    0    0    -1  
$EndComp
Text Notes 7200 3850 0    60   ~ 0
Dual connectors: CPC edge & M4
Wire Wire Line
	4400 950  4450 950 
Wire Wire Line
	4500 950  4600 950 
Wire Wire Line
	4450 950  4500 950 
Wire Wire Line
	4450 6750 4550 6750
Wire Wire Line
	2250 2550 2250 2700
Wire Wire Line
	2900 3450 3150 3450
Wire Wire Line
	2900 3150 3150 3150
Wire Wire Line
	2300 3150 2300 3450
Wire Wire Line
	2300 3450 2300 3500
Wire Wire Line
	3900 7050 4300 7050
Wire Wire Line
	3900 7350 4300 7350
Wire Wire Line
	4900 7150 4900 7450
Wire Wire Line
	3100 1550 3150 1550
Wire Wire Line
	2700 1950 3150 1950
Wire Wire Line
	7150 4200 7350 4200
Wire Wire Line
	7150 4500 7350 4500
$Comp
L Connector:USB_B P2
U 1 1 5AD3857C
P 1750 2300
F 0 "P2" H 1805 2767 50  0000 C CNN
F 1 "USB_B" H 1805 2676 50  0000 C CNN
F 2 "Connectors:USB_B" H 1900 2250 50  0001 C CNN
F 3 "" H 1900 2250 50  0001 C CNN
F 4 "USB-B1HSB6" H 1750 2300 50  0001 C CNN "manf#"
	1    1750 2300
	1    0    0    -1  
$EndComp
Connection ~ 2150 1950
$Comp
L Switch:SW_Push SW1
U 1 1 5AD5B331
P 5450 6850
F 0 "SW1" H 5450 7043 50  0000 C CNN
F 1 "SW_Push" H 5450 7044 50  0001 C CNN
F 2 "Buttons_Switches_THT:SW_PUSH_SMALL" H 5450 7050 50  0001 C CNN
F 3 "" H 5450 7050 50  0001 C CNN
F 4 "2-1825910-7" H 5450 6850 50  0001 C CNN "manf#"
	1    5450 6850
	1    0    0    -1  
$EndComp
$Comp
L Connector_Generic:Conn_02x03_Odd_Even P3
U 1 1 5AD7EFB9
P 6750 5850
F 0 "P3" H 6800 6075 50  0000 C CNN
F 1 "Conn_02x03_Odd_Even" H 6800 6076 50  0001 C CNN
F 2 "" H 6750 5850 50  0001 C CNN
F 3 "~" H 6750 5850 50  0001 C CNN
F 4 "M20-9980345" H 6750 5850 50  0001 C CNN "manf#"
	1    6750 5850
	1    0    0    -1  
$EndComp
$Comp
L Connector_Generic:Conn_02x25_Odd_Even P4
U 1 1 5AD7FA2F
P 8750 2350
F 0 "P4" H 8800 3675 50  0000 C CNN
F 1 "Conn_02x25_Odd_Even" H 8800 3676 50  0001 C CNN
F 2 "Socket_Strips:Socket_Strip_Straight_2x25" H 8750 2350 50  0001 C CNN
F 3 "~" H 8750 2350 50  0001 C CNN
F 4 "PPTC252LFBN-RC" H 8750 2350 50  0001 C CNN "manf#"
	1    8750 2350
	1    0    0    -1  
$EndComp
Wire Wire Line
	5350 7150 5300 7150
Wire Wire Line
	5300 7450 5350 7450
Wire Wire Line
	2150 2200 2150 2400
Wire Wire Line
	2150 2400 2050 2400
Wire Wire Line
	2150 2200 2450 2200
Wire Wire Line
	2250 2700 1750 2700
Connection ~ 1750 2700
Wire Wire Line
	2050 2100 2150 2100
Wire Wire Line
	2150 1950 2150 2100
Wire Wire Line
	1650 2700 1750 2700
Connection ~ 8150 750 
Wire Bus Line
	8150 750  9450 750 
Wire Bus Line
	9450 750  9450 3650
Wire Bus Line
	8150 750  8150 3650
Wire Bus Line
	6150 750  6150 7550
$EndSCHEMATC
