(export (version D)
  (design
    (source /home/jalon/src/github/romba/sch/romba/romba.sch)
    (date "dom 08 abr 2018 19:19:55 CEST")
    (tool "Eeschema (5.0.0-rc2-dev-347-g62c5a706d)")
    (sheet (number 1) (name /) (tstamps /)
      (title_block
        (title "ROMBA - ROM Board for Amstrad")
        (company doragasu)
        (rev A2)
        (date 2018-04-07)
        (source romba.sch)
        (comment (number 1) (value "License: CERN OHL 1.2"))
        (comment (number 2) (value ""))
        (comment (number 3) (value ""))
        (comment (number 4) (value "")))))
  (components
    (comp (ref P3)
      (value CPC-EXP-PORT)
      (footprint Socket_Strips:Socket_Strip_Straight_2x25)
      (fields
        (field (name manf#) 5530843-5))
      (libsource (lib doragasu) (part CPC-EXP-PORT))
      (sheetpath (names /) (tstamps /))
      (tstamp 58771E2F))
    (comp (ref U6)
      (value AZ1117CH)
      (footprint TO_SOT_Packages_SMD:SOT-223)
      (fields
        (field (name manf#) AZ1117CH-3.3TRG1))
      (libsource (lib doragasu) (part AZ1117CH))
      (sheetpath (names /) (tstamps /))
      (tstamp 587723F9))
    (comp (ref U3)
      (value 74LVC162245)
      (footprint Housings_SSOP:TSSOP-48_6.1x12.5mm_Pitch0.5mm)
      (fields
        (field (name manf#) 74LVC162245ADGG:11))
      (libsource (lib doragasu) (part 74LVC162245))
      (sheetpath (names /) (tstamps /))
      (tstamp 587728BC))
    (comp (ref U5)
      (value 74LVC162245)
      (footprint Housings_SSOP:TSSOP-48_6.1x12.5mm_Pitch0.5mm)
      (libsource (lib doragasu) (part 74LVC162245))
      (sheetpath (names /) (tstamps /))
      (tstamp 58772AA0))
    (comp (ref U7)
      (value 74LVC162245)
      (footprint Housings_SSOP:TSSOP-48_6.1x12.5mm_Pitch0.5mm)
      (libsource (lib doragasu) (part 74LVC162245))
      (sheetpath (names /) (tstamps /))
      (tstamp 58772BD0))
    (comp (ref R27)
      (value 10k)
      (footprint Resistors_SMD:R_0603)
      (libsource (lib device) (part R))
      (sheetpath (names /) (tstamps /))
      (tstamp 5877CEDB))
    (comp (ref U2)
      (value LCMXO256C)
      (footprint Housings_QFP:LQFP-100_14x14mm_Pitch0.5mm)
      (fields
        (field (name manf#) LAMXO256C-3TN100E))
      (libsource (lib doragasu) (part LCMXO256C))
      (sheetpath (names /) (tstamps /))
      (tstamp 5877D372))
    (comp (ref C4)
      (value 22u)
      (footprint Capacitors_SMD:C_1206)
      (fields
        (field (name manf#) CL31X226KQHNNNE))
      (libsource (lib device) (part CP))
      (sheetpath (names /) (tstamps /))
      (tstamp 5877ECBC))
    (comp (ref C5)
      (value 1u)
      (footprint Capacitors_SMD:C_0603)
      (fields
        (field (name manf#) GRM188R71C105KE15D))
      (libsource (lib device) (part C))
      (sheetpath (names /) (tstamps /))
      (tstamp 5877ED06))
    (comp (ref C6)
      (value 1u)
      (footprint Capacitors_SMD:C_0603)
      (libsource (lib device) (part C))
      (sheetpath (names /) (tstamps /))
      (tstamp 5877ED50))
    (comp (ref C7)
      (value 100n)
      (footprint Capacitors_SMD:C_0603)
      (fields
        (field (name manf#) CL10B104KO8NNNC))
      (libsource (lib device) (part C))
      (sheetpath (names /) (tstamps /))
      (tstamp 587A9C85))
    (comp (ref C8)
      (value 100n)
      (footprint Capacitors_SMD:C_0603)
      (libsource (lib device) (part C))
      (sheetpath (names /) (tstamps /))
      (tstamp 587A9C8B))
    (comp (ref C9)
      (value 100n)
      (footprint Capacitors_SMD:C_0603)
      (libsource (lib device) (part C))
      (sheetpath (names /) (tstamps /))
      (tstamp 587A9FF8))
    (comp (ref C10)
      (value 100n)
      (footprint Capacitors_SMD:C_0603)
      (libsource (lib device) (part C))
      (sheetpath (names /) (tstamps /))
      (tstamp 587A9FFE))
    (comp (ref C11)
      (value 100n)
      (footprint Capacitors_SMD:C_0603)
      (libsource (lib device) (part C))
      (sheetpath (names /) (tstamps /))
      (tstamp 587AA004))
    (comp (ref C12)
      (value 100n)
      (footprint Capacitors_SMD:C_0603)
      (libsource (lib device) (part C))
      (sheetpath (names /) (tstamps /))
      (tstamp 587AA00A))
    (comp (ref C13)
      (value 100n)
      (footprint Capacitors_SMD:C_0603)
      (libsource (lib device) (part C))
      (sheetpath (names /) (tstamps /))
      (tstamp 587AA010))
    (comp (ref R3)
      (value NP)
      (footprint Resistors_SMD:R_0603)
      (libsource (lib device) (part R))
      (sheetpath (names /) (tstamps /))
      (tstamp 587C67FA))
    (comp (ref R13)
      (value NP)
      (footprint Resistors_SMD:R_0603)
      (libsource (lib device) (part R))
      (sheetpath (names /) (tstamps /))
      (tstamp 587C7136))
    (comp (ref R14)
      (value NP)
      (footprint Resistors_SMD:R_0603)
      (libsource (lib device) (part R))
      (sheetpath (names /) (tstamps /))
      (tstamp 587C722F))
    (comp (ref C3)
      (value 6.8n)
      (footprint Capacitors_SMD:C_0603)
      (fields
        (field (name manf#) CL10C221JB8NNNC)
        (field (name Dielectric) NP0))
      (libsource (lib device) (part C))
      (sheetpath (names /) (tstamps /))
      (tstamp 587C85BE))
    (comp (ref R23)
      (value NP)
      (footprint Resistors_SMD:R_0603)
      (libsource (lib device) (part R))
      (sheetpath (names /) (tstamps /))
      (tstamp 587C85C4))
    (comp (ref R26)
      (value 10k)
      (footprint Resistors_SMD:R_0603)
      (libsource (lib device) (part R))
      (sheetpath (names /) (tstamps /))
      (tstamp 587CB181))
    (comp (ref R15)
      (value 2k)
      (footprint Resistors_SMD:R_0603)
      (libsource (lib device) (part R))
      (sheetpath (names /) (tstamps /))
      (tstamp 587CCE95))
    (comp (ref R4)
      (value 2k)
      (footprint Resistors_SMD:R_0603)
      (fields
        (field (name manf#) RC0603FR-072KL))
      (libsource (lib device) (part R))
      (sheetpath (names /) (tstamps /))
      (tstamp 587CD051))
    (comp (ref R16)
      (value 2k)
      (footprint Resistors_SMD:R_0603)
      (libsource (lib device) (part R))
      (sheetpath (names /) (tstamps /))
      (tstamp 587CEAA3))
    (comp (ref R5)
      (value 1k)
      (footprint Resistors_SMD:R_0603)
      (fields
        (field (name manf#) RC0603FR-071KL))
      (libsource (lib device) (part R))
      (sheetpath (names /) (tstamps /))
      (tstamp 587CEAA9))
    (comp (ref R17)
      (value 2k)
      (footprint Resistors_SMD:R_0603)
      (libsource (lib device) (part R))
      (sheetpath (names /) (tstamps /))
      (tstamp 587CEC1B))
    (comp (ref R6)
      (value 1k)
      (footprint Resistors_SMD:R_0603)
      (libsource (lib device) (part R))
      (sheetpath (names /) (tstamps /))
      (tstamp 587CEC21))
    (comp (ref R18)
      (value 2k)
      (footprint Resistors_SMD:R_0603)
      (libsource (lib device) (part R))
      (sheetpath (names /) (tstamps /))
      (tstamp 587CF057))
    (comp (ref R7)
      (value 1k)
      (footprint Resistors_SMD:R_0603)
      (libsource (lib device) (part R))
      (sheetpath (names /) (tstamps /))
      (tstamp 587CF05D))
    (comp (ref R19)
      (value 2k)
      (footprint Resistors_SMD:R_0603)
      (libsource (lib device) (part R))
      (sheetpath (names /) (tstamps /))
      (tstamp 587CF1CB))
    (comp (ref R8)
      (value 1k)
      (footprint Resistors_SMD:R_0603)
      (libsource (lib device) (part R))
      (sheetpath (names /) (tstamps /))
      (tstamp 587CF1D1))
    (comp (ref R20)
      (value 2k)
      (footprint Resistors_SMD:R_0603)
      (libsource (lib device) (part R))
      (sheetpath (names /) (tstamps /))
      (tstamp 587CF3CB))
    (comp (ref R9)
      (value 1k)
      (footprint Resistors_SMD:R_0603)
      (libsource (lib device) (part R))
      (sheetpath (names /) (tstamps /))
      (tstamp 587CF3D1))
    (comp (ref R21)
      (value 2k)
      (footprint Resistors_SMD:R_0603)
      (libsource (lib device) (part R))
      (sheetpath (names /) (tstamps /))
      (tstamp 587CF589))
    (comp (ref R10)
      (value 1k)
      (footprint Resistors_SMD:R_0603)
      (libsource (lib device) (part R))
      (sheetpath (names /) (tstamps /))
      (tstamp 587CF58F))
    (comp (ref R22)
      (value 2k)
      (footprint Resistors_SMD:R_0603)
      (libsource (lib device) (part R))
      (sheetpath (names /) (tstamps /))
      (tstamp 587CF963))
    (comp (ref R11)
      (value 1k)
      (footprint Resistors_SMD:R_0603)
      (libsource (lib device) (part R))
      (sheetpath (names /) (tstamps /))
      (tstamp 587CF969))
    (comp (ref R30)
      (value 47)
      (footprint Resistors_SMD:R_0603)
      (fields
        (field (name manf#) RC0603FR-0747RL))
      (libsource (lib device) (part R))
      (sheetpath (names /) (tstamps /))
      (tstamp 587D525C))
    (comp (ref R31)
      (value 47)
      (footprint Resistors_SMD:R_0603)
      (libsource (lib device) (part R))
      (sheetpath (names /) (tstamps /))
      (tstamp 587D5602))
    (comp (ref R32)
      (value 150)
      (footprint Resistors_SMD:R_0603)
      (fields
        (field (name manf#) 311-150HRCT-ND))
      (libsource (lib device) (part R))
      (sheetpath (names /) (tstamps /))
      (tstamp 587D56CB))
    (comp (ref D1)
      (value RGB_LED)
      (footprint doragasu:SMD_0606_4PAD)
      (fields
        (field (name manf#) LTST-C19HE1WT))
      (libsource (lib doragasu) (part RGB_LED))
      (sheetpath (names /) (tstamps /))
      (tstamp 587D5A46))
    (comp (ref C14)
      (value 100n)
      (footprint Capacitors_SMD:C_0603)
      (libsource (lib device) (part C))
      (sheetpath (names /) (tstamps /))
      (tstamp 587DB81F))
    (comp (ref C15)
      (value 100n)
      (footprint Capacitors_SMD:C_0603)
      (libsource (lib device) (part C))
      (sheetpath (names /) (tstamps /))
      (tstamp 587DB8F9))
    (comp (ref C16)
      (value 100n)
      (footprint Capacitors_SMD:C_0603)
      (libsource (lib device) (part C))
      (sheetpath (names /) (tstamps /))
      (tstamp 58898CB3))
    (comp (ref C17)
      (value 100n)
      (footprint Capacitors_SMD:C_0603)
      (libsource (lib device) (part C))
      (sheetpath (names /) (tstamps /))
      (tstamp 58898CB9))
    (comp (ref R1)
      (value NP)
      (footprint Resistors_SMD:R_0603)
      (fields
        (field (name manf#) RC0603FR-0710KL))
      (libsource (lib device) (part R))
      (sheetpath (names /) (tstamps /))
      (tstamp 58895891))
    (comp (ref R2)
      (value 10k)
      (footprint Resistors_SMD:R_0603)
      (fields
        (field (name manf#) RC0603FR-0722KL))
      (libsource (lib device) (part R))
      (sheetpath (names /) (tstamps /))
      (tstamp 588975AB))
    (comp (ref R25)
      (value 4k7)
      (footprint Resistors_SMD:R_0603)
      (libsource (lib device) (part R))
      (sheetpath (names /) (tstamps /))
      (tstamp 58899DF7))
    (comp (ref R24)
      (value 10k)
      (footprint Resistors_SMD:R_0603)
      (libsource (lib device) (part R))
      (sheetpath (names /) (tstamps /))
      (tstamp 5889A558))
    (comp (ref C2)
      (value 220p)
      (footprint Capacitors_SMD:C_0603)
      (libsource (lib device) (part C))
      (sheetpath (names /) (tstamps /))
      (tstamp 5889B955))
    (comp (ref R12)
      (value NP)
      (footprint Resistors_SMD:R_0603)
      (libsource (lib device) (part R))
      (sheetpath (names /) (tstamps /))
      (tstamp 5889D1AE))
    (comp (ref C1)
      (value 100n)
      (footprint Capacitors_SMD:C_0603)
      (libsource (lib device) (part C))
      (sheetpath (names /) (tstamps /))
      (tstamp 5889F93B))
    (comp (ref R28)
      (value 10k)
      (footprint Resistors_SMD:R_0603)
      (libsource (lib device) (part R))
      (sheetpath (names /) (tstamps /))
      (tstamp 588C0D19))
    (comp (ref R29)
      (value 10k)
      (footprint Resistors_SMD:R_0603)
      (libsource (lib device) (part R))
      (sheetpath (names /) (tstamps /))
      (tstamp 588C32EA))
    (comp (ref U4)
      (value S29GL064N90TFI040)
      (footprint doragasu:TSOP48SP)
      (fields
        (field (name manf#) S29GL064S70TFI040))
      (libsource (lib doragasu) (part S29GL064N90TFI040))
      (sheetpath (names /) (tstamps /))
      (tstamp 5895BFAC))
    (comp (ref R33)
      (value 10k)
      (footprint Resistors_SMD:R_0603)
      (libsource (lib device) (part R))
      (sheetpath (names /) (tstamps /))
      (tstamp 5896A654))
    (comp (ref U1)
      (value MCP6L01)
      (footprint TO_SOT_Packages_SMD:SOT-23-5)
      (datasheet http://ww1.microchip.com/downloads/en/DeviceDoc/21314g.pdf)
      (fields
        (field (name manf#) MCP6L01T-E/OT))
      (libsource (lib linear) (part MCP601-xOT))
      (sheetpath (names /) (tstamps /))
      (tstamp 5ACDB404))
    (comp (ref P2)
      (value Conn_01x25)
      (footprint Pin_Headers:Pin_Header_Straight_1x25)
      (fields
        (field (name manf#) 302-R501))
      (libsource (lib Connector) (part Conn_01x25))
      (sheetpath (names /) (tstamps /))
      (tstamp 5ACD9B00))
    (comp (ref P1)
      (value Conn_02x03_Odd_Even)
      (footprint doragasu:CON_EDGE_TE-7-5530843-7)
      (libsource (lib Connector) (part Conn_02x03_Odd_Even))
      (sheetpath (names /) (tstamps /))
      (tstamp 5ACDEDC5)))
  (libparts
    (libpart (lib doragasu) (part 74162245)
      (aliases
        (alias 74LVC162245))
      (fields
        (field (name Reference) U)
        (field (name Value) 74162245))
      (pins
        (pin (num 1) (name DIR) (type input))
        (pin (num 2) (name B0) (type 3state))
        (pin (num 3) (name B1) (type 3state))
        (pin (num 4) (name GND) (type power_in))
        (pin (num 5) (name B2) (type 3state))
        (pin (num 6) (name B3) (type 3state))
        (pin (num 7) (name VCC) (type power_in))
        (pin (num 8) (name B4) (type 3state))
        (pin (num 9) (name B5) (type 3state))
        (pin (num 10) (name GND) (type power_in))
        (pin (num 11) (name B6) (type 3state))
        (pin (num 12) (name B7) (type 3state))
        (pin (num 13) (name B0) (type 3state))
        (pin (num 14) (name B1) (type 3state))
        (pin (num 15) (name GND) (type power_in))
        (pin (num 16) (name B2) (type 3state))
        (pin (num 17) (name B3) (type 3state))
        (pin (num 18) (name VCC) (type power_in))
        (pin (num 19) (name B4) (type 3state))
        (pin (num 20) (name B5) (type 3state))
        (pin (num 21) (name GND) (type power_in))
        (pin (num 22) (name B6) (type 3state))
        (pin (num 23) (name B7) (type 3state))
        (pin (num 24) (name DIR) (type input))
        (pin (num 25) (name ~OE) (type input))
        (pin (num 26) (name A7) (type 3state))
        (pin (num 27) (name A6) (type 3state))
        (pin (num 28) (name GND) (type power_in))
        (pin (num 29) (name A5) (type 3state))
        (pin (num 30) (name A4) (type 3state))
        (pin (num 31) (name VCC) (type power_in))
        (pin (num 32) (name A3) (type 3state))
        (pin (num 33) (name A2) (type 3state))
        (pin (num 34) (name GND) (type power_in))
        (pin (num 35) (name A1) (type 3state))
        (pin (num 36) (name A0) (type 3state))
        (pin (num 37) (name A7) (type 3state))
        (pin (num 38) (name A6) (type 3state))
        (pin (num 39) (name GND) (type power_in))
        (pin (num 40) (name A5) (type 3state))
        (pin (num 41) (name A4) (type 3state))
        (pin (num 42) (name VCC) (type power_in))
        (pin (num 43) (name A3) (type 3state))
        (pin (num 44) (name A2) (type 3state))
        (pin (num 45) (name GND) (type power_in))
        (pin (num 46) (name A1) (type 3state))
        (pin (num 47) (name A0) (type 3state))
        (pin (num 48) (name ~OE) (type input))))
    (libpart (lib doragasu) (part AZ1117CH)
      (description "800mA Fixed Low Drop Positive Voltage Regulator, Fixed Output 3.3V, SOT223")
      (docs http://www.st.com/st-web-ui/static/active/en/resource/technical/document/datasheet/CD00000544.pdf)
      (footprints
        (fp SOT223))
      (fields
        (field (name Reference) U)
        (field (name Value) AZ1117CH)
        (field (name Footprint) SOT-223))
      (pins
        (pin (num 1) (name GND) (type power_in))
        (pin (num 2) (name VO) (type power_out))
        (pin (num 3) (name VI) (type power_in))
        (pin (num 4) (name VO) (type power_out))))
    (libpart (lib device) (part C)
      (description "Unpolarized capacitor")
      (footprints
        (fp C_*))
      (fields
        (field (name Reference) C)
        (field (name Value) C))
      (pins
        (pin (num 1) (name ~) (type passive))
        (pin (num 2) (name ~) (type passive))))
    (libpart (lib device) (part CP)
      (description "Polarised capacitor")
      (footprints
        (fp CP_*))
      (fields
        (field (name Reference) C)
        (field (name Value) CP))
      (pins
        (pin (num 1) (name ~) (type passive))
        (pin (num 2) (name ~) (type passive))))
    (libpart (lib doragasu) (part CPC-EXP-PORT)
      (fields
        (field (name Reference) U)
        (field (name Value) CPC-EXP-PORT))
      (pins
        (pin (num 1) (name SOUND) (type passive))
        (pin (num 2) (name GND) (type power_in))
        (pin (num 3) (name A15) (type output))
        (pin (num 4) (name A14) (type output))
        (pin (num 5) (name A13) (type output))
        (pin (num 6) (name A12) (type output))
        (pin (num 7) (name A11) (type output))
        (pin (num 8) (name A10) (type output))
        (pin (num 9) (name A9) (type output))
        (pin (num 10) (name A8) (type output))
        (pin (num 11) (name A7) (type output))
        (pin (num 12) (name A6) (type output))
        (pin (num 13) (name A5) (type output))
        (pin (num 14) (name A4) (type output))
        (pin (num 15) (name A3) (type output))
        (pin (num 16) (name A2) (type output))
        (pin (num 17) (name A1) (type output))
        (pin (num 18) (name A0) (type output))
        (pin (num 19) (name D7) (type 3state))
        (pin (num 20) (name D6) (type 3state))
        (pin (num 21) (name D5) (type 3state))
        (pin (num 22) (name D4) (type 3state))
        (pin (num 23) (name D3) (type 3state))
        (pin (num 24) (name D2) (type 3state))
        (pin (num 25) (name D1) (type 3state))
        (pin (num 26) (name D0) (type 3state))
        (pin (num 27) (name VCC) (type power_in))
        (pin (num 28) (name ~MREQ) (type output))
        (pin (num 29) (name ~M1) (type output))
        (pin (num 30) (name ~RFSH) (type output))
        (pin (num 31) (name ~IORQ) (type output))
        (pin (num 32) (name ~RD) (type output))
        (pin (num 33) (name ~WR) (type output))
        (pin (num 34) (name ~HALT) (type output))
        (pin (num 35) (name ~INT) (type input))
        (pin (num 36) (name ~NMI) (type input))
        (pin (num 37) (name ~BUSRQ) (type input))
        (pin (num 38) (name ~BUSAK) (type output))
        (pin (num 39) (name READY) (type output))
        (pin (num 40) (name ~BRST) (type input))
        (pin (num 41) (name ~RSET) (type input))
        (pin (num 42) (name ~ROMEN) (type output))
        (pin (num 43) (name ROMDIS) (type input))
        (pin (num 44) (name ~RAMRD) (type output))
        (pin (num 45) (name RAMDIS) (type input))
        (pin (num 46) (name CURSOR) (type output))
        (pin (num 47) (name LPEN) (type input))
        (pin (num 48) (name ~EXP) (type unspc))
        (pin (num 49) (name GND) (type power_in))
        (pin (num 50) (name CLK4) (type unspc))))
    (libpart (lib Connector) (part Conn_01x25)
      (description "Generic connector, single row, 01x25")
      (docs ~)
      (footprints
        (fp Connector*:*_??x*mm*)
        (fp Connector*:*1x??x*mm*)
        (fp Pin?Header?Straight?1X*)
        (fp Pin?Header?Angled?1X*)
        (fp Socket?Strip?Straight?1X*)
        (fp Socket?Strip?Angled?1X*))
      (fields
        (field (name Reference) J)
        (field (name Value) Conn_01x25))
      (pins
        (pin (num 1) (name Pin_1) (type passive))
        (pin (num 2) (name Pin_2) (type passive))
        (pin (num 3) (name Pin_3) (type passive))
        (pin (num 4) (name Pin_4) (type passive))
        (pin (num 5) (name Pin_5) (type passive))
        (pin (num 6) (name Pin_6) (type passive))
        (pin (num 7) (name Pin_7) (type passive))
        (pin (num 8) (name Pin_8) (type passive))
        (pin (num 9) (name Pin_9) (type passive))
        (pin (num 10) (name Pin_10) (type passive))
        (pin (num 11) (name Pin_11) (type passive))
        (pin (num 12) (name Pin_12) (type passive))
        (pin (num 13) (name Pin_13) (type passive))
        (pin (num 14) (name Pin_14) (type passive))
        (pin (num 15) (name Pin_15) (type passive))
        (pin (num 16) (name Pin_16) (type passive))
        (pin (num 17) (name Pin_17) (type passive))
        (pin (num 18) (name Pin_18) (type passive))
        (pin (num 19) (name Pin_19) (type passive))
        (pin (num 20) (name Pin_20) (type passive))
        (pin (num 21) (name Pin_21) (type passive))
        (pin (num 22) (name Pin_22) (type passive))
        (pin (num 23) (name Pin_23) (type passive))
        (pin (num 24) (name Pin_24) (type passive))
        (pin (num 25) (name Pin_25) (type passive))))
    (libpart (lib Connector) (part Conn_02x03_Odd_Even)
      (description "Generic connector, double row, 02x03, odd/even pin numbering scheme (row 1 odd numbers, row 2 even numbers)")
      (docs ~)
      (footprints
        (fp Connector*:*2x??x*mm*)
        (fp Connector*:*2x???Pitch*)
        (fp Pin_Header_Straight_2X*)
        (fp Pin_Header_Angled_2X*)
        (fp Socket_Strip_Straight_2X*)
        (fp Socket_Strip_Angled_2X*))
      (fields
        (field (name Reference) J)
        (field (name Value) Conn_02x03_Odd_Even))
      (pins
        (pin (num 1) (name Pin_1) (type passive))
        (pin (num 2) (name Pin_2) (type passive))
        (pin (num 3) (name Pin_3) (type passive))
        (pin (num 4) (name Pin_4) (type passive))
        (pin (num 5) (name Pin_5) (type passive))
        (pin (num 6) (name Pin_6) (type passive))))
    (libpart (lib doragasu) (part LCMXO256)
      (aliases
        (alias LCMXO256C)
        (alias LCMXO256E)
        (alias LAMXO256C)
        (alias LAMXO256E))
      (footprints
        (fp LQFP-100_14x14mm_Pitch0.5mm))
      (fields
        (field (name Reference) U)
        (field (name Value) LCMXO256))
      (pins
        (pin (num 1) (name PL2A) (type BiDi))
        (pin (num 2) (name PL2B) (type BiDi))
        (pin (num 3) (name PL3A) (type BiDi))
        (pin (num 4) (name PL3B) (type BiDi))
        (pin (num 5) (name PL3C) (type BiDi))
        (pin (num 6) (name PL3D) (type BiDi))
        (pin (num 7) (name PL4A) (type BiDi))
        (pin (num 8) (name PL4B) (type BiDi))
        (pin (num 9) (name PL5A) (type BiDi))
        (pin (num 10) (name VCCIO1) (type power_in))
        (pin (num 11) (name PL5B) (type BiDi))
        (pin (num 12) (name GNDIO1) (type power_in))
        (pin (num 13) (name PL5C) (type BiDi))
        (pin (num 14) (name PL5D/GSRN) (type BiDi))
        (pin (num 15) (name PL6A) (type BiDi))
        (pin (num 16) (name PL6B/TSALL) (type BiDi))
        (pin (num 17) (name PL7A) (type BiDi))
        (pin (num 18) (name PL7B) (type BiDi))
        (pin (num 19) (name PL7C) (type BiDi))
        (pin (num 20) (name PL7D) (type BiDi))
        (pin (num 21) (name PL8A) (type BiDi))
        (pin (num 22) (name PL8B) (type BiDi))
        (pin (num 23) (name PL9A) (type BiDi))
        (pin (num 24) (name VCCIO1) (type power_in))
        (pin (num 25) (name GNDIO1) (type power_in))
        (pin (num 26) (name TMS) (type input))
        (pin (num 27) (name PL9B) (type BiDi))
        (pin (num 28) (name TCK) (type input))
        (pin (num 29) (name PB2A) (type BiDi))
        (pin (num 30) (name PB2B) (type BiDi))
        (pin (num 31) (name TDO) (type output))
        (pin (num 32) (name PB2C) (type BiDi))
        (pin (num 33) (name TDI) (type input))
        (pin (num 34) (name PB2D) (type BiDi))
        (pin (num 35) (name VCC) (type power_in))
        (pin (num 36) (name PB3A/PCLK1_1) (type BiDi))
        (pin (num 37) (name PB3B) (type BiDi))
        (pin (num 38) (name PB3C/PCLK1_0) (type BiDi))
        (pin (num 39) (name PB3D) (type BiDi))
        (pin (num 40) (name GND) (type power_in))
        (pin (num 41) (name VCCIO1) (type power_in))
        (pin (num 42) (name GNDIO1) (type power_in))
        (pin (num 43) (name PB4A) (type BiDi))
        (pin (num 44) (name PB4B) (type BiDi))
        (pin (num 45) (name PB4C) (type BiDi))
        (pin (num 46) (name PB4D) (type BiDi))
        (pin (num 47) (name PB5A) (type BiDi))
        (pin (num 48) (name SLEEPN) (type input))
        (pin (num 49) (name PB5C) (type BiDi))
        (pin (num 50) (name PB5D) (type BiDi))
        (pin (num 51) (name PR9B) (type BiDi))
        (pin (num 52) (name PR9A) (type BiDi))
        (pin (num 53) (name PR8B) (type BiDi))
        (pin (num 54) (name PR8A) (type BiDi))
        (pin (num 55) (name PR7D) (type BiDi))
        (pin (num 56) (name PR7C) (type BiDi))
        (pin (num 57) (name PR7B) (type BiDi))
        (pin (num 58) (name PR7A) (type BiDi))
        (pin (num 59) (name PR6B) (type BiDi))
        (pin (num 60) (name VCCIO0) (type power_in))
        (pin (num 61) (name PR6A) (type BiDi))
        (pin (num 62) (name GNDIO0) (type power_in))
        (pin (num 63) (name PR5D) (type BiDi))
        (pin (num 64) (name PR5C) (type BiDi))
        (pin (num 65) (name PR5B) (type BiDi))
        (pin (num 66) (name PR5A) (type BiDi))
        (pin (num 67) (name PR4B) (type BiDi))
        (pin (num 68) (name PR4A) (type BiDi))
        (pin (num 69) (name PR3D) (type BiDi))
        (pin (num 70) (name PR3C) (type BiDi))
        (pin (num 71) (name PR3B) (type BiDi))
        (pin (num 72) (name PR3A) (type BiDi))
        (pin (num 73) (name PR2B) (type BiDi))
        (pin (num 74) (name VCCIO0) (type power_in))
        (pin (num 75) (name GNDIO0) (type power_in))
        (pin (num 76) (name PR2A) (type BiDi))
        (pin (num 77) (name PT5C) (type BiDi))
        (pin (num 78) (name PT5B) (type BiDi))
        (pin (num 79) (name PT5A) (type BiDi))
        (pin (num 80) (name PT4F) (type BiDi))
        (pin (num 81) (name PT4E) (type BiDi))
        (pin (num 82) (name PT4D) (type BiDi))
        (pin (num 83) (name PT4C) (type BiDi))
        (pin (num 84) (name GND) (type power_in))
        (pin (num 85) (name PT4B/PCLK0_1) (type BiDi))
        (pin (num 86) (name PT4A/PCLK0_0) (type BiDi))
        (pin (num 87) (name PT3D) (type BiDi))
        (pin (num 88) (name VCCAUX) (type power_in))
        (pin (num 89) (name PT3C) (type BiDi))
        (pin (num 90) (name VCC) (type power_in))
        (pin (num 91) (name PT3B) (type BiDi))
        (pin (num 92) (name VCCIO0) (type power_in))
        (pin (num 93) (name GNDIO0) (type power_in))
        (pin (num 94) (name PT3A) (type BiDi))
        (pin (num 95) (name PT2F) (type BiDi))
        (pin (num 96) (name PT2E) (type BiDi))
        (pin (num 97) (name PT2D) (type BiDi))
        (pin (num 98) (name PT2C) (type BiDi))
        (pin (num 99) (name PT2B) (type BiDi))
        (pin (num 100) (name PT2A) (type BiDi))))
    (libpart (lib linear) (part MCP6L91T-EOT)
      (aliases
        (alias MCP6561-OT)
        (alias MCP6001-OT)
        (alias MCP601-xOT)
        (alias OPA333xxDBV)
        (alias OPA340NA)
        (alias OPA376xxDBV)
        (alias TS881xLx)
        (alias TSV911xxLx)
        (alias OPA330xxDBV)
        (alias OPA356xxDBV))
      (description "10 MHz, 850 µA Op Amps, SOT-23-5")
      (docs http://ww1.microchip.com/downloads/en/DeviceDoc/22141b.pdf)
      (footprints
        (fp SOT?23?5*))
      (fields
        (field (name Reference) U)
        (field (name Value) MCP6L91T-EOT)
        (field (name Footprint) TO_SOT_Packages_SMD:SOT-23-5))
      (pins
        (pin (num 1) (name ~) (type output))
        (pin (num 2) (name V-) (type power_in))
        (pin (num 3) (name +) (type input))
        (pin (num 4) (name -) (type input))
        (pin (num 5) (name V+) (type power_in))))
    (libpart (lib device) (part R)
      (description Resistor)
      (footprints
        (fp R_*)
        (fp R_*))
      (fields
        (field (name Reference) R)
        (field (name Value) R))
      (pins
        (pin (num 1) (name ~) (type passive))
        (pin (num 2) (name ~) (type passive))))
    (libpart (lib doragasu) (part RGB_LED)
      (fields
        (field (name Reference) D)
        (field (name Value) RGB_LED))
      (pins
        (pin (num 1) (name AG) (type passive))
        (pin (num 2) (name KB) (type passive))
        (pin (num 3) (name KG) (type passive))
        (pin (num 4) (name KR) (type passive))))
    (libpart (lib doragasu) (part S29GL064N90TFI040)
      (fields
        (field (name Reference) U)
        (field (name Value) S29GL064N90TFI040))
      (pins
        (pin (num 1) (name A15) (type input))
        (pin (num 2) (name A14) (type input))
        (pin (num 3) (name A13) (type input))
        (pin (num 4) (name A12) (type input))
        (pin (num 5) (name A11) (type input))
        (pin (num 6) (name A10) (type input))
        (pin (num 7) (name A9) (type input))
        (pin (num 8) (name A8) (type input))
        (pin (num 9) (name A19) (type input))
        (pin (num 10) (name A20) (type input))
        (pin (num 11) (name ~WE) (type input))
        (pin (num 12) (name ~RESET) (type input))
        (pin (num 13) (name A21) (type input))
        (pin (num 14) (name ~WP~/ACC) (type input))
        (pin (num 15) (name RY/~BY) (type output))
        (pin (num 16) (name A18) (type input))
        (pin (num 17) (name A17) (type input))
        (pin (num 18) (name A7) (type input))
        (pin (num 19) (name A6) (type input))
        (pin (num 20) (name A5) (type input))
        (pin (num 21) (name A4) (type input))
        (pin (num 22) (name A3) (type input))
        (pin (num 23) (name A2) (type input))
        (pin (num 24) (name A1) (type input))
        (pin (num 25) (name A0) (type input))
        (pin (num 26) (name ~CE) (type input))
        (pin (num 27) (name GND) (type power_in))
        (pin (num 28) (name ~OE) (type input))
        (pin (num 29) (name D0) (type 3state))
        (pin (num 30) (name D8) (type 3state))
        (pin (num 31) (name D1) (type 3state))
        (pin (num 32) (name D9) (type 3state))
        (pin (num 33) (name D2) (type 3state))
        (pin (num 34) (name D10) (type 3state))
        (pin (num 35) (name D3) (type 3state))
        (pin (num 36) (name D11) (type 3state))
        (pin (num 37) (name VCC) (type power_in))
        (pin (num 38) (name D4) (type 3state))
        (pin (num 39) (name D12) (type 3state))
        (pin (num 40) (name D5) (type 3state))
        (pin (num 41) (name D13) (type 3state))
        (pin (num 42) (name D6) (type 3state))
        (pin (num 43) (name D14) (type 3state))
        (pin (num 44) (name D7) (type 3state))
        (pin (num 45) (name D15/A-1) (type 3state))
        (pin (num 46) (name GND) (type power_in))
        (pin (num 47) (name ~BYTE) (type input))
        (pin (num 48) (name A16) (type input)))))
  (libraries
    (library (logical Connector)
      (uri /usr/share/kicad/library//Connector.lib))
    (library (logical device)
      (uri /usr/share/kicad/library//device.lib))
    (library (logical doragasu)
      (uri /home/jalon/src/github/doragasu-kicad-lib/doragasu.lib))
    (library (logical linear)
      (uri /usr/share/kicad/library//linear.lib)))
  (nets
    (net (code 1) (name /~RAMRD)
      (node (ref U2) (pin 96))
      (node (ref U7) (pin 37)))
    (net (code 2) (name /~C_NMI)
      (node (ref P3) (pin 36))
      (node (ref U7) (pin 14)))
    (net (code 3) (name /~NMI)
      (node (ref U7) (pin 35))
      (node (ref U2) (pin 98)))
    (net (code 4) (name /RAMDIS)
      (node (ref U7) (pin 30))
      (node (ref U2) (pin 1)))
    (net (code 5) (name /SQW1)
      (node (ref R3) (pin 1))
      (node (ref U2) (pin 11)))
    (net (code 6) (name "Net-(R15-Pad1)")
      (node (ref R5) (pin 2))
      (node (ref R15) (pin 1))
      (node (ref R4) (pin 1)))
    (net (code 7) (name /DAC0)
      (node (ref R15) (pin 2))
      (node (ref U2) (pin 23)))
    (net (code 8) (name /TDIR)
      (node (ref U5) (pin 1))
      (node (ref U2) (pin 79)))
    (net (code 9) (name /~TOE)
      (node (ref U5) (pin 48))
      (node (ref U2) (pin 78)))
    (net (code 10) (name "Net-(R16-Pad1)")
      (node (ref R6) (pin 2))
      (node (ref R5) (pin 1))
      (node (ref R16) (pin 1)))
    (net (code 11) (name /TMS)
      (node (ref P1) (pin 1))
      (node (ref U2) (pin 26)))
    (net (code 12) (name "Net-(R17-Pad1)")
      (node (ref R7) (pin 2))
      (node (ref R17) (pin 1))
      (node (ref R6) (pin 1)))
    (net (code 13) (name "Net-(R18-Pad1)")
      (node (ref R8) (pin 2))
      (node (ref R18) (pin 1))
      (node (ref R7) (pin 1)))
    (net (code 14) (name "Net-(R19-Pad1)")
      (node (ref R8) (pin 1))
      (node (ref R19) (pin 1))
      (node (ref R9) (pin 2)))
    (net (code 15) (name "Net-(R10-Pad2)")
      (node (ref R20) (pin 1))
      (node (ref R10) (pin 2))
      (node (ref R9) (pin 1)))
    (net (code 16) (name "Net-(R10-Pad1)")
      (node (ref R21) (pin 1))
      (node (ref R10) (pin 1))
      (node (ref R11) (pin 2)))
    (net (code 17) (name /TCK)
      (node (ref R33) (pin 1))
      (node (ref U2) (pin 28))
      (node (ref P1) (pin 2)))
    (net (code 18) (name /TDI)
      (node (ref P1) (pin 3))
      (node (ref U2) (pin 33)))
    (net (code 19) (name /TDO)
      (node (ref P1) (pin 4))
      (node (ref U2) (pin 31)))
    (net (code 20) (name /DAC1)
      (node (ref R16) (pin 2))
      (node (ref U2) (pin 22)))
    (net (code 21) (name /DAC2)
      (node (ref R17) (pin 2))
      (node (ref U2) (pin 21)))
    (net (code 22) (name /DAC3)
      (node (ref U2) (pin 20))
      (node (ref R18) (pin 2)))
    (net (code 23) (name /DAC4)
      (node (ref U2) (pin 19))
      (node (ref R19) (pin 2)))
    (net (code 24) (name /DAC5)
      (node (ref U2) (pin 18))
      (node (ref R20) (pin 2)))
    (net (code 25) (name /DAC6)
      (node (ref R21) (pin 2))
      (node (ref U2) (pin 17)))
    (net (code 26) (name /DAC7)
      (node (ref U2) (pin 16))
      (node (ref R22) (pin 2)))
    (net (code 27) (name "Net-(R27-Pad2)")
      (node (ref R27) (pin 2))
      (node (ref U4) (pin 12)))
    (net (code 28) (name /SQW3)
      (node (ref U2) (pin 13))
      (node (ref R14) (pin 1)))
    (net (code 29) (name /SQW4)
      (node (ref R23) (pin 1))
      (node (ref U2) (pin 9)))
    (net (code 30) (name /SQW2)
      (node (ref R13) (pin 1))
      (node (ref U2) (pin 8)))
    (net (code 31) (name /CLK4)
      (node (ref U7) (pin 47))
      (node (ref U2) (pin 86)))
    (net (code 32) (name /~RFSH)
      (node (ref U2) (pin 87))
      (node (ref U7) (pin 46)))
    (net (code 33) (name /~BUSAK)
      (node (ref U2) (pin 91))
      (node (ref U7) (pin 43)))
    (net (code 34) (name /~ROMEN)
      (node (ref U7) (pin 40))
      (node (ref U2) (pin 95)))
    (net (code 35) (name /B17)
      (node (ref U4) (pin 48))
      (node (ref U2) (pin 49)))
    (net (code 36) (name "Net-(U2-Pad7)")
      (node (ref U2) (pin 7)))
    (net (code 37) (name /B18)
      (node (ref U4) (pin 17))
      (node (ref U2) (pin 68)))
    (net (code 38) (name /B19)
      (node (ref U2) (pin 67))
      (node (ref U4) (pin 16)))
    (net (code 39) (name /~FWE)
      (node (ref U4) (pin 11))
      (node (ref U2) (pin 65)))
    (net (code 40) (name /B21)
      (node (ref U2) (pin 64))
      (node (ref U4) (pin 10)))
    (net (code 41) (name /B20)
      (node (ref U4) (pin 9))
      (node (ref U2) (pin 63)))
    (net (code 42) (name "Net-(U2-Pad6)")
      (node (ref U2) (pin 6)))
    (net (code 43) (name /B14)
      (node (ref U2) (pin 55))
      (node (ref U4) (pin 3)))
    (net (code 44) (name /B15)
      (node (ref U2) (pin 54))
      (node (ref U4) (pin 2)))
    (net (code 45) (name "Net-(U2-Pad15)")
      (node (ref U2) (pin 15)))
    (net (code 46) (name /C_CLK4)
      (node (ref U7) (pin 2))
      (node (ref P3) (pin 50)))
    (net (code 47) (name "Net-(U2-Pad29)")
      (node (ref U2) (pin 29)))
    (net (code 48) (name "Net-(U2-Pad27)")
      (node (ref U2) (pin 27)))
    (net (code 49) (name /~BUSRQ)
      (node (ref U7) (pin 33))
      (node (ref U2) (pin 99)))
    (net (code 50) (name "Net-(U2-Pad97)")
      (node (ref U2) (pin 97)))
    (net (code 51) (name /B16)
      (node (ref U2) (pin 53))
      (node (ref U4) (pin 1)))
    (net (code 52) (name /DMA_BM)
      (node (ref U5) (pin 24))
      (node (ref U3) (pin 1))
      (node (ref U2) (pin 85))
      (node (ref U3) (pin 24)))
    (net (code 53) (name /~WR)
      (node (ref U5) (pin 32))
      (node (ref U2) (pin 83)))
    (net (code 54) (name /~ROMDIS)
      (node (ref U2) (pin 100))
      (node (ref U7) (pin 32)))
    (net (code 55) (name "Net-(U2-Pad2)")
      (node (ref U2) (pin 2)))
    (net (code 56) (name +5V)
      (node (ref C4) (pin 1))
      (node (ref P2) (pin 14))
      (node (ref U6) (pin 3))
      (node (ref C1) (pin 2))
      (node (ref P3) (pin 27))
      (node (ref C5) (pin 1))
      (node (ref U1) (pin 5)))
    (net (code 57) (name GND)
      (node (ref U5) (pin 15))
      (node (ref U5) (pin 34))
      (node (ref U3) (pin 10))
      (node (ref U5) (pin 10))
      (node (ref U5) (pin 28))
      (node (ref U3) (pin 4))
      (node (ref U5) (pin 21))
      (node (ref U3) (pin 15))
      (node (ref U3) (pin 21))
      (node (ref U3) (pin 45))
      (node (ref U3) (pin 34))
      (node (ref R29) (pin 2))
      (node (ref U3) (pin 39))
      (node (ref U7) (pin 21))
      (node (ref U7) (pin 15))
      (node (ref U7) (pin 10))
      (node (ref U1) (pin 2))
      (node (ref C15) (pin 2))
      (node (ref C14) (pin 2))
      (node (ref C17) (pin 2))
      (node (ref C16) (pin 2))
      (node (ref U7) (pin 45))
      (node (ref U7) (pin 28))
      (node (ref U7) (pin 4))
      (node (ref U7) (pin 39))
      (node (ref U7) (pin 34))
      (node (ref U7) (pin 45))
      (node (ref U7) (pin 39))
      (node (ref U7) (pin 34))
      (node (ref U7) (pin 28))
      (node (ref U7) (pin 21))
      (node (ref U7) (pin 1))
      (node (ref U7) (pin 48))
      (node (ref U4) (pin 46))
      (node (ref U4) (pin 47))
      (node (ref U3) (pin 39))
      (node (ref U2) (pin 40))
      (node (ref U2) (pin 42))
      (node (ref U2) (pin 25))
      (node (ref U2) (pin 62))
      (node (ref U2) (pin 12))
      (node (ref C6) (pin 2))
      (node (ref C5) (pin 2))
      (node (ref C4) (pin 2))
      (node (ref U2) (pin 93))
      (node (ref U2) (pin 84))
      (node (ref U2) (pin 75))
      (node (ref U7) (pin 4))
      (node (ref U5) (pin 34))
      (node (ref U5) (pin 45))
      (node (ref U5) (pin 4))
      (node (ref U5) (pin 39))
      (node (ref U5) (pin 28))
      (node (ref U5) (pin 15))
      (node (ref U7) (pin 15))
      (node (ref U7) (pin 10))
      (node (ref U3) (pin 28))
      (node (ref U3) (pin 34))
      (node (ref U3) (pin 28))
      (node (ref R33) (pin 2))
      (node (ref U3) (pin 21))
      (node (ref U3) (pin 4))
      (node (ref U3) (pin 15))
      (node (ref U4) (pin 27))
      (node (ref U3) (pin 10))
      (node (ref U6) (pin 1))
      (node (ref U3) (pin 45))
      (node (ref P3) (pin 2))
      (node (ref P3) (pin 49))
      (node (ref P3) (pin 48))
      (node (ref C1) (pin 1))
      (node (ref R24) (pin 1))
      (node (ref R1) (pin 2))
      (node (ref U7) (pin 25))
      (node (ref U7) (pin 26))
      (node (ref U7) (pin 27))
      (node (ref U7) (pin 29))
      (node (ref C13) (pin 2))
      (node (ref C8) (pin 2))
      (node (ref C9) (pin 2))
      (node (ref C10) (pin 2))
      (node (ref C11) (pin 2))
      (node (ref C12) (pin 2))
      (node (ref U5) (pin 21))
      (node (ref C7) (pin 2))
      (node (ref R4) (pin 2))
      (node (ref R28) (pin 2))
      (node (ref P1) (pin 5))
      (node (ref C3) (pin 2))
      (node (ref P2) (pin 25))
      (node (ref U5) (pin 10))
      (node (ref U5) (pin 39))
      (node (ref U5) (pin 4))
      (node (ref U5) (pin 45))
      (node (ref U7) (pin 36)))
    (net (code 58) (name /~MREQ)
      (node (ref U5) (pin 36))
      (node (ref U2) (pin 80)))
    (net (code 59) (name /~RD)
      (node (ref U5) (pin 35))
      (node (ref U2) (pin 81)))
    (net (code 60) (name /~IORQ)
      (node (ref U2) (pin 82))
      (node (ref U5) (pin 33)))
    (net (code 61) (name /LEDB)
      (node (ref U2) (pin 5))
      (node (ref R32) (pin 1)))
    (net (code 62) (name /LEDG)
      (node (ref R31) (pin 1))
      (node (ref U2) (pin 4)))
    (net (code 63) (name /~C_RSET)
      (node (ref U7) (pin 11))
      (node (ref P3) (pin 41))
      (node (ref P2) (pin 21)))
    (net (code 64) (name /~FOE)
      (node (ref U2) (pin 34))
      (node (ref U4) (pin 28)))
    (net (code 65) (name /~FCE)
      (node (ref U4) (pin 26))
      (node (ref U2) (pin 32)))
    (net (code 66) (name /LEDR)
      (node (ref U2) (pin 3))
      (node (ref R30) (pin 1)))
    (net (code 67) (name /~C_MREQ)
      (node (ref U5) (pin 13))
      (node (ref P3) (pin 28)))
    (net (code 68) (name /~C_RD)
      (node (ref U5) (pin 14))
      (node (ref P3) (pin 32)))
    (net (code 69) (name /~BUS_BR)
      (node (ref U3) (pin 25))
      (node (ref U5) (pin 25))
      (node (ref U2) (pin 50))
      (node (ref U3) (pin 48)))
    (net (code 70) (name "Net-(R29-Pad1)")
      (node (ref U5) (pin 29))
      (node (ref R29) (pin 1))
      (node (ref U5) (pin 30))
      (node (ref U5) (pin 27))
      (node (ref U5) (pin 26)))
    (net (code 71) (name "Net-(C2-Pad1)")
      (node (ref U1) (pin 4))
      (node (ref C2) (pin 1))
      (node (ref R24) (pin 2))
      (node (ref R25) (pin 1)))
    (net (code 72) (name "Net-(C2-Pad2)")
      (node (ref C3) (pin 1))
      (node (ref R25) (pin 2))
      (node (ref C2) (pin 2))
      (node (ref R12) (pin 1))
      (node (ref R26) (pin 1))
      (node (ref U1) (pin 1)))
    (net (code 73) (name "Net-(R1-Pad1)")
      (node (ref R12) (pin 2))
      (node (ref R23) (pin 2))
      (node (ref R1) (pin 1))
      (node (ref R2) (pin 2))
      (node (ref R14) (pin 2))
      (node (ref R13) (pin 2))
      (node (ref R3) (pin 2))
      (node (ref U1) (pin 3)))
    (net (code 74) (name /~M1)
      (node (ref U2) (pin 89))
      (node (ref U7) (pin 44)))
    (net (code 75) (name "Net-(R28-Pad1)")
      (node (ref R28) (pin 1))
      (node (ref U5) (pin 23))
      (node (ref U5) (pin 22))
      (node (ref U5) (pin 20))
      (node (ref U5) (pin 19)))
    (net (code 76) (name "Net-(P2-Pad24)")
      (node (ref P2) (pin 24)))
    (net (code 77) (name /C_SOUND)
      (node (ref P2) (pin 1))
      (node (ref R26) (pin 2))
      (node (ref P3) (pin 1)))
    (net (code 78) (name /C_A15)
      (node (ref P2) (pin 2))
      (node (ref U3) (pin 2))
      (node (ref P3) (pin 3)))
    (net (code 79) (name /C_A13)
      (node (ref P2) (pin 3))
      (node (ref U3) (pin 5))
      (node (ref P3) (pin 5)))
    (net (code 80) (name /C_A11)
      (node (ref P2) (pin 4))
      (node (ref P3) (pin 7))
      (node (ref U3) (pin 8)))
    (net (code 81) (name /C_A9)
      (node (ref P3) (pin 9))
      (node (ref U3) (pin 11))
      (node (ref P2) (pin 5)))
    (net (code 82) (name /C_A7)
      (node (ref P2) (pin 6))
      (node (ref U3) (pin 13))
      (node (ref P3) (pin 11)))
    (net (code 83) (name /C_A5)
      (node (ref P3) (pin 13))
      (node (ref P2) (pin 7))
      (node (ref U3) (pin 16)))
    (net (code 84) (name /C_A3)
      (node (ref U3) (pin 19))
      (node (ref P3) (pin 15))
      (node (ref P2) (pin 8)))
    (net (code 85) (name /C_D1)
      (node (ref U5) (pin 11))
      (node (ref P2) (pin 13))
      (node (ref P3) (pin 25)))
    (net (code 86) (name /C_D3)
      (node (ref U5) (pin 8))
      (node (ref P2) (pin 12))
      (node (ref P3) (pin 23)))
    (net (code 87) (name /C_D5)
      (node (ref P3) (pin 21))
      (node (ref U5) (pin 5))
      (node (ref P2) (pin 11)))
    (net (code 88) (name /C_D7)
      (node (ref P3) (pin 19))
      (node (ref U5) (pin 2))
      (node (ref P2) (pin 10)))
    (net (code 89) (name /C_A1)
      (node (ref U3) (pin 22))
      (node (ref P2) (pin 9))
      (node (ref P3) (pin 17)))
    (net (code 90) (name /~C_IORQ)
      (node (ref P2) (pin 16))
      (node (ref P3) (pin 31))
      (node (ref U5) (pin 16)))
    (net (code 91) (name /ADAC)
      (node (ref R2) (pin 1))
      (node (ref R22) (pin 1))
      (node (ref R11) (pin 1)))
    (net (code 92) (name /~C_WR)
      (node (ref U5) (pin 17))
      (node (ref P2) (pin 17))
      (node (ref P3) (pin 33)))
    (net (code 93) (name /~C_BUSRQ)
      (node (ref P3) (pin 37))
      (node (ref U7) (pin 16))
      (node (ref P2) (pin 19)))
    (net (code 94) (name /C_ROMDIS)
      (node (ref P3) (pin 43))
      (node (ref P2) (pin 22))
      (node (ref U7) (pin 17)))
    (net (code 95) (name /~C_M1)
      (node (ref P2) (pin 15))
      (node (ref P3) (pin 29))
      (node (ref U7) (pin 5)))
    (net (code 96) (name /C_READY)
      (node (ref U7) (pin 8))
      (node (ref P2) (pin 20))
      (node (ref P3) (pin 39)))
    (net (code 97) (name /C_RAMDIS)
      (node (ref P3) (pin 45))
      (node (ref P2) (pin 23))
      (node (ref U7) (pin 19)))
    (net (code 98) (name "Net-(U7-Pad20)")
      (node (ref U7) (pin 20)))
    (net (code 99) (name "Net-(U7-Pad13)")
      (node (ref U7) (pin 13)))
    (net (code 100) (name "Net-(P2-Pad18)")
      (node (ref P2) (pin 18)))
    (net (code 104) (name "Net-(P3-Pad35)")
      (node (ref P3) (pin 35)))
    (net (code 105) (name /A3)
      (node (ref U3) (pin 30))
      (node (ref U2) (pin 76))
      (node (ref U4) (pin 23)))
    (net (code 106) (name /C_A4)
      (node (ref P3) (pin 14))
      (node (ref U3) (pin 17)))
    (net (code 107) (name /C_A2)
      (node (ref U3) (pin 20))
      (node (ref P3) (pin 16)))
    (net (code 108) (name /C_A0)
      (node (ref P3) (pin 18))
      (node (ref U3) (pin 23)))
    (net (code 109) (name /A7)
      (node (ref U3) (pin 36))
      (node (ref U2) (pin 70))
      (node (ref U4) (pin 19)))
    (net (code 110) (name /A6)
      (node (ref U2) (pin 71))
      (node (ref U4) (pin 20))
      (node (ref U3) (pin 35)))
    (net (code 111) (name /A5)
      (node (ref U2) (pin 72))
      (node (ref U4) (pin 21))
      (node (ref U3) (pin 33)))
    (net (code 112) (name /A4)
      (node (ref U4) (pin 22))
      (node (ref U3) (pin 32))
      (node (ref U2) (pin 73)))
    (net (code 113) (name /A2)
      (node (ref U4) (pin 24))
      (node (ref U3) (pin 29))
      (node (ref U2) (pin 77)))
    (net (code 114) (name /A1)
      (node (ref U4) (pin 25))
      (node (ref U3) (pin 27))
      (node (ref U2) (pin 30)))
    (net (code 115) (name /A0)
      (node (ref U3) (pin 26))
      (node (ref U4) (pin 45))
      (node (ref U2) (pin 47)))
    (net (code 116) (name /C_D6)
      (node (ref P3) (pin 20))
      (node (ref U5) (pin 3)))
    (net (code 117) (name /C_D4)
      (node (ref U5) (pin 6))
      (node (ref P3) (pin 22)))
    (net (code 118) (name /C_D2)
      (node (ref U5) (pin 9))
      (node (ref P3) (pin 24)))
    (net (code 119) (name /C_D0)
      (node (ref P3) (pin 26))
      (node (ref U5) (pin 12)))
    (net (code 120) (name /C_A14)
      (node (ref U3) (pin 3))
      (node (ref P3) (pin 4)))
    (net (code 121) (name /D7)
      (node (ref U4) (pin 44))
      (node (ref U2) (pin 46))
      (node (ref U5) (pin 47)))
    (net (code 122) (name /A15)
      (node (ref U2) (pin 51))
      (node (ref U3) (pin 47)))
    (net (code 123) (name /A14)
      (node (ref U2) (pin 52))
      (node (ref U3) (pin 46)))
    (net (code 124) (name /A13)
      (node (ref U2) (pin 56))
      (node (ref U3) (pin 44))
      (node (ref U4) (pin 4)))
    (net (code 125) (name /A12)
      (node (ref U4) (pin 5))
      (node (ref U2) (pin 57))
      (node (ref U3) (pin 43)))
    (net (code 126) (name /A11)
      (node (ref U2) (pin 58))
      (node (ref U3) (pin 41))
      (node (ref U4) (pin 6)))
    (net (code 127) (name /A10)
      (node (ref U2) (pin 59))
      (node (ref U3) (pin 40))
      (node (ref U4) (pin 7)))
    (net (code 128) (name /A9)
      (node (ref U4) (pin 8))
      (node (ref U3) (pin 38))
      (node (ref U2) (pin 61)))
    (net (code 129) (name /A8)
      (node (ref U4) (pin 18))
      (node (ref U3) (pin 37))
      (node (ref U2) (pin 69)))
    (net (code 130) (name /D6)
      (node (ref U2) (pin 45))
      (node (ref U5) (pin 46))
      (node (ref U4) (pin 42)))
    (net (code 131) (name /D5)
      (node (ref U2) (pin 44))
      (node (ref U5) (pin 44))
      (node (ref U4) (pin 40)))
    (net (code 132) (name /D4)
      (node (ref U4) (pin 38))
      (node (ref U5) (pin 43))
      (node (ref U2) (pin 43)))
    (net (code 133) (name /D3)
      (node (ref U4) (pin 35))
      (node (ref U2) (pin 39))
      (node (ref U5) (pin 41)))
    (net (code 134) (name /D2)
      (node (ref U4) (pin 33))
      (node (ref U2) (pin 38))
      (node (ref U5) (pin 40)))
    (net (code 135) (name /D1)
      (node (ref U2) (pin 37))
      (node (ref U4) (pin 31))
      (node (ref U5) (pin 38)))
    (net (code 136) (name /D0)
      (node (ref U5) (pin 37))
      (node (ref U4) (pin 29))
      (node (ref U2) (pin 36)))
    (net (code 137) (name /~C_RFSH)
      (node (ref P3) (pin 30))
      (node (ref U7) (pin 3)))
    (net (code 138) (name /~C_BUSAK)
      (node (ref U7) (pin 6))
      (node (ref P3) (pin 38)))
    (net (code 139) (name /~C_ROMEN)
      (node (ref U7) (pin 9))
      (node (ref P3) (pin 42)))
    (net (code 140) (name /~C_RAMRD)
      (node (ref P3) (pin 44))
      (node (ref U7) (pin 12)))
    (net (code 141) (name /READY)
      (node (ref U2) (pin 94))
      (node (ref U7) (pin 41)))
    (net (code 142) (name /~RSET)
      (node (ref U2) (pin 14))
      (node (ref U7) (pin 38)))
    (net (code 143) (name "Net-(U4-Pad39)")
      (node (ref U4) (pin 39)))
    (net (code 144) (name VCC)
      (node (ref C7) (pin 1))
      (node (ref C8) (pin 1))
      (node (ref C9) (pin 1))
      (node (ref C10) (pin 1))
      (node (ref C11) (pin 1))
      (node (ref C12) (pin 1))
      (node (ref C13) (pin 1))
      (node (ref U6) (pin 4))
      (node (ref U6) (pin 2))
      (node (ref U3) (pin 7))
      (node (ref U3) (pin 42))
      (node (ref U4) (pin 37))
      (node (ref U5) (pin 7))
      (node (ref U5) (pin 42))
      (node (ref U5) (pin 31))
      (node (ref U5) (pin 18))
      (node (ref U7) (pin 18))
      (node (ref U3) (pin 42))
      (node (ref U3) (pin 31))
      (node (ref U3) (pin 18))
      (node (ref U3) (pin 7))
      (node (ref U2) (pin 74))
      (node (ref U2) (pin 35))
      (node (ref U2) (pin 48))
      (node (ref U2) (pin 60))
      (node (ref U2) (pin 24))
      (node (ref U2) (pin 10))
      (node (ref R27) (pin 1))
      (node (ref C6) (pin 1))
      (node (ref U2) (pin 92))
      (node (ref U2) (pin 90))
      (node (ref U2) (pin 88))
      (node (ref U7) (pin 7))
      (node (ref U7) (pin 7))
      (node (ref U7) (pin 42))
      (node (ref U7) (pin 31))
      (node (ref U3) (pin 18))
      (node (ref U3) (pin 31))
      (node (ref D1) (pin 1))
      (node (ref C15) (pin 1))
      (node (ref C14) (pin 1))
      (node (ref U5) (pin 31))
      (node (ref U5) (pin 18))
      (node (ref P1) (pin 6))
      (node (ref U5) (pin 7))
      (node (ref U5) (pin 42))
      (node (ref U7) (pin 24))
      (node (ref U2) (pin 41))
      (node (ref U7) (pin 18))
      (node (ref U7) (pin 31))
      (node (ref U7) (pin 42))
      (node (ref C16) (pin 1))
      (node (ref C17) (pin 1)))
    (net (code 145) (name "Net-(U4-Pad36)")
      (node (ref U4) (pin 36)))
    (net (code 146) (name "Net-(U4-Pad34)")
      (node (ref U4) (pin 34)))
    (net (code 147) (name "Net-(U4-Pad32)")
      (node (ref U4) (pin 32)))
    (net (code 148) (name "Net-(U4-Pad30)")
      (node (ref U4) (pin 30)))
    (net (code 149) (name /B22)
      (node (ref U2) (pin 66))
      (node (ref U4) (pin 13)))
    (net (code 150) (name "Net-(U4-Pad43)")
      (node (ref U4) (pin 43)))
    (net (code 151) (name "Net-(U4-Pad41)")
      (node (ref U4) (pin 41)))
    (net (code 152) (name /C_A12)
      (node (ref P3) (pin 6))
      (node (ref U3) (pin 6)))
    (net (code 153) (name /C_A10)
      (node (ref P3) (pin 8))
      (node (ref U3) (pin 9)))
    (net (code 154) (name /C_A8)
      (node (ref U3) (pin 12))
      (node (ref P3) (pin 10)))
    (net (code 155) (name /C_A6)
      (node (ref U3) (pin 14))
      (node (ref P3) (pin 12)))
    (net (code 156) (name "Net-(U4-Pad15)")
      (node (ref U4) (pin 15)))
    (net (code 157) (name "Net-(U4-Pad14)")
      (node (ref U4) (pin 14)))
    (net (code 158) (name "Net-(P3-Pad34)")
      (node (ref P3) (pin 34)))
    (net (code 159) (name "Net-(P3-Pad46)")
      (node (ref P3) (pin 46)))
    (net (code 160) (name "Net-(P3-Pad40)")
      (node (ref P3) (pin 40)))
    (net (code 161) (name "Net-(P3-Pad47)")
      (node (ref P3) (pin 47)))
    (net (code 162) (name "Net-(U7-Pad23)")
      (node (ref U7) (pin 23)))
    (net (code 163) (name "Net-(U7-Pad22)")
      (node (ref U7) (pin 22)))
    (net (code 164) (name "Net-(D1-Pad4)")
      (node (ref R30) (pin 2))
      (node (ref D1) (pin 4)))
    (net (code 165) (name "Net-(D1-Pad3)")
      (node (ref R31) (pin 2))
      (node (ref D1) (pin 3)))
    (net (code 166) (name "Net-(D1-Pad2)")
      (node (ref D1) (pin 2))
      (node (ref R32) (pin 2)))))