EESchema Schematic File Version 4
EELAYER 30 0
EELAYER END
$Descr A3 16535 11693
encoding utf-8
Sheet 1 1
Title "ROMBA - ROM Board for Amstrad"
Date "2018-04-07"
Rev "A2"
Comp "doragasu"
Comment1 "License: CERN-OHL-S 2"
Comment2 ""
Comment3 ""
Comment4 ""
$EndDescr
$Comp
L doragasu:CPC-EXP-PORT P3
U 1 1 58771E2F
P 3000 3900
F 0 "P3" H 3600 4190 60  0000 C CNN
F 1 "CPC-EXP-PORT" H 3600 4084 60  0000 C CNN
F 2 "Socket_Strips:Socket_Strip_Straight_2x25" H 3000 3900 60  0001 C CNN
F 3 "" H 3000 3900 60  0001 C CNN
F 4 "5530843-5" H 3000 3900 60  0001 C CNN "manf#"
	1    3000 3900
	1    0    0    -1  
$EndComp
$Comp
L doragasu:AZ1117CH U6
U 1 1 587723F9
P 3650 6950
F 0 "U6" H 3650 7250 60  0000 C CNN
F 1 "AZ1117CH" H 3650 7150 60  0000 C CNN
F 2 "TO_SOT_Packages_SMD:SOT-223" H 3650 7168 40  0001 C CNN
F 3 "" H 3650 6950 60  0000 C CNN
F 4 "AZ1117CH-3.3TRG1" H 3650 6950 60  0001 C CNN "manf#"
	1    3650 6950
	1    0    0    -1  
$EndComp
Entry Wire Line
	4600 4100 4700 4200
Entry Wire Line
	4600 4200 4700 4300
Entry Wire Line
	4600 4300 4700 4400
Entry Wire Line
	4600 4400 4700 4500
Entry Wire Line
	4600 4500 4700 4600
Entry Wire Line
	4600 4600 4700 4700
Entry Wire Line
	4600 4700 4700 4800
Entry Wire Line
	4600 4800 4700 4900
Entry Wire Line
	4600 4900 4700 5000
Entry Wire Line
	4600 5000 4700 5100
Entry Wire Line
	4600 5100 4700 5200
Entry Wire Line
	4600 5200 4700 5300
Entry Wire Line
	4600 5700 4700 5800
Entry Wire Line
	4600 5900 4700 6000
Entry Wire Line
	4600 6300 4700 6400
Entry Wire Line
	2500 4000 2600 3900
Entry Wire Line
	2500 4100 2600 4000
Entry Wire Line
	2500 4200 2600 4100
Entry Wire Line
	2500 4300 2600 4200
Entry Wire Line
	2500 4400 2600 4300
Entry Wire Line
	2500 4500 2600 4400
Entry Wire Line
	2500 4600 2600 4500
Entry Wire Line
	2500 4700 2600 4600
Entry Wire Line
	2500 4800 2600 4700
Entry Wire Line
	2500 4900 2600 4800
Entry Wire Line
	2500 5000 2600 4900
Entry Wire Line
	2500 5100 2600 5000
Entry Wire Line
	2500 5200 2600 5100
Entry Wire Line
	2500 5300 2600 5200
Entry Wire Line
	2500 5500 2600 5400
Entry Wire Line
	2500 5600 2600 5500
Entry Wire Line
	2500 5800 2600 5700
Entry Wire Line
	2500 6100 2600 6000
$Comp
L doragasu:74LVC162245 U3
U 1 1 587728BC
P 5700 2400
F 0 "U3" H 5700 3150 60  0000 C CNN
F 1 "74LVC162245" H 5700 3050 60  0000 C CNN
F 2 "Housings_SSOP:TSSOP-48_6.1x12.5mm_Pitch0.5mm" H 5700 2400 60  0001 C CNN
F 3 "" H 5700 2400 60  0000 C CNN
F 4 "74LVC162245ADGG:11" H 5700 2400 60  0001 C CNN "manf#"
	1    5700 2400
	-1   0    0    -1  
$EndComp
$Comp
L doragasu:74LVC162245 U3
U 2 1 58772A0C
P 5700 3900
F 0 "U3" H 5700 4650 60  0000 C CNN
F 1 "74LVC162245" H 5700 4550 60  0000 C CNN
F 2 "Housings_SSOP:TSSOP-48_6.1x12.5mm_Pitch0.5mm" H 5700 3900 60  0001 C CNN
F 3 "" H 5700 3900 60  0000 C CNN
	2    5700 3900
	-1   0    0    -1  
$EndComp
$Comp
L doragasu:74LVC162245 U5
U 1 1 58772AA0
P 5700 5400
F 0 "U5" H 5700 6150 60  0000 C CNN
F 1 "74LVC162245" H 5700 6050 60  0000 C CNN
F 2 "Housings_SSOP:TSSOP-48_6.1x12.5mm_Pitch0.5mm" H 5700 5400 60  0001 C CNN
F 3 "" H 5700 5400 60  0000 C CNN
	1    5700 5400
	-1   0    0    -1  
$EndComp
$Comp
L doragasu:74LVC162245 U7
U 1 1 58772BD0
P 5700 8400
F 0 "U7" H 5700 9150 60  0000 C CNN
F 1 "74LVC162245" H 5700 9050 60  0000 C CNN
F 2 "Housings_SSOP:TSSOP-48_6.1x12.5mm_Pitch0.5mm" H 5700 8400 60  0001 C CNN
F 3 "" H 5700 8400 60  0000 C CNN
	1    5700 8400
	-1   0    0    -1  
$EndComp
Entry Wire Line
	4700 2000 4800 1900
Entry Wire Line
	4700 2100 4800 2000
Entry Wire Line
	4700 2200 4800 2100
Entry Wire Line
	4700 2300 4800 2200
Entry Wire Line
	4700 2400 4800 2300
Entry Wire Line
	4700 2500 4800 2400
Entry Wire Line
	4700 2600 4800 2500
Entry Wire Line
	4700 2700 4800 2600
Entry Wire Line
	4700 3500 4800 3400
Entry Wire Line
	4700 3600 4800 3500
Entry Wire Line
	4700 3700 4800 3600
Entry Wire Line
	4700 3800 4800 3700
Entry Wire Line
	4700 3900 4800 3800
Entry Wire Line
	4700 4000 4800 3900
Entry Wire Line
	4700 4100 4800 4000
Entry Wire Line
	4700 4200 4800 4100
Entry Wire Line
	4700 5000 4800 4900
Entry Wire Line
	4700 5100 4800 5000
Entry Wire Line
	4700 5200 4800 5100
Entry Wire Line
	4700 5300 4800 5200
Entry Wire Line
	4700 5400 4800 5300
Entry Wire Line
	4700 5500 4800 5400
Entry Wire Line
	4700 5600 4800 5500
Entry Wire Line
	4700 5700 4800 5600
Entry Wire Line
	4700 8100 4800 8000
Entry Wire Line
	4700 8300 4800 8200
Entry Wire Line
	4700 8400 4800 8300
Entry Wire Line
	4700 8500 4800 8400
Entry Wire Line
	4700 8600 4800 8500
Entry Wire Line
	6600 1900 6700 2000
Entry Wire Line
	6600 2000 6700 2100
Entry Wire Line
	6600 2100 6700 2200
Entry Wire Line
	6600 2200 6700 2300
Entry Wire Line
	6600 2300 6700 2400
Entry Wire Line
	6600 2400 6700 2500
Entry Wire Line
	6600 2500 6700 2600
Entry Wire Line
	6600 2600 6700 2700
Entry Wire Line
	6600 3400 6700 3500
Entry Wire Line
	6600 3500 6700 3600
Entry Wire Line
	6600 3600 6700 3700
Entry Wire Line
	6600 3700 6700 3800
Entry Wire Line
	6600 3800 6700 3900
Entry Wire Line
	6600 3900 6700 4000
Entry Wire Line
	6600 4000 6700 4100
Entry Wire Line
	6600 4100 6700 4200
Entry Wire Line
	6600 4900 6700 5000
Entry Wire Line
	6600 5000 6700 5100
Entry Wire Line
	6600 5100 6700 5200
Entry Wire Line
	6600 5200 6700 5300
Entry Wire Line
	6600 5300 6700 5400
Entry Wire Line
	6600 5400 6700 5500
Entry Wire Line
	6600 5500 6700 5600
Entry Wire Line
	6600 5600 6700 5700
Entry Wire Line
	6600 8000 6700 8100
Entry Wire Line
	6600 8200 6700 8300
Entry Wire Line
	6600 8300 6700 8400
Entry Wire Line
	6600 8400 6700 8500
Entry Wire Line
	6600 8500 6700 8600
$Comp
L power:GND #PWR01
U 1 1 58773E24
P 2900 6350
F 0 "#PWR01" H 2900 6100 50  0001 C CNN
F 1 "GND" H 2905 6177 50  0001 C CNN
F 2 "" H 2900 6350 50  0000 C CNN
F 3 "" H 2900 6350 50  0000 C CNN
	1    2900 6350
	1    0    0    -1  
$EndComp
$Comp
L power:GND #PWR02
U 1 1 58773EFD
P 4300 3850
F 0 "#PWR02" H 4300 3600 50  0001 C CNN
F 1 "GND" H 4305 3677 50  0001 C CNN
F 2 "" H 4300 3850 50  0000 C CNN
F 3 "" H 4300 3850 50  0000 C CNN
	1    4300 3850
	1    0    0    -1  
$EndComp
$Comp
L power:+5V #PWR03
U 1 1 5877430D
P 3000 3750
F 0 "#PWR03" H 3000 3600 50  0001 C CNN
F 1 "+5V" H 3015 3923 50  0000 C CNN
F 2 "" H 3000 3750 50  0000 C CNN
F 3 "" H 3000 3750 50  0000 C CNN
	1    3000 3750
	1    0    0    -1  
$EndComp
Entry Wire Line
	2500 3900 2600 3800
Entry Wire Line
	6700 3700 6800 3600
Entry Wire Line
	6700 3800 6800 3700
Entry Wire Line
	6700 3900 6800 3800
Entry Wire Line
	6700 4000 6800 3900
Entry Wire Line
	6700 4100 6800 4000
Entry Wire Line
	6700 4200 6800 4100
Entry Wire Line
	6700 4300 6800 4200
Entry Wire Line
	6700 4400 6800 4300
Entry Wire Line
	6700 4500 6800 4400
Entry Wire Line
	6700 4600 6800 4500
Entry Wire Line
	6700 4700 6800 4600
Entry Wire Line
	6700 4900 6800 4800
Entry Wire Line
	6700 5000 6800 4900
Entry Wire Line
	6700 5100 6800 5000
Entry Wire Line
	6700 5200 6800 5100
Entry Wire Line
	6700 5300 6800 5200
Entry Wire Line
	6700 5400 6800 5300
Entry Wire Line
	6700 5500 6800 5400
Entry Wire Line
	10800 4100 10900 4000
Entry Wire Line
	10800 4200 10900 4100
Entry Wire Line
	10800 4300 10900 4200
Entry Wire Line
	10800 4400 10900 4300
Entry Wire Line
	10800 4500 10900 4400
Entry Wire Line
	10800 4600 10900 4500
Entry Wire Line
	10800 4700 10900 4600
Entry Wire Line
	10800 4800 10900 4700
Entry Wire Line
	10800 4900 10900 4800
Entry Wire Line
	10800 5000 10900 4900
Entry Wire Line
	10800 5100 10900 5000
Entry Wire Line
	10800 5200 10900 5100
Entry Wire Line
	10800 5300 10900 5200
Entry Wire Line
	10800 5400 10900 5300
Entry Wire Line
	10800 5500 10900 5400
Entry Wire Line
	10800 5600 10900 5500
Entry Wire Line
	10800 5700 10900 5600
Entry Wire Line
	10800 5800 10900 5700
Entry Wire Line
	10800 5900 10900 5800
Entry Wire Line
	10800 6000 10900 5900
Entry Wire Line
	10800 6100 10900 6000
Entry Wire Line
	10700 3500 10800 3600
Entry Wire Line
	10700 3600 10800 3700
Entry Wire Line
	10700 3700 10800 3800
Entry Wire Line
	10700 3800 10800 3900
Entry Wire Line
	10700 3900 10800 4000
Entry Wire Line
	10700 4000 10800 4100
Entry Wire Line
	10700 4100 10800 4200
Entry Wire Line
	10700 4200 10800 4300
Entry Wire Line
	10700 4500 10800 4600
Entry Wire Line
	10700 4600 10800 4700
Entry Wire Line
	10700 4700 10800 4800
Entry Wire Line
	10700 4800 10800 4900
Entry Wire Line
	10700 5500 10800 5600
NoConn ~ 12600 4000
NoConn ~ 12600 4100
NoConn ~ 12600 4200
NoConn ~ 12600 4300
NoConn ~ 12600 4400
NoConn ~ 12600 4500
NoConn ~ 12600 4600
NoConn ~ 12600 5600
NoConn ~ 12600 5800
$Comp
L power:GND #PWR04
U 1 1 5877CC34
P 12750 6250
F 0 "#PWR04" H 12750 6000 50  0001 C CNN
F 1 "GND" H 12755 6077 50  0001 C CNN
F 2 "" H 12750 6250 50  0000 C CNN
F 3 "" H 12750 6250 50  0000 C CNN
	1    12750 6250
	1    0    0    -1  
$EndComp
$Comp
L Device:R R27
U 1 1 5877CEDB
P 12750 5800
F 0 "R27" H 12820 5846 50  0000 L CNN
F 1 "10k" V 12750 5800 50  0000 C CNN
F 2 "Resistors_SMD:R_0603" V 12680 5800 50  0001 C CNN
F 3 "" H 12750 5800 50  0000 C CNN
	1    12750 5800
	1    0    0    -1  
$EndComp
$Comp
L doragasu:LCMXO256C U2
U 2 1 5877D372
P 10800 2300
F 0 "U2" H 12500 3000 60  0000 L CNN
F 1 "LCMXO256C" H 12500 2900 60  0000 L CNN
F 2 "Housings_QFP:LQFP-100_14x14mm_Pitch0.5mm" H 10800 2300 60  0001 C CNN
F 3 "" H 10800 2300 60  0000 C CNN
F 4 "LAMXO256C-3TN100E" H 10800 2300 60  0001 C CNN "manf#"
	2    10800 2300
	1    0    0    -1  
$EndComp
Entry Wire Line
	12900 3900 13000 4000
Entry Wire Line
	12900 4700 13000 4800
Entry Wire Line
	12900 4800 13000 4900
Entry Wire Line
	12900 4900 13000 5000
Entry Wire Line
	12900 5000 13000 5100
Entry Wire Line
	12900 5100 13000 5200
Entry Wire Line
	12900 5200 13000 5300
Entry Wire Line
	12900 5300 13000 5400
Entry Wire Line
	12900 5400 13000 5500
$Comp
L power:GND #PWR05
U 1 1 5877DEE0
P 11900 3350
F 0 "#PWR05" H 11900 3100 50  0001 C CNN
F 1 "GND" H 11905 3177 50  0001 C CNN
F 2 "" H 11900 3350 50  0000 C CNN
F 3 "" H 11900 3350 50  0000 C CNN
	1    11900 3350
	1    0    0    -1  
$EndComp
$Comp
L power:VCC #PWR06
U 1 1 5877E2A5
P 11800 1550
F 0 "#PWR06" H 11800 1400 50  0001 C CNN
F 1 "VCC" H 11817 1723 50  0000 C CNN
F 2 "" H 11800 1550 50  0000 C CNN
F 3 "" H 11800 1550 50  0000 C CNN
	1    11800 1550
	1    0    0    -1  
$EndComp
$Comp
L power:VCC #PWR07
U 1 1 5877E72D
P 4100 6850
F 0 "#PWR07" H 4100 6700 50  0001 C CNN
F 1 "VCC" H 4100 7000 50  0000 C CNN
F 2 "" H 4100 6850 50  0000 C CNN
F 3 "" H 4100 6850 50  0000 C CNN
	1    4100 6850
	1    0    0    -1  
$EndComp
$Comp
L power:GND #PWR08
U 1 1 5877EA05
P 3650 7350
F 0 "#PWR08" H 3650 7100 50  0001 C CNN
F 1 "GND" H 3655 7177 50  0001 C CNN
F 2 "" H 3650 7350 50  0000 C CNN
F 3 "" H 3650 7350 50  0000 C CNN
	1    3650 7350
	1    0    0    -1  
$EndComp
$Comp
L Device:CP C4
U 1 1 5877ECBC
P 2900 7150
F 0 "C4" H 2800 7200 50  0000 R CNN
F 1 "22u" H 2800 7100 50  0000 R CNN
F 2 "Capacitors_SMD:C_1206" H 2938 7000 50  0001 C CNN
F 3 "" H 2900 7150 50  0000 C CNN
F 4 "CL31X226KQHNNNE" H 2900 7150 60  0001 C CNN "manf#"
	1    2900 7150
	1    0    0    -1  
$EndComp
$Comp
L Device:C C5
U 1 1 5877ED06
P 3250 7150
F 0 "C5" H 3150 7200 50  0000 R CNN
F 1 "1u" H 3050 7100 50  0000 L CNN
F 2 "Capacitors_SMD:C_0603" H 3288 7000 50  0001 C CNN
F 3 "" H 3250 7150 50  0000 C CNN
F 4 "GRM188R71C105KE15D" H 3250 7150 60  0001 C CNN "manf#"
	1    3250 7150
	1    0    0    -1  
$EndComp
$Comp
L Device:C C6
U 1 1 5877ED50
P 4100 7150
F 0 "C6" H 4215 7196 50  0000 L CNN
F 1 "1u" H 4215 7105 50  0000 L CNN
F 2 "Capacitors_SMD:C_0603" H 4138 7000 50  0001 C CNN
F 3 "" H 4100 7150 50  0000 C CNN
	1    4100 7150
	1    0    0    -1  
$EndComp
Entry Wire Line
	2500 7000 2600 6900
Text Label 2600 5200 0    60   ~ 0
+5V
Text Label 2600 6900 0    60   ~ 0
+5V
Entry Wire Line
	8000 6800 8100 6900
Entry Wire Line
	8100 6800 8200 6900
Entry Wire Line
	8500 6800 8600 6900
Entry Wire Line
	8600 6800 8700 6900
Entry Wire Line
	8700 6800 8800 6900
Entry Wire Line
	8800 6800 8900 6900
Entry Wire Line
	8900 6800 9000 6900
Entry Wire Line
	9000 6800 9100 6900
Entry Wire Line
	9100 6800 9200 6900
Entry Wire Line
	9300 6800 9400 6900
Entry Wire Line
	8200 2100 8300 2000
Entry Wire Line
	8300 2100 8400 2000
Entry Wire Line
	8400 2100 8500 2000
Entry Wire Line
	8500 2100 8600 2000
Entry Wire Line
	8600 2100 8700 2000
Entry Wire Line
	8700 2100 8800 2000
Entry Wire Line
	8800 2100 8900 2000
Entry Wire Line
	8900 2100 9000 2000
Entry Wire Line
	9000 2100 9100 2000
Entry Wire Line
	9100 2100 9200 2000
Text Label 2600 4000 0    60   ~ 0
C_A15
Text Label 2600 4100 0    60   ~ 0
C_A13
Text Label 2600 4200 0    60   ~ 0
C_A11
Text Label 2600 4300 0    60   ~ 0
C_A9
Text Label 2600 4400 0    60   ~ 0
C_A7
Text Label 2600 4500 0    60   ~ 0
C_A5
Text Label 2600 4600 0    60   ~ 0
C_A3
Text Label 2600 4700 0    60   ~ 0
C_A1
Text Label 4600 4100 2    60   ~ 0
C_A12
Text Label 4600 4200 2    60   ~ 0
C_A10
Text Label 4600 4300 2    60   ~ 0
C_A8
Text Label 4600 4400 2    60   ~ 0
C_A6
Text Label 4600 4500 2    60   ~ 0
C_A4
Text Label 4600 4600 2    60   ~ 0
C_A2
Text Label 4600 4700 2    60   ~ 0
C_A0
Text Label 4600 4800 2    60   ~ 0
C_D6
Text Label 4600 4900 2    60   ~ 0
C_D4
Text Label 4600 5000 2    60   ~ 0
C_D2
Text Label 4600 5100 2    60   ~ 0
C_D0
Text Label 2600 4800 0    60   ~ 0
C_D7
Text Label 2600 4900 0    60   ~ 0
C_D5
Text Label 2600 5000 0    60   ~ 0
C_D3
Text Label 2600 5100 0    60   ~ 0
C_D1
Text Label 4600 5200 2    60   ~ 0
~C_MREQ
Text Label 2600 5400 0    60   ~ 0
~C_IORQ
Text Label 2600 5500 0    60   ~ 0
~C_WR
Text Label 2600 5700 0    60   ~ 0
~C_BUSRQ
Text Label 4600 5700 2    60   ~ 0
~C_BUSAK
Text Label 4600 5900 2    60   ~ 0
~C_ROMEN
Text Label 2600 6000 0    60   ~ 0
C_ROMDIS
Text Label 4600 6300 2    60   ~ 0
C_CLK4
NoConn ~ 3000 6200
NoConn ~ 4200 5800
NoConn ~ 4200 5500
NoConn ~ 4200 6100
Entry Wire Line
	4600 5400 4700 5500
Text Label 4600 5400 2    60   ~ 0
~C_RD
Text Label 4800 1900 0    60   ~ 0
C_A15
Text Label 4800 2100 0    60   ~ 0
C_A13
Text Label 4800 2200 0    60   ~ 0
C_A12
Text Label 4800 2300 0    60   ~ 0
C_A11
Text Label 4800 2400 0    60   ~ 0
C_A10
Text Label 4800 2500 0    60   ~ 0
C_A9
Text Label 4800 2600 0    60   ~ 0
C_A8
Text Label 4800 3400 0    60   ~ 0
C_A7
Text Label 4800 3500 0    60   ~ 0
C_A6
Text Label 4800 3600 0    60   ~ 0
C_A5
Text Label 4800 3700 0    60   ~ 0
C_A4
Text Label 4800 3800 0    60   ~ 0
C_A3
Text Label 4800 3900 0    60   ~ 0
C_A2
Text Label 4800 4000 0    60   ~ 0
C_A1
Text Label 4800 4100 0    60   ~ 0
C_A0
Text Label 4800 6400 0    60   ~ 0
~C_MREQ
Text Label 4800 4900 0    60   ~ 0
C_D7
Text Label 4800 5000 0    60   ~ 0
C_D6
Text Label 4800 5100 0    60   ~ 0
C_D5
Text Label 4800 5200 0    60   ~ 0
C_D4
Text Label 4800 5300 0    60   ~ 0
C_D3
Text Label 4800 5400 0    60   ~ 0
C_D2
Text Label 4800 5500 0    60   ~ 0
C_D1
Text Label 4800 5600 0    60   ~ 0
C_D0
Text Label 4800 6600 0    60   ~ 0
~C_IORQ
Text Label 4800 6500 0    60   ~ 0
~C_RD
Text Label 4800 6700 0    60   ~ 0
~C_WR
Text Label 4800 8200 0    60   ~ 0
~C_BUSAK
Text Label 4800 9600 0    60   ~ 0
~C_BUSRQ
Text Label 4800 8400 0    60   ~ 0
~C_ROMEN
Text Label 4800 9700 0    60   ~ 0
C_ROMDIS
Text Label 6600 1900 2    60   ~ 0
A15
Text Label 6600 2100 2    60   ~ 0
A13
Text Label 6600 2200 2    60   ~ 0
A12
Text Label 6600 2300 2    60   ~ 0
A11
Text Label 6600 2400 2    60   ~ 0
A10
Text Label 6600 2500 2    60   ~ 0
A9
Text Label 6600 2600 2    60   ~ 0
A8
Text Label 6600 3400 2    60   ~ 0
A7
Text Label 6600 3500 2    60   ~ 0
A6
Text Label 6600 3600 2    60   ~ 0
A5
Text Label 6600 3700 2    60   ~ 0
A4
Text Label 6600 3800 2    60   ~ 0
A3
Text Label 6600 3900 2    60   ~ 0
A2
Text Label 6600 4000 2    60   ~ 0
A1
Text Label 6600 4100 2    60   ~ 0
A0
Text Label 6600 6400 2    60   ~ 0
~MREQ
Text Label 6600 4900 2    60   ~ 0
D7
Text Label 6600 5000 2    60   ~ 0
D6
Text Label 6600 5100 2    60   ~ 0
D5
Text Label 6600 5200 2    60   ~ 0
D4
Text Label 6600 5300 2    60   ~ 0
D3
Text Label 6600 5400 2    60   ~ 0
D2
Text Label 6600 5500 2    60   ~ 0
D1
Text Label 6600 5600 2    60   ~ 0
D0
Text Label 6600 6600 2    60   ~ 0
~IORQ
Text Label 6600 6500 2    60   ~ 0
~RD
Text Label 6600 6700 2    60   ~ 0
~WR
Text Label 6600 8200 2    60   ~ 0
~BUSAK
Text Label 6600 8400 2    60   ~ 0
~ROMEN
Text Label 6600 7900 2    60   ~ 0
CLK4
Text Label 6600 9700 2    60   ~ 0
~ROMDIS
$Comp
L power:GND #PWR09
U 1 1 587A5A42
P 6250 8950
F 0 "#PWR09" H 6250 8700 50  0001 C CNN
F 1 "GND" H 6255 8777 50  0001 C CNN
F 2 "" H 6250 8950 50  0000 C CNN
F 3 "" H 6250 8950 50  0000 C CNN
	1    6250 8950
	1    0    0    -1  
$EndComp
$Comp
L power:VCC #PWR010
U 1 1 587A636E
P 12750 5650
F 0 "#PWR010" H 12750 5500 50  0001 C CNN
F 1 "VCC" H 12750 5800 50  0000 C CNN
F 2 "" H 12750 5650 50  0000 C CNN
F 3 "" H 12750 5650 50  0000 C CNN
	1    12750 5650
	1    0    0    -1  
$EndComp
$Comp
L Device:C C7
U 1 1 587A9C85
P 7700 9150
F 0 "C7" H 7800 9200 50  0000 L CNN
F 1 "100n" H 7800 9100 50  0000 L CNN
F 2 "Capacitors_SMD:C_0603" H 7738 9000 50  0001 C CNN
F 3 "" H 7700 9150 50  0000 C CNN
F 4 "CL10B104KO8NNNC" H 7700 9150 60  0001 C CNN "manf#"
	1    7700 9150
	1    0    0    -1  
$EndComp
$Comp
L Device:C C8
U 1 1 587A9C8B
P 8100 9150
F 0 "C8" H 8200 9200 50  0000 L CNN
F 1 "100n" H 8200 9100 50  0000 L CNN
F 2 "Capacitors_SMD:C_0603" H 8138 9000 50  0001 C CNN
F 3 "" H 8100 9150 50  0000 C CNN
	1    8100 9150
	1    0    0    -1  
$EndComp
$Comp
L Device:C C9
U 1 1 587A9FF8
P 8500 9150
F 0 "C9" H 8600 9200 50  0000 L CNN
F 1 "100n" H 8600 9100 50  0000 L CNN
F 2 "Capacitors_SMD:C_0603" H 8538 9000 50  0001 C CNN
F 3 "" H 8500 9150 50  0000 C CNN
	1    8500 9150
	1    0    0    -1  
$EndComp
$Comp
L Device:C C10
U 1 1 587A9FFE
P 8900 9150
F 0 "C10" H 9000 9200 50  0000 L CNN
F 1 "100n" H 9000 9100 50  0000 L CNN
F 2 "Capacitors_SMD:C_0603" H 8938 9000 50  0001 C CNN
F 3 "" H 8900 9150 50  0000 C CNN
	1    8900 9150
	1    0    0    -1  
$EndComp
$Comp
L Device:C C11
U 1 1 587AA004
P 9300 9150
F 0 "C11" H 9400 9200 50  0000 L CNN
F 1 "100n" H 9400 9100 50  0000 L CNN
F 2 "Capacitors_SMD:C_0603" H 9338 9000 50  0001 C CNN
F 3 "" H 9300 9150 50  0000 C CNN
	1    9300 9150
	1    0    0    -1  
$EndComp
$Comp
L Device:C C12
U 1 1 587AA00A
P 9700 9150
F 0 "C12" H 9800 9200 50  0000 L CNN
F 1 "100n" H 9800 9100 50  0000 L CNN
F 2 "Capacitors_SMD:C_0603" H 9738 9000 50  0001 C CNN
F 3 "" H 9700 9150 50  0000 C CNN
	1    9700 9150
	1    0    0    -1  
$EndComp
$Comp
L Device:C C13
U 1 1 587AA010
P 10100 9150
F 0 "C13" H 10200 9200 50  0000 L CNN
F 1 "100n" H 10200 9100 50  0000 L CNN
F 2 "Capacitors_SMD:C_0603" H 10138 9000 50  0001 C CNN
F 3 "" H 10100 9150 50  0000 C CNN
	1    10100 9150
	1    0    0    -1  
$EndComp
$Comp
L power:GND #PWR011
U 1 1 587AA96D
P 9700 9350
F 0 "#PWR011" H 9700 9100 50  0001 C CNN
F 1 "GND" H 9705 9177 50  0001 C CNN
F 2 "" H 9700 9350 50  0000 C CNN
F 3 "" H 9700 9350 50  0000 C CNN
	1    9700 9350
	1    0    0    -1  
$EndComp
$Comp
L power:VCC #PWR012
U 1 1 587AAACA
P 9700 8950
F 0 "#PWR012" H 9700 8800 50  0001 C CNN
F 1 "VCC" H 9700 9100 50  0000 C CNN
F 2 "" H 9700 8950 50  0000 C CNN
F 3 "" H 9700 8950 50  0000 C CNN
	1    9700 8950
	1    0    0    -1  
$EndComp
Text Label 8300 2100 3    60   ~ 0
A0
Text Label 9400 2100 3    60   ~ 0
A1
Text Label 7700 6800 1    60   ~ 0
A2
Text Label 6800 5500 0    60   ~ 0
A3
Text Label 6800 5400 0    60   ~ 0
A4
Text Label 6800 5300 0    60   ~ 0
A5
Text Label 6800 5200 0    60   ~ 0
A6
Text Label 6800 5100 0    60   ~ 0
A7
Text Label 6800 5000 0    60   ~ 0
A8
Text Label 6800 4300 0    60   ~ 0
A9
Text Label 6800 4200 0    60   ~ 0
A10
Text Label 6800 4100 0    60   ~ 0
A11
Text Label 6800 4000 0    60   ~ 0
A12
Text Label 6800 3900 0    60   ~ 0
A13
Text Label 6800 3400 0    60   ~ 0
A15
Text Label 9100 2100 3    60   ~ 0
D0
Text Label 9000 2100 3    60   ~ 0
D1
Text Label 8900 2100 3    60   ~ 0
D2
Text Label 8800 2100 3    60   ~ 0
D3
Text Label 8700 2100 3    60   ~ 0
D4
Text Label 8600 2100 3    60   ~ 0
D5
Text Label 8500 2100 3    60   ~ 0
D6
Text Label 8400 2100 3    60   ~ 0
D7
Text Label 8200 6800 1    60   ~ 0
~IORQ
Text Label 8100 6800 1    60   ~ 0
~RD
Text Label 8300 6800 1    60   ~ 0
~WR
Text Label 8500 6800 1    60   ~ 0
CLK4
Text Label 8800 6800 1    60   ~ 0
~BUSAK
Text Label 9000 6800 1    60   ~ 0
~ROMEN
Text Label 9400 6800 1    60   ~ 0
~BUSRQ
Text Label 9500 6800 1    60   ~ 0
~ROMDIS
Text Label 12900 3900 2    60   ~ 0
A0
Text Label 10900 6000 0    60   ~ 0
A1
Text Label 10900 5900 0    60   ~ 0
A2
Text Label 10900 5800 0    60   ~ 0
A3
Text Label 10900 5700 0    60   ~ 0
A4
Text Label 10900 5600 0    60   ~ 0
A5
Text Label 10900 5500 0    60   ~ 0
A6
Text Label 10900 5400 0    60   ~ 0
A7
Text Label 10900 5300 0    60   ~ 0
A8
Text Label 10900 5200 0    60   ~ 0
A9
Text Label 10900 5100 0    60   ~ 0
A10
Text Label 10900 5000 0    60   ~ 0
A11
Text Label 10900 4900 0    60   ~ 0
A12
Text Label 10900 4800 0    60   ~ 0
A13
Text Label 10900 4700 0    60   ~ 0
B14
Text Label 10900 4600 0    60   ~ 0
B15
Text Label 10900 4500 0    60   ~ 0
B16
Text Label 10900 4400 0    60   ~ 0
B17
Text Label 10900 4300 0    60   ~ 0
B18
Text Label 10900 4200 0    60   ~ 0
B19
Text Label 10900 4100 0    60   ~ 0
B20
Text Label 10900 4000 0    60   ~ 0
B21
Text Label 6800 3800 0    60   ~ 0
B14
Text Label 6800 3700 0    60   ~ 0
B15
Text Label 6800 3600 0    60   ~ 0
B16
Text Label 8200 2100 3    60   ~ 0
B17
Text Label 6800 4900 0    60   ~ 0
B18
Text Label 6800 4800 0    60   ~ 0
B19
Text Label 6800 4400 0    60   ~ 0
B20
Text Label 6800 4500 0    60   ~ 0
B21
Text Label 12900 5400 2    60   ~ 0
D0
Text Label 12900 5300 2    60   ~ 0
D1
Text Label 12900 5200 2    60   ~ 0
D2
Text Label 12900 5100 2    60   ~ 0
D3
Text Label 12900 5000 2    60   ~ 0
D4
Text Label 12900 4900 2    60   ~ 0
D5
Text Label 12900 4800 2    60   ~ 0
D6
Text Label 12900 4700 2    60   ~ 0
D7
Text Label 2600 3900 0    60   ~ 0
C_SOUND
Entry Wire Line
	4600 4000 4700 4100
Text Label 4600 4000 2    60   ~ 0
C_A14
Entry Wire Line
	2500 5400 2600 5300
Text Label 2600 5300 0    60   ~ 0
~C_M1
Text Label 4800 8100 0    60   ~ 0
~C_M1
Text Label 4800 2000 0    60   ~ 0
C_A14
Text Label 6600 2000 2    60   ~ 0
A14
Text Label 6600 8100 2    60   ~ 0
~M1
Entry Wire Line
	2500 6000 2600 5900
Text Label 2600 5900 0    60   ~ 0
~C_RSET
Entry Wire Line
	2500 5900 2600 5800
Text Label 2600 5800 0    60   ~ 0
C_READY
Text Label 4800 8300 0    60   ~ 0
C_READY
Entry Wire Line
	4700 9600 4800 9500
Entry Wire Line
	4700 9700 4800 9600
Entry Wire Line
	4700 9800 4800 9700
Entry Wire Line
	4700 9900 4800 9800
Entry Wire Line
	6600 9800 6700 9900
Entry Wire Line
	4600 6000 4700 6100
Entry Wire Line
	2500 6200 2600 6100
Text Label 2600 6100 0    60   ~ 0
C_RAMDIS
Text Label 4600 6000 2    60   ~ 0
~C_RAMRD
Text Label 4800 8600 0    60   ~ 0
~C_RAMRD
Text Label 4800 9800 0    60   ~ 0
C_RAMDIS
Entry Wire Line
	4600 5600 4700 5700
Text Label 4600 5600 2    60   ~ 0
~C_NMI
Text Label 4800 9500 0    60   ~ 0
~C_NMI
Entry Wire Line
	6600 9700 6700 9800
Entry Wire Line
	6600 9600 6700 9700
Entry Wire Line
	6600 9500 6700 9600
Text Label 6600 8300 2    60   ~ 0
READY
Text Label 6600 8600 2    60   ~ 0
~RAMRD
Text Label 6600 9500 2    60   ~ 0
~NMI
Text Label 6600 9800 2    60   ~ 0
RAMDIS
Text Label 6600 9600 2    60   ~ 0
~BUSRQ
Text Label 6800 3500 0    60   ~ 0
A14
Text Label 10700 4400 2    60   ~ 0
~RSET
Text Label 6600 8500 2    60   ~ 0
~RSET
Text Label 8000 6800 1    60   ~ 0
~MREQ
Text Label 8700 6800 1    60   ~ 0
~M1
Text Label 8900 6800 1    60   ~ 0
READY
Text Label 9100 6800 1    60   ~ 0
~RAMRD
Text Label 9300 6800 1    60   ~ 0
~NMI
Text Label 10700 5500 2    60   ~ 0
RAMDIS
$Comp
L Device:R R3
U 1 1 587C67FA
P 5450 1200
F 0 "R3" V 5400 1000 50  0000 C CNN
F 1 "NP" V 5450 1200 50  0000 C CNN
F 2 "Resistors_SMD:R_0603" V 5380 1200 50  0001 C CNN
F 3 "" H 5450 1200 50  0000 C CNN
	1    5450 1200
	0    1    1    0   
$EndComp
$Comp
L Device:R R13
U 1 1 587C7136
P 5450 1300
F 0 "R13" V 5400 1100 50  0000 C CNN
F 1 "NP" V 5450 1300 50  0000 C CNN
F 2 "Resistors_SMD:R_0603" V 5380 1300 50  0001 C CNN
F 3 "" H 5450 1300 50  0000 C CNN
	1    5450 1300
	0    1    1    0   
$EndComp
$Comp
L Device:R R14
U 1 1 587C722F
P 5450 1400
F 0 "R14" V 5400 1200 50  0000 C CNN
F 1 "NP" V 5450 1400 50  0000 C CNN
F 2 "Resistors_SMD:R_0603" V 5380 1400 50  0001 C CNN
F 3 "" H 5450 1400 50  0000 C CNN
	1    5450 1400
	0    1    1    0   
$EndComp
$Comp
L Device:C C3
U 1 1 587C85BE
P 3550 3050
F 0 "C3" H 3650 3100 50  0000 L CNN
F 1 "6.8n" H 3650 3000 50  0000 L CNN
F 2 "Capacitors_SMD:C_0603" H 3588 2900 50  0001 C CNN
F 3 "" H 3550 3050 50  0000 C CNN
F 4 "CL10C221JB8NNNC" H 3550 3050 60  0001 C CNN "manf#"
F 5 "NP0" H 3650 2900 50  0000 L CNN "Dielectric"
	1    3550 3050
	1    0    0    -1  
$EndComp
$Comp
L Device:R R23
U 1 1 587C85C4
P 5450 1500
F 0 "R23" V 5400 1300 50  0000 C CNN
F 1 "NP" V 5450 1500 50  0000 C CNN
F 2 "Resistors_SMD:R_0603" V 5380 1500 50  0001 C CNN
F 3 "" H 5450 1500 50  0000 C CNN
	1    5450 1500
	0    1    1    0   
$EndComp
$Comp
L power:GND #PWR013
U 1 1 587C85CD
P 3550 3200
F 0 "#PWR013" H 3550 2950 50  0001 C CNN
F 1 "GND" H 3555 3027 50  0001 C CNN
F 2 "" H 3550 3200 50  0000 C CNN
F 3 "" H 3550 3200 50  0000 C CNN
	1    3550 3200
	1    0    0    -1  
$EndComp
$Comp
L Device:R R26
U 1 1 587CB181
P 3300 2850
F 0 "R26" V 3200 2800 50  0000 L CNN
F 1 "10k" V 3300 2850 50  0000 C CNN
F 2 "Resistors_SMD:R_0603" V 3230 2850 50  0001 C CNN
F 3 "" H 3300 2850 50  0000 C CNN
	1    3300 2850
	0    1    1    0   
$EndComp
Entry Wire Line
	2500 2950 2600 2850
Text Label 2600 2850 0    60   ~ 0
C_SOUND
$Comp
L Device:R R15
U 1 1 587CCE95
P 7200 1450
F 0 "R15" H 7250 1450 50  0000 L CNN
F 1 "2k" V 7200 1450 50  0000 C CNN
F 2 "Resistors_SMD:R_0603" V 7130 1450 50  0001 C CNN
F 3 "" H 7200 1450 50  0000 C CNN
	1    7200 1450
	1    0    0    -1  
$EndComp
$Comp
L Device:R R4
U 1 1 587CD051
P 7000 1250
F 0 "R4" V 6900 1250 50  0000 C CNN
F 1 "2k" V 7000 1250 50  0000 C CNN
F 2 "Resistors_SMD:R_0603" V 6930 1250 50  0001 C CNN
F 3 "" H 7000 1250 50  0000 C CNN
F 4 "RC0603FR-072KL" V 7000 1250 60  0001 C CNN "manf#"
	1    7000 1250
	0    1    1    0   
$EndComp
Entry Wire Line
	7200 1900 7300 2000
$Comp
L Device:R R16
U 1 1 587CEAA3
P 7600 1450
F 0 "R16" H 7650 1450 50  0000 L CNN
F 1 "2k" V 7600 1450 50  0000 C CNN
F 2 "Resistors_SMD:R_0603" V 7530 1450 50  0001 C CNN
F 3 "" H 7600 1450 50  0000 C CNN
	1    7600 1450
	1    0    0    -1  
$EndComp
$Comp
L Device:R R5
U 1 1 587CEAA9
P 7400 1250
F 0 "R5" V 7300 1250 50  0000 C CNN
F 1 "1k" V 7400 1250 50  0000 C CNN
F 2 "Resistors_SMD:R_0603" V 7330 1250 50  0001 C CNN
F 3 "" H 7400 1250 50  0000 C CNN
F 4 "RC0603FR-071KL" V 7400 1250 60  0001 C CNN "manf#"
	1    7400 1250
	0    1    1    0   
$EndComp
Entry Wire Line
	7600 1900 7700 2000
$Comp
L Device:R R17
U 1 1 587CEC1B
P 8000 1450
F 0 "R17" H 8050 1450 50  0000 L CNN
F 1 "2k" V 8000 1450 50  0000 C CNN
F 2 "Resistors_SMD:R_0603" V 7930 1450 50  0001 C CNN
F 3 "" H 8000 1450 50  0000 C CNN
	1    8000 1450
	1    0    0    -1  
$EndComp
$Comp
L Device:R R6
U 1 1 587CEC21
P 7800 1250
F 0 "R6" V 7700 1250 50  0000 C CNN
F 1 "1k" V 7800 1250 50  0000 C CNN
F 2 "Resistors_SMD:R_0603" V 7730 1250 50  0001 C CNN
F 3 "" H 7800 1250 50  0000 C CNN
	1    7800 1250
	0    1    1    0   
$EndComp
Entry Wire Line
	8000 1900 8100 2000
$Comp
L Device:R R18
U 1 1 587CF057
P 8400 1450
F 0 "R18" H 8450 1450 50  0000 L CNN
F 1 "2k" V 8400 1450 50  0000 C CNN
F 2 "Resistors_SMD:R_0603" V 8330 1450 50  0001 C CNN
F 3 "" H 8400 1450 50  0000 C CNN
	1    8400 1450
	1    0    0    -1  
$EndComp
$Comp
L Device:R R7
U 1 1 587CF05D
P 8200 1250
F 0 "R7" V 8100 1250 50  0000 C CNN
F 1 "1k" V 8200 1250 50  0000 C CNN
F 2 "Resistors_SMD:R_0603" V 8130 1250 50  0001 C CNN
F 3 "" H 8200 1250 50  0000 C CNN
	1    8200 1250
	0    1    1    0   
$EndComp
Entry Wire Line
	8400 1900 8500 2000
$Comp
L Device:R R19
U 1 1 587CF1CB
P 8800 1450
F 0 "R19" H 8850 1450 50  0000 L CNN
F 1 "2k" V 8800 1450 50  0000 C CNN
F 2 "Resistors_SMD:R_0603" V 8730 1450 50  0001 C CNN
F 3 "" H 8800 1450 50  0000 C CNN
	1    8800 1450
	1    0    0    -1  
$EndComp
$Comp
L Device:R R8
U 1 1 587CF1D1
P 8600 1250
F 0 "R8" V 8500 1250 50  0000 C CNN
F 1 "1k" V 8600 1250 50  0000 C CNN
F 2 "Resistors_SMD:R_0603" V 8530 1250 50  0001 C CNN
F 3 "" H 8600 1250 50  0000 C CNN
	1    8600 1250
	0    1    1    0   
$EndComp
Entry Wire Line
	8800 1900 8900 2000
$Comp
L Device:R R20
U 1 1 587CF3CB
P 9200 1450
F 0 "R20" H 9250 1450 50  0000 L CNN
F 1 "2k" V 9200 1450 50  0000 C CNN
F 2 "Resistors_SMD:R_0603" V 9130 1450 50  0001 C CNN
F 3 "" H 9200 1450 50  0000 C CNN
	1    9200 1450
	1    0    0    -1  
$EndComp
$Comp
L Device:R R9
U 1 1 587CF3D1
P 9000 1250
F 0 "R9" V 8900 1250 50  0000 C CNN
F 1 "1k" V 9000 1250 50  0000 C CNN
F 2 "Resistors_SMD:R_0603" V 8930 1250 50  0001 C CNN
F 3 "" H 9000 1250 50  0000 C CNN
	1    9000 1250
	0    1    1    0   
$EndComp
Entry Wire Line
	9200 1900 9300 2000
$Comp
L Device:R R21
U 1 1 587CF589
P 9600 1450
F 0 "R21" H 9650 1450 50  0000 L CNN
F 1 "2k" V 9600 1450 50  0000 C CNN
F 2 "Resistors_SMD:R_0603" V 9530 1450 50  0001 C CNN
F 3 "" H 9600 1450 50  0000 C CNN
	1    9600 1450
	1    0    0    -1  
$EndComp
$Comp
L Device:R R10
U 1 1 587CF58F
P 9400 1250
F 0 "R10" V 9300 1250 50  0000 C CNN
F 1 "1k" V 9400 1250 50  0000 C CNN
F 2 "Resistors_SMD:R_0603" V 9330 1250 50  0001 C CNN
F 3 "" H 9400 1250 50  0000 C CNN
	1    9400 1250
	0    1    1    0   
$EndComp
Entry Wire Line
	9600 1900 9700 2000
$Comp
L Device:R R22
U 1 1 587CF963
P 10000 1450
F 0 "R22" H 10050 1450 50  0000 L CNN
F 1 "2k" V 10000 1450 50  0000 C CNN
F 2 "Resistors_SMD:R_0603" V 9930 1450 50  0001 C CNN
F 3 "" H 10000 1450 50  0000 C CNN
	1    10000 1450
	1    0    0    -1  
$EndComp
$Comp
L Device:R R11
U 1 1 587CF969
P 9800 1250
F 0 "R11" V 9700 1250 50  0000 C CNN
F 1 "1k" V 9800 1250 50  0000 C CNN
F 2 "Resistors_SMD:R_0603" V 9730 1250 50  0001 C CNN
F 3 "" H 9800 1250 50  0000 C CNN
	1    9800 1250
	0    1    1    0   
$EndComp
Entry Wire Line
	10000 1900 10100 2000
$Comp
L power:GND #PWR014
U 1 1 587D052A
P 6800 1300
F 0 "#PWR014" H 6800 1050 50  0001 C CNN
F 1 "GND" H 6805 1127 50  0001 C CNN
F 2 "" H 6800 1300 50  0000 C CNN
F 3 "" H 6800 1300 50  0000 C CNN
	1    6800 1300
	1    0    0    -1  
$EndComp
Text Label 10700 3500 2    60   ~ 0
DAC0
Text Label 10700 3600 2    60   ~ 0
DAC1
Text Label 10700 3700 2    60   ~ 0
DAC2
Text Label 10700 3800 2    60   ~ 0
DAC3
Text Label 10700 3900 2    60   ~ 0
DAC4
Text Label 10700 4000 2    60   ~ 0
DAC5
Text Label 10700 4100 2    60   ~ 0
DAC6
Text Label 10700 4200 2    60   ~ 0
DAC7
Text Label 10000 1900 1    60   ~ 0
DAC7
Text Label 9600 1900 1    60   ~ 0
DAC6
Text Label 9200 1900 1    60   ~ 0
DAC5
Text Label 8800 1900 1    60   ~ 0
DAC4
Text Label 8400 1900 1    60   ~ 0
DAC3
Text Label 8000 1900 1    60   ~ 0
DAC2
Text Label 7600 1900 1    60   ~ 0
DAC1
Text Label 7200 1900 1    60   ~ 0
DAC0
Entry Wire Line
	6600 1200 6700 1300
Entry Wire Line
	6600 1300 6700 1400
Entry Wire Line
	6600 1400 6700 1500
Entry Wire Line
	6600 1500 6700 1600
Text Label 10700 4600 2    60   ~ 0
SQW1
Text Label 6600 1300 2    60   ~ 0
SQW2
Text Label 6600 1400 2    60   ~ 0
SQW3
Text Label 6600 1500 2    60   ~ 0
SQW4
Text Label 10700 4800 2    60   ~ 0
SQW2
Text Label 10700 4500 2    60   ~ 0
SQW3
Text Label 10700 4700 2    60   ~ 0
SQW4
Entry Wire Line
	10800 6300 10900 6200
Entry Wire Line
	10800 6400 10900 6300
Entry Wire Line
	10800 6500 10900 6400
Text Label 10900 6200 0    60   ~ 0
~FCE
Text Label 10900 6300 0    60   ~ 0
~FOE
Text Label 10900 6400 0    60   ~ 0
~FWE
Text Label 6800 4600 0    60   ~ 0
~FWE
Text Label 9200 2100 3    60   ~ 0
~FOE
Text Label 9300 2100 3    60   ~ 0
~FCE
$Comp
L power:VCC #PWR015
U 1 1 587D1555
P 13750 2800
F 0 "#PWR015" H 13750 2650 50  0001 C CNN
F 1 "VCC" V 13750 3000 50  0000 C CNN
F 2 "" H 13750 2800 50  0000 C CNN
F 3 "" H 13750 2800 50  0000 C CNN
	1    13750 2800
	0    1    1    0   
$EndComp
$Comp
L power:GND #PWR016
U 1 1 587D1BB0
P 13200 2850
F 0 "#PWR016" H 13200 2600 50  0001 C CNN
F 1 "GND" H 13205 2677 50  0001 C CNN
F 2 "" H 13200 2850 50  0000 C CNN
F 3 "" H 13200 2850 50  0000 C CNN
	1    13200 2850
	1    0    0    -1  
$EndComp
Text Label 12900 2300 0    60   ~ 0
TDI
Text Label 12900 2400 0    60   ~ 0
TDO
Text Label 12900 2500 0    60   ~ 0
TCK
Text Label 12900 2600 0    60   ~ 0
TMS
$Comp
L Device:R R30
U 1 1 587D525C
P 8750 7500
F 0 "R30" V 8700 7600 50  0000 L CNN
F 1 "47" V 8750 7500 50  0000 C CNN
F 2 "Resistors_SMD:R_0603" V 8680 7500 50  0001 C CNN
F 3 "" H 8750 7500 50  0000 C CNN
F 4 "RC0603FR-0747RL" V 8750 7500 60  0001 C CNN "manf#"
	1    8750 7500
	1    0    0    -1  
$EndComp
$Comp
L Device:R R31
U 1 1 587D5602
P 8900 7500
F 0 "R31" V 8850 7600 50  0000 L CNN
F 1 "47" V 8900 7500 50  0000 C CNN
F 2 "Resistors_SMD:R_0603" V 8830 7500 50  0001 C CNN
F 3 "" H 8900 7500 50  0000 C CNN
	1    8900 7500
	1    0    0    -1  
$EndComp
$Comp
L Device:R R32
U 1 1 587D56CB
P 9050 7500
F 0 "R32" V 9000 7600 50  0000 L CNN
F 1 "150" V 9050 7500 50  0000 C CNN
F 2 "Resistors_SMD:R_0603" V 8980 7500 50  0001 C CNN
F 3 "" H 9050 7500 50  0000 C CNN
F 4 "311-150HRCT-ND" V 9050 7500 60  0001 C CNN "manf#"
	1    9050 7500
	1    0    0    -1  
$EndComp
$Comp
L doragasu:RGB_LED D1
U 1 1 587D5A46
P 8900 7900
F 0 "D1" V 8928 7622 60  0000 R CNN
F 1 "RGB_LED" V 8822 7622 60  0000 R CNN
F 2 "doragasu:SMD_0606_4PAD" H 8900 7900 60  0001 C CNN
F 3 "" H 8900 7900 60  0000 C CNN
F 4 "LTST-C19HE1WT" V 8900 7900 60  0001 C CNN "manf#"
	1    8900 7900
	0    -1   -1   0   
$EndComp
Entry Wire Line
	8750 7000 8850 6900
Entry Wire Line
	8900 7000 9000 6900
Entry Wire Line
	9050 7000 9150 6900
Text Label 8750 7000 3    60   ~ 0
LEDR
Text Label 8900 7000 3    60   ~ 0
LEDG
Text Label 9050 7000 3    60   ~ 0
LEDB
$Comp
L power:VCC #PWR017
U 1 1 587D7638
P 8900 8200
F 0 "#PWR017" H 8900 8050 50  0001 C CNN
F 1 "VCC" H 8900 8350 50  0000 C CNN
F 2 "" H 8900 8200 50  0000 C CNN
F 3 "" H 8900 8200 50  0000 C CNN
	1    8900 8200
	-1   0    0    1   
$EndComp
Text Notes 8500 8700 0    60   ~ 0
Decoupling capacitors for transceivers, FPGA and Flash\n
$Comp
L Device:C C14
U 1 1 587DB81F
P 10500 9150
F 0 "C14" H 10600 9200 50  0000 L CNN
F 1 "100n" H 10600 9100 50  0000 L CNN
F 2 "Capacitors_SMD:C_0603" H 10538 9000 50  0001 C CNN
F 3 "" H 10500 9150 50  0000 C CNN
	1    10500 9150
	1    0    0    -1  
$EndComp
$Comp
L Device:C C15
U 1 1 587DB8F9
P 10900 9150
F 0 "C15" H 11000 9200 50  0000 L CNN
F 1 "100n" H 11000 9100 50  0000 L CNN
F 2 "Capacitors_SMD:C_0603" H 10938 9000 50  0001 C CNN
F 3 "" H 10900 9150 50  0000 C CNN
	1    10900 9150
	1    0    0    -1  
$EndComp
Text Notes 11150 6650 0    60   ~ 0
Mount S29GL064 or S29GL032
Text Label 7900 6800 1    60   ~ 0
TDIR
Text Label 7800 6800 1    60   ~ 0
~TOE
Text Label 6600 5800 2    60   ~ 0
TDIR
Text Label 6600 5900 2    60   ~ 0
~TOE
Text Label 6600 1200 2    60   ~ 0
SQW1
Entry Wire Line
	10700 5200 10800 5300
Entry Wire Line
	10700 5300 10800 5400
Text Label 10700 5300 2    60   ~ 0
LEDR
Text Label 10700 5200 2    60   ~ 0
LEDG
Text Label 10700 5100 2    60   ~ 0
LEDB
Entry Wire Line
	6600 2800 6700 2900
Text Label 6600 2900 2    60   ~ 0
~BUS_BR
Entry Wire Line
	6600 4300 6700 4400
Text Label 6600 4400 2    60   ~ 0
~BUS_BR
Entry Wire Line
	10700 5100 10800 5200
Text Label 8100 2100 3    60   ~ 0
~BUS_BR
Entry Wire Line
	6600 4400 6700 4500
Entry Wire Line
	6600 2900 6700 3000
Entry Wire Line
	4700 6500 4800 6400
Entry Wire Line
	4700 6600 4800 6500
Entry Wire Line
	4700 6700 4800 6600
Entry Wire Line
	4700 6800 4800 6700
Entry Wire Line
	6600 6400 6700 6500
Entry Wire Line
	6600 6500 6700 6600
Entry Wire Line
	6600 6600 6700 6700
Entry Wire Line
	6600 6700 6700 6800
Entry Wire Line
	6600 7300 6700 7400
Entry Wire Line
	6600 7400 6700 7500
Text Label 6600 7400 2    60   ~ 0
~BUS_BR
Text Label 6600 2800 2    60   ~ 0
DMA_BM
Text Label 6600 4300 2    60   ~ 0
DMA_BM
Text Label 6600 7300 2    60   ~ 0
DMA_BM
Text Label 8400 6800 1    60   ~ 0
DMA_BM
$Comp
L Device:C C16
U 1 1 58898CB3
P 11300 9150
F 0 "C16" H 11400 9200 50  0000 L CNN
F 1 "100n" H 11400 9100 50  0000 L CNN
F 2 "Capacitors_SMD:C_0603" H 11338 9000 50  0001 C CNN
F 3 "" H 11300 9150 50  0000 C CNN
	1    11300 9150
	1    0    0    -1  
$EndComp
$Comp
L Device:C C17
U 1 1 58898CB9
P 11700 9150
F 0 "C17" H 11800 9200 50  0000 L CNN
F 1 "100n" H 11800 9100 50  0000 L CNN
F 2 "Capacitors_SMD:C_0603" H 11738 9000 50  0001 C CNN
F 3 "" H 11700 9150 50  0000 C CNN
	1    11700 9150
	1    0    0    -1  
$EndComp
$Comp
L power:VCC #PWR018
U 1 1 588B0749
P 6250 10300
F 0 "#PWR018" H 6250 10150 50  0001 C CNN
F 1 "VCC" H 6250 10450 50  0000 C CNN
F 2 "" H 6250 10300 50  0000 C CNN
F 3 "" H 6250 10300 50  0000 C CNN
	1    6250 10300
	1    0    0    -1  
$EndComp
$Comp
L power:GND #PWR019
U 1 1 588B12F3
P 6400 10400
F 0 "#PWR019" H 6400 10150 50  0001 C CNN
F 1 "GND" H 6405 10227 50  0001 C CNN
F 2 "" H 6400 10400 50  0000 C CNN
F 3 "" H 6400 10400 50  0000 C CNN
	1    6400 10400
	1    0    0    -1  
$EndComp
NoConn ~ 5200 10000
NoConn ~ 5200 10100
$Comp
L doragasu:74LVC162245 U7
U 2 1 588C119B
P 5700 9900
F 0 "U7" H 5700 10650 60  0000 C CNN
F 1 "74LVC162245" H 5700 10550 60  0000 C CNN
F 2 "Housings_SSOP:TSSOP-48_6.1x12.5mm_Pitch0.5mm" H 5700 9900 60  0001 C CNN
F 3 "" H 5700 9900 60  0000 C CNN
	2    5700 9900
	-1   0    0    -1  
$EndComp
$Comp
L Device:R R1
U 1 1 58895891
P 3750 1100
F 0 "R1" V 3650 1100 50  0000 C CNN
F 1 "NP" V 3750 1100 50  0000 C CNN
F 2 "Resistors_SMD:R_0603" V 3680 1100 50  0001 C CNN
F 3 "" H 3750 1100 50  0000 C CNN
F 4 "RC0603FR-0710KL" V 3750 1100 60  0001 C CNN "manf#"
	1    3750 1100
	0    1    1    0   
$EndComp
$Comp
L power:+5V #PWR020
U 1 1 58895D23
P 3950 1300
F 0 "#PWR020" H 3950 1150 50  0001 C CNN
F 1 "+5V" H 3950 1450 50  0000 C CNN
F 2 "" H 3950 1300 50  0000 C CNN
F 3 "" H 3950 1300 50  0000 C CNN
	1    3950 1300
	1    0    0    -1  
$EndComp
$Comp
L power:GND #PWR021
U 1 1 58896434
P 3950 1900
F 0 "#PWR021" H 3950 1650 50  0001 C CNN
F 1 "GND" H 3955 1727 50  0001 C CNN
F 2 "" H 3950 1900 50  0000 C CNN
F 3 "" H 3950 1900 50  0000 C CNN
	1    3950 1900
	1    0    0    -1  
$EndComp
$Comp
L Device:R R2
U 1 1 588975AB
P 5450 1100
F 0 "R2" V 5400 900 50  0000 C CNN
F 1 "10k" V 5450 1100 50  0000 C CNN
F 2 "Resistors_SMD:R_0603" V 5380 1100 50  0001 C CNN
F 3 "" H 5450 1100 50  0000 C CNN
F 4 "RC0603FR-0722KL" V 5450 1100 60  0001 C CNN "manf#"
	1    5450 1100
	0    1    1    0   
$EndComp
$Comp
L power:GND #PWR022
U 1 1 58899A4A
P 3550 1150
F 0 "#PWR022" H 3550 900 50  0001 C CNN
F 1 "GND" H 3555 977 50  0001 C CNN
F 2 "" H 3550 1150 50  0000 C CNN
F 3 "" H 3550 1150 50  0000 C CNN
	1    3550 1150
	1    0    0    -1  
$EndComp
$Comp
L Device:R R25
U 1 1 58899DF7
P 3750 2100
F 0 "R25" V 3650 2100 50  0000 C CNN
F 1 "4k7" V 3750 2100 50  0000 C CNN
F 2 "Resistors_SMD:R_0603" V 3680 2100 50  0001 C CNN
F 3 "" H 3750 2100 50  0000 C CNN
	1    3750 2100
	0    1    1    0   
$EndComp
$Comp
L Device:R R24
U 1 1 5889A558
P 4400 1700
F 0 "R24" V 4300 1700 50  0000 C CNN
F 1 "10k" V 4400 1700 50  0000 C CNN
F 2 "Resistors_SMD:R_0603" V 4330 1700 50  0001 C CNN
F 3 "" H 4400 1700 50  0000 C CNN
	1    4400 1700
	0    1    1    0   
$EndComp
$Comp
L power:GND #PWR023
U 1 1 5889AA47
P 4600 1750
F 0 "#PWR023" H 4600 1500 50  0001 C CNN
F 1 "GND" H 4605 1577 50  0001 C CNN
F 2 "" H 4600 1750 50  0000 C CNN
F 3 "" H 4600 1750 50  0000 C CNN
	1    4600 1750
	1    0    0    -1  
$EndComp
$Comp
L Device:C C2
U 1 1 5889B955
P 3750 2300
F 0 "C2" V 3900 2300 50  0000 C CNN
F 1 "6.8n" V 4000 2300 50  0000 C CNN
F 2 "Capacitors_SMD:C_0603" H 3788 2150 50  0001 C CNN
F 3 "" H 3750 2300 50  0000 C CNN
	1    3750 2300
	0    1    1    0   
$EndComp
$Comp
L Device:R R12
U 1 1 5889D1AE
P 3300 1300
F 0 "R12" V 3200 1300 50  0000 C CNN
F 1 "NP" V 3300 1300 50  0000 C CNN
F 2 "Resistors_SMD:R_0603" V 3230 1300 50  0001 C CNN
F 3 "" H 3300 1300 50  0000 C CNN
	1    3300 1300
	-1   0    0    1   
$EndComp
$Comp
L Device:C C1
U 1 1 5889F93B
P 2950 1650
F 0 "C1" H 2850 1700 50  0000 R CNN
F 1 "100n" H 2850 1600 50  0000 R CNN
F 2 "Capacitors_SMD:C_0603" H 2988 1500 50  0001 C CNN
F 3 "" H 2950 1650 50  0000 C CNN
	1    2950 1650
	-1   0    0    1   
$EndComp
$Comp
L power:+5V #PWR024
U 1 1 5889FABF
P 2950 1500
F 0 "#PWR024" H 2950 1350 50  0001 C CNN
F 1 "+5V" H 2950 1650 50  0000 C CNN
F 2 "" H 2950 1500 50  0000 C CNN
F 3 "" H 2950 1500 50  0000 C CNN
	1    2950 1500
	1    0    0    -1  
$EndComp
$Comp
L power:GND #PWR025
U 1 1 5889FB96
P 2950 1800
F 0 "#PWR025" H 2950 1550 50  0001 C CNN
F 1 "GND" H 2955 1627 50  0001 C CNN
F 2 "" H 2950 1800 50  0000 C CNN
F 3 "" H 2950 1800 50  0000 C CNN
	1    2950 1800
	1    0    0    -1  
$EndComp
Entry Wire Line
	4600 5300 4700 5400
Text Label 4600 5300 2    60   ~ 0
~C_RFSH
Entry Wire Line
	6600 8100 6700 8200
Entry Wire Line
	4700 8200 4800 8100
Text Label 4800 8000 0    60   ~ 0
~C_RFSH
Text Label 6600 8000 2    60   ~ 0
~RFSH
Text Label 8600 6800 1    60   ~ 0
~RFSH
$Comp
L Device:R R28
U 1 1 588C0D19
P 4950 6950
F 0 "R28" H 5020 6996 50  0000 L CNN
F 1 "10k" V 4950 6950 50  0000 C CNN
F 2 "Resistors_SMD:R_0603" V 4880 6950 50  0001 C CNN
F 3 "" H 4950 6950 50  0000 C CNN
	1    4950 6950
	1    0    0    -1  
$EndComp
$Comp
L power:GND #PWR026
U 1 1 588C0F2D
P 4950 7100
F 0 "#PWR026" H 4950 6850 50  0001 C CNN
F 1 "GND" H 4955 6927 50  0001 C CNN
F 2 "" H 4950 7100 50  0000 C CNN
F 3 "" H 4950 7100 50  0000 C CNN
	1    4950 7100
	1    0    0    -1  
$EndComp
$Comp
L doragasu:74LVC162245 U5
U 2 1 58887AB9
P 5700 6900
F 0 "U5" H 5700 7650 60  0000 C CNN
F 1 "74LVC162245" H 5700 7550 60  0000 C CNN
F 2 "Housings_SSOP:TSSOP-48_6.1x12.5mm_Pitch0.5mm" H 5700 6900 60  0001 C CNN
F 3 "" H 5700 6900 60  0000 C CNN
	2    5700 6900
	-1   0    0    -1  
$EndComp
$Comp
L Device:R R29
U 1 1 588C32EA
P 6450 6950
F 0 "R29" H 6520 6996 50  0000 L CNN
F 1 "10k" V 6450 6950 50  0000 C CNN
F 2 "Resistors_SMD:R_0603" V 6380 6950 50  0001 C CNN
F 3 "" H 6450 6950 50  0000 C CNN
	1    6450 6950
	1    0    0    -1  
$EndComp
$Comp
L power:GND #PWR027
U 1 1 588C32F0
P 6450 7100
F 0 "#PWR027" H 6450 6850 50  0001 C CNN
F 1 "GND" H 6455 6927 50  0001 C CNN
F 2 "" H 6450 7100 50  0000 C CNN
F 3 "" H 6450 7100 50  0000 C CNN
	1    6450 7100
	1    0    0    -1  
$EndComp
Text Label 2600 3800 0    60   ~ 0
+5V
Entry Wire Line
	9200 2100 9300 2000
Entry Wire Line
	9300 2100 9400 2000
Entry Wire Line
	7800 6800 7900 6900
Entry Wire Line
	7900 6800 8000 6900
$Comp
L doragasu:LCMXO256C U2
U 1 1 58772385
P 10400 5500
F 0 "U2" H 10600 2500 60  0000 L CNN
F 1 "LCMXO256C" H 10600 2400 60  0000 L CNN
F 2 "Housings_QFP:LQFP-100_14x14mm_Pitch0.5mm" H 10400 5500 60  0001 C CNN
F 3 "" H 10400 5500 60  0000 C CNN
F 4 "LAMXO256C-3TN100E" H 10400 5500 60  0001 C CNN "manf#"
	1    10400 5500
	-1   0    0    1   
$EndComp
Entry Wire Line
	9400 6800 9500 6900
Entry Wire Line
	6700 3600 6800 3500
Entry Wire Line
	9400 2100 9500 2000
NoConn ~ 10400 3400
Entry Wire Line
	7700 6800 7800 6900
Entry Wire Line
	6700 3500 6800 3400
NoConn ~ 9500 2400
Entry Wire Line
	6600 5800 6700 5900
Entry Wire Line
	6600 5900 6700 6000
Entry Wire Line
	8200 6800 8300 6900
Entry Wire Line
	8300 6800 8400 6900
Text Label 4800 7900 0    60   ~ 0
C_CLK4
Entry Wire Line
	6600 7900 6700 8000
Entry Wire Line
	6600 8600 6700 8700
Entry Wire Line
	4700 8700 4800 8600
Entry Wire Line
	10700 4400 10800 4500
NoConn ~ 10400 4900
NoConn ~ 10400 4300
Text Label 4800 8500 0    60   ~ 0
~C_RSET
Entry Wire Line
	6700 5600 6800 5500
Wire Wire Line
	7100 5500 6800 5500
Wire Wire Line
	10400 4400 10700 4400
Wire Wire Line
	6200 7900 6600 7900
Wire Wire Line
	5200 7900 4800 7900
Wire Wire Line
	8300 6500 8300 6800
Wire Wire Line
	8200 6500 8200 6800
Wire Wire Line
	7700 9300 8100 9300
Wire Wire Line
	7700 9000 8100 9000
Wire Wire Line
	7100 3400 6800 3400
Wire Wire Line
	7700 6500 7700 6800
Wire Wire Line
	9400 2400 9400 2100
Wire Wire Line
	7100 3500 6800 3500
Wire Wire Line
	9400 6500 9400 6800
Wire Wire Line
	7900 6500 7900 6800
Wire Wire Line
	7800 6500 7800 6800
Wire Wire Line
	9300 2400 9300 2100
Wire Wire Line
	9200 2400 9200 2100
Connection ~ 6200 6800
Connection ~ 6200 7000
Connection ~ 6200 6900
Wire Wire Line
	6200 6800 6450 6800
Wire Wire Line
	6200 6800 6200 6900
Connection ~ 5200 6800
Connection ~ 5200 7000
Connection ~ 5200 6900
Wire Wire Line
	5200 6800 4950 6800
Wire Wire Line
	5200 6800 5200 6900
Wire Wire Line
	6200 8100 6600 8100
Wire Wire Line
	5200 8100 4800 8100
Wire Wire Line
	4200 5300 4600 5300
Wire Wire Line
	3300 950  4200 950 
Wire Wire Line
	3300 1150 3300 950 
Wire Wire Line
	3300 1600 3300 1450
Wire Wire Line
	3550 1600 3300 1600
Connection ~ 3550 2850
Connection ~ 3550 2300
Connection ~ 4200 2100
Wire Wire Line
	4200 2300 3900 2300
Connection ~ 3550 2100
Wire Wire Line
	3550 2300 3600 2300
Wire Wire Line
	4600 1700 4600 1750
Wire Wire Line
	4550 1700 4600 1700
Connection ~ 4200 1700
Wire Wire Line
	4200 1700 4200 2100
Wire Wire Line
	4150 1700 4200 1700
Wire Wire Line
	3550 1600 3550 2100
Wire Wire Line
	3600 2100 3550 2100
Wire Wire Line
	3900 2100 4200 2100
Wire Wire Line
	3550 1100 3600 1100
Wire Wire Line
	3550 1150 3550 1100
Connection ~ 4200 1500
Connection ~ 4200 1400
Wire Wire Line
	4200 1400 5300 1400
Connection ~ 4200 1300
Wire Wire Line
	4200 1300 5300 1300
Connection ~ 4200 1200
Wire Wire Line
	4200 1200 5300 1200
Connection ~ 4200 1100
Wire Wire Line
	4150 1500 4200 1500
Wire Wire Line
	4200 950  4200 1100
Wire Wire Line
	3900 1100 4200 1100
Wire Wire Line
	5600 1400 6600 1400
Connection ~ 6400 10100
Wire Wire Line
	6200 10100 6400 10100
Wire Wire Line
	6400 10000 6400 10100
Wire Wire Line
	6200 10000 6400 10000
Wire Wire Line
	6200 10300 6250 10300
Connection ~ 11300 9300
Connection ~ 11300 9000
Connection ~ 10900 9300
Connection ~ 10900 9000
Wire Wire Line
	6200 7400 6600 7400
Wire Wire Line
	6200 7300 6600 7300
Wire Wire Line
	6600 6700 6200 6700
Wire Wire Line
	6600 6600 6200 6600
Wire Wire Line
	6600 6500 6200 6500
Wire Wire Line
	6600 6400 6200 6400
Wire Wire Line
	5200 6700 4800 6700
Wire Wire Line
	5200 6600 4800 6600
Wire Wire Line
	5200 6500 4800 6500
Wire Wire Line
	5200 6400 4800 6400
Wire Wire Line
	6200 4400 6600 4400
Wire Wire Line
	6200 2900 6600 2900
Wire Wire Line
	10400 5100 10700 5100
Wire Wire Line
	6200 4300 6600 4300
Wire Wire Line
	6200 2800 6600 2800
Wire Wire Line
	10400 5300 10700 5300
Wire Wire Line
	10400 5200 10700 5200
Connection ~ 10500 9300
Connection ~ 10100 9300
Connection ~ 10500 9000
Connection ~ 10100 9000
Wire Wire Line
	9050 7350 9050 7000
Wire Wire Line
	8900 7350 8900 7000
Wire Wire Line
	8750 7350 8750 7000
Wire Wire Line
	13850 2400 12900 2400
Wire Wire Line
	13850 2700 13850 2400
Wire Wire Line
	13750 2700 13850 2700
Wire Wire Line
	13150 2300 12900 2300
Wire Wire Line
	13150 2700 13150 2300
Wire Wire Line
	13250 2700 13150 2700
Wire Wire Line
	13750 2500 12900 2500
Wire Wire Line
	13750 2600 13750 2500
Wire Wire Line
	12900 2600 13250 2600
Wire Wire Line
	13200 2850 13200 2800
Wire Wire Line
	13200 2800 13250 2800
Wire Wire Line
	11200 6400 10900 6400
Wire Wire Line
	10900 6300 11200 6300
Wire Wire Line
	11200 6200 10900 6200
Wire Wire Line
	5600 1100 10000 1100
Connection ~ 9600 1250
Connection ~ 9200 1250
Connection ~ 8800 1250
Connection ~ 8400 1250
Connection ~ 8000 1250
Connection ~ 7600 1250
Connection ~ 7200 1250
Wire Wire Line
	6800 1250 6800 1300
Wire Wire Line
	10000 1600 10000 1900
Wire Wire Line
	10000 1250 9950 1250
Wire Wire Line
	10000 1100 10000 1250
Wire Wire Line
	9600 1600 9600 1900
Wire Wire Line
	9550 1250 9600 1250
Wire Wire Line
	9600 1300 9600 1250
Wire Wire Line
	9200 1600 9200 1900
Wire Wire Line
	9150 1250 9200 1250
Wire Wire Line
	9200 1300 9200 1250
Wire Wire Line
	8800 1600 8800 1900
Wire Wire Line
	8750 1250 8800 1250
Wire Wire Line
	8800 1300 8800 1250
Wire Wire Line
	8400 1600 8400 1900
Wire Wire Line
	8350 1250 8400 1250
Wire Wire Line
	8400 1300 8400 1250
Wire Wire Line
	8000 1600 8000 1900
Wire Wire Line
	7950 1250 8000 1250
Wire Wire Line
	8000 1300 8000 1250
Wire Wire Line
	7600 1600 7600 1900
Wire Wire Line
	7550 1250 7600 1250
Wire Wire Line
	7600 1300 7600 1250
Wire Wire Line
	7200 1600 7200 1900
Wire Wire Line
	7150 1250 7200 1250
Wire Wire Line
	6800 1250 6850 1250
Wire Wire Line
	5600 1200 6600 1200
Wire Wire Line
	6600 1300 5600 1300
Wire Wire Line
	6600 1500 5600 1500
Wire Wire Line
	4200 5600 4600 5600
Wire Wire Line
	3000 6100 2600 6100
Wire Wire Line
	4200 6000 4600 6000
Wire Wire Line
	6400 10400 6200 10400
Wire Wire Line
	3000 5800 2600 5800
Wire Wire Line
	3000 5900 2600 5900
Wire Wire Line
	6200 9800 6600 9800
Wire Wire Line
	6200 9700 6600 9700
Wire Wire Line
	6200 9600 6600 9600
Wire Wire Line
	6200 9500 6600 9500
Wire Wire Line
	5200 9800 4800 9800
Wire Wire Line
	5200 9700 4800 9700
Wire Wire Line
	5200 9600 4800 9600
Wire Wire Line
	5200 9500 4800 9500
Wire Wire Line
	4200 4000 4600 4000
Wire Wire Line
	3000 5300 2600 5300
Wire Wire Line
	6600 8600 6200 8600
Wire Wire Line
	9700 9350 9700 9300
Wire Wire Line
	9700 9000 9700 8950
Connection ~ 8100 9000
Connection ~ 8500 9000
Connection ~ 8900 9000
Connection ~ 9300 9000
Connection ~ 9700 9000
Connection ~ 9700 9300
Connection ~ 9300 9300
Connection ~ 8900 9300
Connection ~ 8500 9300
Connection ~ 8100 9300
Connection ~ 6250 8900
Wire Wire Line
	6200 8900 6250 8900
Wire Wire Line
	6250 8800 6250 8900
Wire Wire Line
	6200 8800 6250 8800
Wire Wire Line
	6200 5900 6600 5900
Wire Wire Line
	6200 5800 6600 5800
Wire Wire Line
	4200 5400 4600 5400
Wire Wire Line
	9100 2100 9100 2400
Wire Wire Line
	9000 2400 9000 2100
Wire Wire Line
	8900 2100 8900 2400
Wire Wire Line
	8800 2400 8800 2100
Wire Wire Line
	8700 2100 8700 2400
Wire Wire Line
	8600 2400 8600 2100
Wire Wire Line
	8500 2100 8500 2400
Wire Wire Line
	8400 2400 8400 2100
Wire Wire Line
	8300 2100 8300 2400
Wire Wire Line
	8200 2400 8200 2100
Wire Wire Line
	9300 6800 9300 6500
Wire Wire Line
	9100 6800 9100 6500
Wire Wire Line
	9000 6500 9000 6800
Wire Wire Line
	8900 6800 8900 6500
Wire Wire Line
	8800 6500 8800 6800
Wire Wire Line
	8700 6800 8700 6500
Wire Wire Line
	8600 6500 8600 6800
Wire Wire Line
	8500 6800 8500 6500
Wire Wire Line
	8100 6500 8100 6800
Wire Wire Line
	8000 6500 8000 6800
Connection ~ 2900 6900
Connection ~ 4100 7000
Connection ~ 3250 6900
Wire Wire Line
	3250 6900 3250 7000
Wire Wire Line
	2900 6900 2900 7000
Wire Wire Line
	2600 6900 2900 6900
Connection ~ 3250 7300
Connection ~ 3650 7300
Wire Wire Line
	2900 7300 3250 7300
Wire Wire Line
	3650 7200 3650 7300
Connection ~ 4100 6900
Wire Wire Line
	4050 6900 4100 6900
Wire Wire Line
	4100 7000 4050 7000
Wire Wire Line
	4100 6850 4100 6900
Connection ~ 11800 1600
Wire Wire Line
	11800 1600 11800 1550
Connection ~ 12300 1600
Connection ~ 12200 1600
Connection ~ 12000 1600
Connection ~ 11900 1600
Connection ~ 11600 1600
Connection ~ 11400 1600
Connection ~ 11300 1600
Wire Wire Line
	10800 1600 10800 2300
Wire Wire Line
	10800 1600 11300 1600
Connection ~ 11400 3300
Connection ~ 11800 3300
Connection ~ 12300 3300
Connection ~ 12200 3300
Connection ~ 12000 3300
Connection ~ 11900 3300
Wire Wire Line
	11900 3300 11900 3350
Wire Wire Line
	11300 3300 11400 3300
Wire Wire Line
	12750 6000 12750 5950
Wire Wire Line
	12600 6000 12750 6000
Wire Wire Line
	12750 6200 12750 6250
Wire Wire Line
	12600 6200 12750 6200
Wire Wire Line
	12600 5400 12900 5400
Wire Wire Line
	12600 5300 12900 5300
Wire Wire Line
	12600 5200 12900 5200
Wire Wire Line
	12600 5100 12900 5100
Wire Wire Line
	12600 5000 12900 5000
Wire Wire Line
	12600 4900 12900 4900
Wire Wire Line
	12600 4800 12900 4800
Wire Wire Line
	12600 4700 12900 4700
Wire Wire Line
	12600 3900 12900 3900
Wire Wire Line
	11200 6000 10900 6000
Wire Wire Line
	11200 5900 10900 5900
Wire Wire Line
	11200 5800 10900 5800
Wire Wire Line
	11200 5700 10900 5700
Wire Wire Line
	11200 5600 10900 5600
Wire Wire Line
	11200 5500 10900 5500
Wire Wire Line
	11200 5400 10900 5400
Wire Wire Line
	11200 5300 10900 5300
Wire Wire Line
	11200 5200 10900 5200
Wire Wire Line
	11200 5100 10900 5100
Wire Wire Line
	11200 5000 10900 5000
Wire Wire Line
	11200 4900 10900 4900
Wire Wire Line
	11200 4800 10900 4800
Wire Wire Line
	11200 4700 10900 4700
Wire Wire Line
	11200 4600 10900 4600
Wire Wire Line
	11200 4500 10900 4500
Wire Wire Line
	11200 4400 10900 4400
Wire Wire Line
	11200 4300 10900 4300
Wire Wire Line
	11200 4200 10900 4200
Wire Wire Line
	11200 4100 10900 4100
Wire Wire Line
	11200 4000 10900 4000
Wire Wire Line
	10400 5500 10700 5500
Wire Wire Line
	10400 4800 10700 4800
Wire Wire Line
	10400 4700 10700 4700
Wire Wire Line
	10400 4600 10700 4600
Wire Wire Line
	10400 4500 10700 4500
Wire Wire Line
	10400 4200 10700 4200
Wire Wire Line
	10400 4100 10700 4100
Wire Wire Line
	10400 4000 10700 4000
Wire Wire Line
	10400 3900 10700 3900
Wire Wire Line
	10400 3800 10700 3800
Wire Wire Line
	10400 3700 10700 3700
Wire Wire Line
	10400 3600 10700 3600
Wire Wire Line
	10400 3500 10700 3500
Wire Wire Line
	7100 5400 6800 5400
Wire Wire Line
	7100 5300 6800 5300
Wire Wire Line
	7100 5200 6800 5200
Wire Wire Line
	7100 5100 6800 5100
Wire Wire Line
	7100 5000 6800 5000
Wire Wire Line
	7100 4900 6800 4900
Wire Wire Line
	7100 4800 6800 4800
Wire Wire Line
	7100 4600 6800 4600
Wire Wire Line
	7100 4500 6800 4500
Wire Wire Line
	7100 4400 6800 4400
Wire Wire Line
	7100 4300 6800 4300
Wire Wire Line
	7100 4200 6800 4200
Wire Wire Line
	7100 4100 6800 4100
Wire Wire Line
	7100 4000 6800 4000
Wire Wire Line
	7100 3900 6800 3900
Wire Wire Line
	7100 3800 6800 3800
Wire Wire Line
	7100 3700 6800 3700
Wire Wire Line
	7100 3600 6800 3600
Wire Wire Line
	3000 3750 3000 3800
Wire Wire Line
	3000 3800 2600 3800
Wire Wire Line
	2900 6300 2900 6350
Wire Wire Line
	4300 3800 4300 3850
Wire Wire Line
	4200 3800 4300 3800
Wire Wire Line
	4200 3800 4200 3900
Wire Wire Line
	2900 6300 3000 6300
Wire Wire Line
	6200 8500 6600 8500
Wire Wire Line
	6200 8400 6600 8400
Wire Wire Line
	6200 8300 6600 8300
Wire Wire Line
	6200 8200 6600 8200
Wire Wire Line
	6200 8000 6600 8000
Wire Wire Line
	5200 8600 4800 8600
Wire Wire Line
	5200 8500 4800 8500
Wire Wire Line
	5200 8400 4800 8400
Wire Wire Line
	5200 8300 4800 8300
Wire Wire Line
	5200 8200 4800 8200
Wire Wire Line
	5200 8000 4800 8000
Wire Wire Line
	6200 5600 6600 5600
Wire Wire Line
	6200 5500 6600 5500
Wire Wire Line
	6200 5400 6600 5400
Wire Wire Line
	6200 5300 6600 5300
Wire Wire Line
	6200 5200 6600 5200
Wire Wire Line
	6200 5100 6600 5100
Wire Wire Line
	6200 5000 6600 5000
Wire Wire Line
	6200 4900 6600 4900
Wire Wire Line
	5200 5600 4800 5600
Wire Wire Line
	5200 5500 4800 5500
Wire Wire Line
	5200 5400 4800 5400
Wire Wire Line
	5200 5300 4800 5300
Wire Wire Line
	5200 5200 4800 5200
Wire Wire Line
	5200 5100 4800 5100
Wire Wire Line
	5200 5000 4800 5000
Wire Wire Line
	5200 4900 4800 4900
Wire Wire Line
	6200 4100 6600 4100
Wire Wire Line
	6200 4000 6600 4000
Wire Wire Line
	6200 3900 6600 3900
Wire Wire Line
	6200 3800 6600 3800
Wire Wire Line
	6200 3700 6600 3700
Wire Wire Line
	6200 3600 6600 3600
Wire Wire Line
	6200 3500 6600 3500
Wire Wire Line
	6200 3400 6600 3400
Wire Wire Line
	5200 4100 4800 4100
Wire Wire Line
	5200 4000 4800 4000
Wire Wire Line
	5200 3900 4800 3900
Wire Wire Line
	5200 3800 4800 3800
Wire Wire Line
	5200 3700 4800 3700
Wire Wire Line
	5200 3600 4800 3600
Wire Wire Line
	5200 3500 4800 3500
Wire Wire Line
	5200 3400 4800 3400
Wire Wire Line
	6200 2600 6600 2600
Wire Wire Line
	6200 2500 6600 2500
Wire Wire Line
	6200 2400 6600 2400
Wire Wire Line
	6200 2300 6600 2300
Wire Wire Line
	6200 2200 6600 2200
Wire Wire Line
	6200 2100 6600 2100
Wire Wire Line
	6200 2000 6600 2000
Wire Wire Line
	6200 1900 6600 1900
Wire Wire Line
	5200 2600 4800 2600
Wire Wire Line
	5200 2500 4800 2500
Wire Wire Line
	5200 2400 4800 2400
Wire Wire Line
	5200 2300 4800 2300
Wire Wire Line
	5200 2200 4800 2200
Wire Wire Line
	5200 2100 4800 2100
Wire Wire Line
	5200 2000 4800 2000
Wire Wire Line
	5200 1900 4800 1900
Wire Wire Line
	4200 6300 4600 6300
Wire Wire Line
	4200 5900 4600 5900
Wire Wire Line
	4200 5700 4600 5700
Wire Wire Line
	4200 5200 4600 5200
Wire Wire Line
	4200 5100 4600 5100
Wire Wire Line
	4200 5000 4600 5000
Wire Wire Line
	4200 4900 4600 4900
Wire Wire Line
	4200 4800 4600 4800
Wire Wire Line
	4200 4700 4600 4700
Wire Wire Line
	4200 4600 4600 4600
Wire Wire Line
	4200 4500 4600 4500
Wire Wire Line
	4200 4400 4600 4400
Wire Wire Line
	4200 4300 4600 4300
Wire Wire Line
	4200 4200 4600 4200
Wire Wire Line
	4200 4100 4600 4100
Wire Wire Line
	3000 6000 2600 6000
Wire Wire Line
	3000 5700 2600 5700
Wire Wire Line
	3000 5500 2600 5500
Wire Wire Line
	3000 5400 2600 5400
Wire Wire Line
	3000 5200 2600 5200
Wire Wire Line
	3000 5100 2600 5100
Wire Wire Line
	3000 5000 2600 5000
Wire Wire Line
	3000 4900 2600 4900
Wire Wire Line
	3000 4800 2600 4800
Wire Wire Line
	3000 4700 2600 4700
Wire Wire Line
	3000 4600 2600 4600
Wire Wire Line
	3000 4500 2600 4500
Wire Wire Line
	3000 4400 2600 4400
Wire Wire Line
	3000 4300 2600 4300
Wire Wire Line
	3000 4200 2600 4200
Wire Wire Line
	3000 4100 2600 4100
Wire Wire Line
	3000 4000 2600 4000
Wire Wire Line
	3000 3900 2600 3900
Wire Wire Line
	9500 6500 9500 6800
Entry Wire Line
	9500 6800 9600 6900
NoConn ~ 10400 5000
Wire Wire Line
	8400 6500 8400 6800
Entry Wire Line
	8400 6800 8500 6900
Entry Wire Line
	2400 4000 2500 4100
Entry Wire Line
	2400 4100 2500 4200
Entry Wire Line
	2400 4200 2500 4300
Entry Wire Line
	2400 4300 2500 4400
Entry Wire Line
	2400 4400 2500 4500
Entry Wire Line
	2400 4500 2500 4600
Entry Wire Line
	2400 4600 2500 4700
Entry Wire Line
	2400 4700 2500 4800
Entry Wire Line
	2400 4800 2500 4900
Entry Wire Line
	2400 4900 2500 5000
Entry Wire Line
	2400 5000 2500 5100
Entry Wire Line
	2400 5100 2500 5200
Entry Wire Line
	2400 5800 2500 5900
Entry Wire Line
	2400 6100 2500 6200
Entry Wire Line
	2400 5400 2500 5500
$Comp
L power:GND #PWR028
U 1 1 58956BA2
P 2100 6350
F 0 "#PWR028" H 2100 6100 50  0001 C CNN
F 1 "GND" H 2105 6177 50  0001 C CNN
F 2 "" H 2100 6350 50  0000 C CNN
F 3 "" H 2100 6350 50  0000 C CNN
	1    2100 6350
	1    0    0    -1  
$EndComp
Entry Wire Line
	2400 5300 2500 5400
Entry Wire Line
	2400 3900 2500 4000
Entry Wire Line
	2400 5900 2500 6000
Entry Wire Line
	2400 5500 2500 5600
Entry Wire Line
	2400 5200 2500 5300
Wire Wire Line
	2100 6300 2100 6350
Wire Wire Line
	2000 6300 2100 6300
$Comp
L doragasu:S29GL064N90TFI040 U4
U 1 1 5895BFAC
P 11900 5100
F 0 "U4" H 11900 6550 60  0000 C CNN
F 1 "S29GL064N90TFI040" H 11900 6450 60  0000 C CNN
F 2 "doragasu:TSOP48SP" H 11900 6650 60  0001 C CNN
F 3 "" H -650 0   60  0000 C CNN
F 4 "S29GL064S70TFI040" H 11900 5100 60  0001 C CNN "manf#"
	1    11900 5100
	1    0    0    -1  
$EndComp
Wire Wire Line
	11200 3900 10900 3900
Entry Wire Line
	10800 4000 10900 3900
Text Label 10900 3900 0    60   ~ 0
B22
Wire Wire Line
	7100 4700 6800 4700
Entry Wire Line
	6700 4800 6800 4700
Text Label 6800 4700 0    60   ~ 0
B22
Wire Wire Line
	8100 2400 8100 2100
Entry Wire Line
	8100 2100 8200 2000
$Comp
L Device:R R33
U 1 1 5896A654
P 14100 2750
F 0 "R33" H 14170 2796 50  0000 L CNN
F 1 "10k" V 14100 2750 50  0000 C CNN
F 2 "Resistors_SMD:R_0603" V 980 -1000 50  0001 C CNN
F 3 "" H 1050 -1000 50  0000 C CNN
	1    14100 2750
	1    0    0    -1  
$EndComp
Wire Wire Line
	13750 2600 14100 2600
$Comp
L power:GND #PWR029
U 1 1 5896B30F
P 14100 2900
F 0 "#PWR029" H 14100 2650 50  0001 C CNN
F 1 "GND" H 14105 2727 50  0001 C CNN
F 2 "" H 14100 2900 50  0000 C CNN
F 3 "" H 14100 2900 50  0000 C CNN
	1    14100 2900
	1    0    0    -1  
$EndComp
Connection ~ 6400 10400
Text Notes 1850 7750 0    60   ~ 0
Half of the CPC expansion connector is repeated (P2, P3)\nto be able to mount card edge or M4 connectors.
Text Label 6350 1100 0    60   ~ 0
ADAC
Wire Wire Line
	3150 2850 2600 2850
Wire Wire Line
	3450 2850 3550 2850
Wire Wire Line
	7200 1250 7200 1300
Connection ~ 10000 1250
Wire Bus Line
	4700 3500 2500 3500
Text Label 2000 5200 0    60   ~ 0
+5V
Text Label 2000 4000 0    60   ~ 0
C_A15
Text Label 2000 4100 0    60   ~ 0
C_A13
Text Label 2000 4200 0    60   ~ 0
C_A11
Text Label 2000 4300 0    60   ~ 0
C_A9
Text Label 2000 4400 0    60   ~ 0
C_A7
Text Label 2000 4500 0    60   ~ 0
C_A5
Text Label 2000 4600 0    60   ~ 0
C_A3
Text Label 2000 4700 0    60   ~ 0
C_A1
Text Label 2000 4800 0    60   ~ 0
C_D7
Text Label 2000 4900 0    60   ~ 0
C_D5
Text Label 2000 5000 0    60   ~ 0
C_D3
Text Label 2000 5100 0    60   ~ 0
C_D1
Text Label 2000 5400 0    60   ~ 0
~C_IORQ
Text Label 2000 5500 0    60   ~ 0
~C_WR
Text Label 2000 5700 0    60   ~ 0
~C_BUSRQ
Text Label 2000 6000 0    60   ~ 0
C_ROMDIS
Text Label 2000 3900 0    60   ~ 0
C_SOUND
Text Label 2000 5300 0    60   ~ 0
~C_M1
Text Label 2000 5900 0    60   ~ 0
~C_RSET
Text Label 2000 5800 0    60   ~ 0
C_READY
Text Label 2000 6100 0    60   ~ 0
C_RAMDIS
Wire Wire Line
	2400 6100 2000 6100
Wire Wire Line
	2400 5800 2000 5800
Wire Wire Line
	2400 5900 2000 5900
Wire Wire Line
	2400 5300 2000 5300
Wire Wire Line
	2400 6000 2000 6000
Wire Wire Line
	2400 5700 2000 5700
Wire Wire Line
	2400 5500 2000 5500
Wire Wire Line
	2400 5400 2000 5400
Wire Wire Line
	2400 5200 2000 5200
Wire Wire Line
	2400 5100 2000 5100
Wire Wire Line
	2400 5000 2000 5000
Wire Wire Line
	2400 4900 2000 4900
Wire Wire Line
	2400 4800 2000 4800
Wire Wire Line
	2400 4700 2000 4700
Wire Wire Line
	2400 4600 2000 4600
Wire Wire Line
	2400 4500 2000 4500
Wire Wire Line
	2400 4400 2000 4400
Wire Wire Line
	2400 4300 2000 4300
Wire Wire Line
	2400 4200 2000 4200
Wire Wire Line
	2400 4100 2000 4100
Wire Wire Line
	2400 4000 2000 4000
Wire Wire Line
	2400 3900 2000 3900
NoConn ~ 2000 6200
Entry Wire Line
	2400 5700 2500 5800
Entry Wire Line
	2400 6000 2500 6100
Wire Wire Line
	6200 7000 6200 7100
Wire Wire Line
	6200 6900 6200 7000
Wire Wire Line
	5200 7000 5200 7100
Wire Wire Line
	5200 6900 5200 7000
Wire Wire Line
	3550 2850 3550 2900
Wire Wire Line
	3550 2300 3550 2850
Wire Wire Line
	4200 2100 4200 2300
Wire Wire Line
	3550 2100 3550 2300
Wire Wire Line
	4200 1700 4250 1700
Wire Wire Line
	4200 1500 5300 1500
Wire Wire Line
	4200 1400 4200 1500
Wire Wire Line
	4200 1300 4200 1400
Wire Wire Line
	4200 1200 4200 1300
Wire Wire Line
	4200 1100 4200 1200
Wire Wire Line
	4200 1100 5300 1100
Wire Wire Line
	6400 10100 6400 10400
Wire Wire Line
	11300 9300 11700 9300
Wire Wire Line
	11300 9000 11700 9000
Wire Wire Line
	10900 9300 11300 9300
Wire Wire Line
	10900 9000 11300 9000
Wire Wire Line
	10500 9300 10900 9300
Wire Wire Line
	10100 9300 10500 9300
Wire Wire Line
	10500 9000 10900 9000
Wire Wire Line
	10100 9000 10500 9000
Wire Wire Line
	9600 1250 9650 1250
Wire Wire Line
	9200 1250 9250 1250
Wire Wire Line
	8800 1250 8850 1250
Wire Wire Line
	8400 1250 8450 1250
Wire Wire Line
	8000 1250 8050 1250
Wire Wire Line
	7600 1250 7650 1250
Wire Wire Line
	7200 1250 7250 1250
Wire Wire Line
	8100 9000 8500 9000
Wire Wire Line
	8500 9000 8900 9000
Wire Wire Line
	8900 9000 9300 9000
Wire Wire Line
	9300 9000 9700 9000
Wire Wire Line
	9700 9000 10100 9000
Wire Wire Line
	9700 9300 10100 9300
Wire Wire Line
	9300 9300 9700 9300
Wire Wire Line
	8900 9300 9300 9300
Wire Wire Line
	8500 9300 8900 9300
Wire Wire Line
	8100 9300 8500 9300
Wire Wire Line
	6250 8900 6250 8950
Wire Wire Line
	2900 6900 3250 6900
Wire Wire Line
	3250 7300 3650 7300
Wire Wire Line
	3650 7300 3650 7350
Wire Wire Line
	3650 7300 4100 7300
Wire Wire Line
	4100 6900 4100 7000
Wire Wire Line
	11800 1600 11900 1600
Wire Wire Line
	12300 1600 12400 1600
Wire Wire Line
	12200 1600 12300 1600
Wire Wire Line
	12000 1600 12200 1600
Wire Wire Line
	11900 1600 12000 1600
Wire Wire Line
	11600 1600 11800 1600
Wire Wire Line
	11400 1600 11600 1600
Wire Wire Line
	11300 1600 11400 1600
Wire Wire Line
	11400 3300 11800 3300
Wire Wire Line
	11800 3300 11900 3300
Wire Wire Line
	12300 3300 12400 3300
Wire Wire Line
	12200 3300 12300 3300
Wire Wire Line
	12000 3300 12200 3300
Wire Wire Line
	11900 3300 12000 3300
Wire Wire Line
	10000 1250 10000 1300
$Comp
L Amplifier_Operational:MCP6L01x-xOT U1
U 1 1 5ACDB404
P 3850 1600
F 0 "U1" H 4150 1850 50  0000 C CNN
F 1 "MCP6L01" H 4050 1750 50  0000 C CNN
F 2 "TO_SOT_Packages_SMD:SOT-23-5" H 3750 1400 50  0001 L CNN
F 3 "http://ww1.microchip.com/downloads/en/DeviceDoc/21314g.pdf" H 3850 1800 50  0001 C CNN
F 4 "MCP6L01T-E/OT" H 3850 1600 50  0001 C CNN "manf#"
	1    3850 1600
	-1   0    0    -1  
$EndComp
Connection ~ 3550 1600
$Comp
L Connector_Generic:Conn_02x03_Odd_Even P1
U 1 1 5ACDEDC5
P 13450 2700
F 0 "P1" H 13500 2500 50  0000 C CNN
F 1 "Conn_02x03_Odd_Even" H 13500 2926 50  0001 C CNN
F 2 "doragasu:CON_EDGE_TE-7-5530843-7" H 13450 2700 50  0001 C CNN
F 3 "~" H 13450 2700 50  0001 C CNN
	1    13450 2700
	1    0    0    -1  
$EndComp
Connection ~ 13750 2600
NoConn ~ 5200 9900
Wire Wire Line
	6200 9900 6400 9900
Wire Wire Line
	6400 9900 6400 10000
Connection ~ 6400 10000
$Comp
L power:GND #PWR0101
U 1 1 5AE0CB00
P 6350 9350
F 0 "#PWR0101" H 6350 9100 50  0001 C CNN
F 1 "GND" H 6355 9177 50  0001 C CNN
F 2 "" H 6350 9350 50  0000 C CNN
F 3 "" H 6350 9350 50  0000 C CNN
	1    6350 9350
	1    0    0    -1  
$EndComp
Wire Wire Line
	6200 9400 6200 9350
Wire Wire Line
	6200 9350 6350 9350
NoConn ~ 5200 9400
NoConn ~ 3000 5600
NoConn ~ 2000 5600
NoConn ~ 9200 6500
NoConn ~ 10400 5400
Connection ~ 4700 3500
Connection ~ 6700 2000
Connection ~ 6700 6900
Text Notes 2600 2700 0    50   ~ 0
Output impedance\nshall be 10k
Text Notes 10050 1300 0    50   ~ 0
← 1k
$Comp
L power:GND #PWR0102
U 1 1 5B107AA0
P 4400 6100
F 0 "#PWR0102" H 4400 5850 50  0001 C CNN
F 1 "GND" H 4405 5927 50  0001 C CNN
F 2 "" H 4400 6100 50  0000 C CNN
F 3 "" H 4400 6100 50  0000 C CNN
	1    4400 6100
	1    0    0    -1  
$EndComp
Wire Wire Line
	4200 6200 4300 6200
Wire Wire Line
	4300 6200 4300 6100
Wire Wire Line
	4300 6100 4400 6100
Wire Bus Line
	6700 1300 6700 2000
Wire Bus Line
	4700 2000 4700 3500
Wire Bus Line
	13000 4000 13000 6900
Wire Bus Line
	6700 6900 6700 9900
Wire Bus Line
	6700 2000 10100 2000
Wire Bus Line
	2500 2950 2500 7000
Wire Bus Line
	6700 6900 13000 6900
Wire Bus Line
	10800 3600 10800 6900
Wire Bus Line
	4700 3500 4700 9900
Wire Bus Line
	6700 2000 6700 6900
$Comp
L Connector_Generic:Conn_01x25 P2
U 1 1 5ACD9B00
P 1800 5100
F 0 "P2" H 1720 6425 50  0000 C CNN
F 1 "Conn_01x25" H 1720 6426 50  0001 C CNN
F 2 "Pin_Headers:Pin_Header_Straight_1x25" H 1800 5100 50  0001 C CNN
F 3 "~" H 1800 5100 50  0001 C CNN
F 4 "302-R501" H 1800 5100 50  0001 C CNN "manf#"
	1    1800 5100
	-1   0    0    -1  
$EndComp
$EndSCHEMATC
